# sent_id = wiki-1058.p.10.s.1.xml
# text = Het Klein en het Groot Begijnhof (dit laatste is UNESCO werelderfgoed ID 855-003)
'1	Het	_	_	_
'2	Klein	_	_	_
'3	en	_	_	_
'4	het	_	_	_
'5	Groot	_	_	_
'6	Begijnhof	_	_	_
'7	(	nsp	_	_
'8	dit	_	_	_
'9	laatste	_	_	_
'10	is	_	_	_
'11	UNESCO	_	_	_
'12	werelderfgoed	_	_	_
'13	ID	_	_	_
'14	855-003	nsp	_	_
'15	)	_	_	_

# sent_id = wiki-1058.p.10.s.2.xml
# text = Het stadhuis met een flamboyant-gotische gevel en oudere Lakenhal met Belfort (dit ouder gebouw is UNESCO werelderfgoed ID 943-015)
'1	Het	_	_	_
'2	stadhuis	_	_	_
'3	met	_	_	_
'4	een	_	_	_
'5	flamboyant-gotische	_	_	_
'6	gevel	_	_	_
'7	en	_	_	_
'8	oudere	_	_	_
'9	Lakenhal	_	_	_
'10	met	_	_	_
'11	Belfort	_	_	_
'12	(	nsp	_	_
'13	dit	_	_	_
'14	ouder	_	_	_
'15	gebouw	_	_	_
'16	is	_	_	_
'17	UNESCO	_	_	_
'18	werelderfgoed	_	_	_
'19	ID	_	_	_
'20	943-015	nsp	_	_
'21	)	_	_	_

# sent_id = wiki-1058.p.10.s.3.xml
# text = Het Hof van Savoye is nu het gerechtshof van Mechelen, maar was vroeger de residentie van Margaretha van Oostenrijk.
'1	Het	_	_	_
'2	Hof	_	_	_
'3	van	_	_	_
'4	Savoye	_	_	_
'5	is	_	_	_
'6	nu	_	_	_
'7	het	_	_	_
'8	gerechtshof	_	_	_
'9	van	_	_	_
'10	Mechelen	nsp	_	_
'11	,	_	_	_
'12	maar	_	_	_
'13	was	_	_	_
'14	vroeger	_	_	_
'15	de	_	_	_
'16	residentie	_	_	_
'17	van	_	_	_
'18	Margaretha	_	_	_
'19	van	_	_	_
'20	Oostenrijk	nsp	_	_
'21	.	_	_	_

# sent_id = wiki-1058.p.10.s.4.xml
# text = Musea:
'1	Musea	nsp	_	_
'2	:	_	_	_

# sent_id = wiki-1058.p.11.s.10.xml
# text = Klokkenmuseum Huis Michiels: museum over het belang van de torenuurwerken en de geschiedenis van het klokkengieten.
'1	Klokkenmuseum	_	_	_
'2	Huis	_	_	_
'3	Michiels	nsp	_	_
'4	:	_	_	_
'5	museum	_	_	_
'6	over	_	_	_
'7	het	_	_	_
'8	belang	_	_	_
'9	van	_	_	_
'10	de	_	_	_
'11	torenuurwerken	_	_	_
'12	en	_	_	_
'13	de	_	_	_
'14	geschiedenis	_	_	_
'15	van	_	_	_
'16	het	_	_	_
'17	klokkengieten	nsp	_	VERB
'18	.	_	_	_

# sent_id = wiki-1058.p.11.s.11.xml
# text = Archeologisch Museum: interessante verzameling historische vondsten.
'1	Archeologisch	_	_	_
'2	Museum	nsp	_	_
'3	:	_	_	_
'4	interessante	_	_	_
'5	verzameling	_	_	_
'6	historische	_	_	_
'7	vondsten	nsp	_	_
'8	.	_	_	_

# sent_id = wiki-1058.p.11.s.12.xml
# text = Museum Brouwerij Het Anker
'1	Museum	_	_	_
'2	Brouwerij	_	_	_
'3	Het	_	_	_
'4	Anker	_	_	_

# sent_id = wiki-1058.p.11.s.13.xml
# text = Koninklijke Manufactuur van Wandtapijten De Wit: een internationaal vermaarde instelling die oude wandtapijten restaureert.
'1	Koninklijke	_	_	_
'2	Manufactuur	_	_	_
'3	van	_	_	_
'4	Wandtapijten	_	_	_
'5	De	_	_	_
'6	Wit	nsp	_	_
'7	:	_	_	_
'8	een	_	_	_
'9	internationaal	_	_	_
'10	vermaarde	_	_	_
'11	instelling	_	_	_
'12	die	_	_	_
'13	oude	_	_	_
'14	wandtapijten	_	_	_
'15	restaureert	nsp	_	VERB
'16	.	_	_	_

# sent_id = wiki-1058.p.11.s.14.xml
# text = Website: http://www.dewit.be
'1	Website	nsp	_	_
'2	:	_	_	_
'3	http://www.dewit.be	_	_	_

# sent_id = wiki-1058.p.11.s.1.xml
# text = Stedelijk Museum Brusselpoort: de enige overblijvende stadspoort
'1	Stedelijk	_	_	_
'2	Museum	_	_	_
'3	Brusselpoort	nsp	_	_
'4	:	_	_	_
'5	de	_	_	_
'6	enige	_	_	_
'7	overblijvende	_	_	VERB
'8	stadspoort	_	_	_

# sent_id = wiki-1058.p.11.s.2.xml
# text = Stedelijk Museum Schepenhuis: het eerste stadhuis van Mechelen, gebouwd op het einde van de 14e eeuw
'1	Stedelijk	_	_	_
'2	Museum	_	_	_
'3	Schepenhuis	nsp	_	_
'4	:	_	_	_
'5	het	_	_	_
'6	eerste	_	_	_
'7	stadhuis	_	_	_
'8	van	_	_	_
'9	Mechelen	nsp	_	_
'10	,	_	_	_
'11	gebouwd	_	_	VERB
'12	op	_	_	_
'13	het	_	_	_
'14	einde	_	_	_
'15	van	_	_	_
'16	de	_	_	_
'17	14e	_	_	_
'18	eeuw	_	_	_

# sent_id = wiki-1058.p.11.s.3.xml
# text = Hof van Busleyden, vroeg-renaissance residentie, nu Stedelijk Museum Hof van Busleyden
'1	Hof	_	_	_
'2	van	_	_	_
'3	Busleyden	nsp	_	_
'4	,	_	_	_
'5	vroeg-renaissance	_	_	_
'6	residentie	nsp	_	_
'7	,	_	_	_
'8	nu	_	_	_
'9	Stedelijk	_	_	_
'10	Museum	_	_	_
'11	Hof	_	_	_
'12	van	_	_	_
'13	Busleyden	_	_	_

# sent_id = wiki-1058.p.11.s.4.xml
# text = Het Speelgoedmuseum: herbergt een unieke collectie oud en hedendaags speelgoed.
'1	Het	_	_	_
'2	Speelgoedmuseum	nsp	_	_
'3	:	_	_	_
'4	herbergt	_	_	VERB
'5	een	_	_	_
'6	unieke	_	_	_
'7	collectie	_	_	_
'8	oud	_	_	_
'9	en	_	_	_
'10	hedendaags	_	_	_
'11	speelgoed	nsp	_	_
'12	.	_	_	_

# sent_id = wiki-1058.p.11.s.5.xml
# text = Vaak nieuwe invalshoeken op speelgoed.
'1	Vaak	_	_	_
'2	nieuwe	_	_	_
'3	invalshoeken	_	_	_
'4	op	_	_	_
'5	speelgoed	nsp	_	_
'6	.	_	_	_

# sent_id = wiki-1058.p.11.s.6.xml
# text = Website: http://www.speelgoedmuseum.be /
'1	Website	nsp	_	_
'2	:	_	_	_
'3	http://www.speelgoedmuseum.be	_	_	_
'4	/	_	_	_

# sent_id = wiki-1058.p.11.s.7.xml
# text = Joods Museum van deportatie en verzet: Mooi, klein en aangrijpend museum over de deportatie van Joodse krijgsgevangenen in de Tweede Wereldoorlog vanuit de Dossinkazerne.
'1	Joods	_	_	_
'2	Museum	_	_	_
'3	van	_	_	_
'4	deportatie	_	_	_
'5	en	_	_	_
'6	verzet	nsp	_	_
'7	:	_	_	_
'8	Mooi	nsp	_	_
'9	,	_	_	_
'10	klein	_	_	_
'11	en	_	_	_
'12	aangrijpend	_	_	VERB
'13	museum	_	_	_
'14	over	_	_	_
'15	de	_	_	_
'16	deportatie	_	_	_
'17	van	_	_	_
'18	Joodse	_	_	_
'19	krijgsgevangenen	_	_	_
'20	in	_	_	_
'21	de	_	_	_
'22	Tweede	_	_	_
'23	Wereldoorlog	_	_	_
'24	vanuit	_	_	_
'25	de	_	_	_
'26	Dossinkazerne	nsp	_	_
'27	.	_	_	_

# sent_id = wiki-1058.p.11.s.8.xml
# text = Mechels Horlogerie- en klokkenmuseum website: http://www.horlogeriemuseum.be /
'1	Mechels	_	_	_
'2	Horlogerie-	_	_	_
'3	en	_	_	_
'4	klokkenmuseum	_	_	_
'5	website	nsp	_	_
'6	:	_	_	_
'7	http://www.horlogeriemuseum.be	_	_	_
'8	/	_	_	_

# sent_id = wiki-1058.p.11.s.9.xml
# text = Spoorwegmuseum De Mijlpaal vzw: dit museum schetst het ontstaan en de ontwikkeling van spoorwegen alsook de invloed ervan op de stad Mechelen.
'1	Spoorwegmuseum	_	_	_
'2	De	_	_	_
'3	Mijlpaal	_	_	_
'4	vzw	nsp	_	_
'5	:	_	_	_
'6	dit	_	_	_
'7	museum	_	_	_
'8	schetst	_	_	VERB
'9	het	_	_	_
'10	ontstaan	_	_	VERB
'11	en	_	_	_
'12	de	_	_	_
'13	ontwikkeling	_	_	_
'14	van	_	_	_
'15	spoorwegen	_	_	_
'16	alsook	_	_	_
'17	de	_	_	_
'18	invloed	_	_	_
'19	ervan	_	_	_
'20	op	_	_	_
'21	de	_	_	_
'22	stad	_	_	_
'23	Mechelen	nsp	_	_
'24	.	_	_	_

# sent_id = wiki-1058.p.12.s.1.xml
# text = De Kruidtuin, met marmeren standbeeld van de wereldbefaamde lokale herbalist Rembert Dodoens
'1	De	_	_	_
'2	Kruidtuin	nsp	_	_
'3	,	_	_	_
'4	met	_	_	_
'5	marmeren	_	_	_
'6	standbeeld	_	_	_
'7	van	_	_	_
'8	de	_	_	_
'9	wereldbefaamde	_	_	_
'10	lokale	_	_	_
'11	herbalist	_	_	_
'12	Rembert	_	_	_
'13	Dodoens	_	_	_

# sent_id = wiki-1058.p.12.s.2.xml
# text = Planckendael: het dierenpark van Mechelen.
'1	Planckendael	nsp	_	_
'2	:	_	_	_
'3	het	_	_	_
'4	dierenpark	_	_	_
'5	van	_	_	_
'6	Mechelen	nsp	_	_
'7	.	_	_	_

# sent_id = wiki-1058.p.12.s.3.xml
# text = Website: http://www.planckendael.be
'1	Website	nsp	_	_
'2	:	_	_	_
'3	http://www.planckendael.be	_	_	_

# sent_id = wiki-1058.p.12.s.4.xml
# text = Technopolis: wetenschap doen. website: http://www.technopolis.be
'1	Technopolis	nsp	_	_
'2	:	_	_	_
'3	wetenschap	_	_	_
'4	doen	nsp	_	VERB
'5	.	_	_	_
'6	website	nsp	_	_
'7	:	_	_	_
'8	http://www.technopolis.be	_	_	_

# sent_id = wiki-1058.p.13.s.1.xml
# text = Weerkerende gebeurtenissen
'1	Weerkerende	_	_	VERB
'2	gebeurtenissen	_	_	_

# sent_id = wiki-1058.p.14.s.1.xml
# text = Om de 25 jaar
'1	Om	_	_	_
'2	de	_	_	_
'3	25	_	_	_
'4	jaar	_	_	_

# sent_id = wiki-1058.p.15.s.1.xml
# text = De Cavalcade gevolgd door de Ommegang.
'1	De	_	_	_
'2	Cavalcade	_	_	_
'3	gevolgd	_	_	VERB
'4	door	_	_	_
'5	de	_	_	_
'6	Ommegang	nsp	_	_
'7	.	_	_	_

# sent_id = wiki-1058.p.15.s.2.xml
# text = Deze laatste is als traditie van de reuzenstoet erkend als UNESCO Meesterwerk van het Orale en Immateriële Erfgoed van de Mensheid.
'1	Deze	_	_	_
'2	laatste	_	_	_
'3	is	_	_	VERB
'4	als	_	_	_
'5	traditie	_	_	_
'6	van	_	_	_
'7	de	_	_	_
'8	reuzenstoet	_	_	_
'9	erkend	_	_	VERB
'10	als	_	_	_
'11	UNESCO	_	_	_
'12	Meesterwerk	_	_	_
'13	van	_	_	_
'14	het	_	_	_
'15	Orale	_	_	_
'16	en	_	_	_
'17	Immateriële	_	_	_
'18	Erfgoed	_	_	_
'19	van	_	_	_
'20	de	_	_	_
'21	Mensheid	nsp	_	_
'22	.	_	_	_

# sent_id = wiki-1058.p.16.s.1.xml
# text = Jaarlijks
'1	Jaarlijks	_	_	_

# sent_id = wiki-1058.p.17.s.1.xml
# text = De Hanswijkprocessie (zondag voor Hemelvaart)
'1	De	_	_	_
'2	Hanswijkprocessie	_	_	_
'3	(	nsp	_	_
'4	zondag	_	_	_
'5	voor	_	_	_
'6	Hemelvaart	nsp	_	_
'7	)	_	_	_

# sent_id = wiki-1058.p.17.s.2.xml
# text = muziekfestivals:
'1	muziekfestivals	nsp	_	_
'2	:	_	_	_

# sent_id = wiki-1058.p.18.s.1.xml
# text = Parkpop in de Kruidtuin, elke donderdagavond in juli en augustus
'1	Parkpop	_	_	_
'2	in	_	_	_
'3	de	_	_	_
'4	Kruidtuin	nsp	_	_
'5	,	_	_	_
'6	elke	_	_	_
'7	donderdagavond	_	_	_
'8	in	_	_	_
'9	juli	_	_	_
'10	en	_	_	_
'11	augustus	_	_	_

# sent_id = wiki-1058.p.18.s.2.xml
# text = Maanrock (3e weekend in augustus) op de Grote Markt Mechelen
'1	Maanrock	_	_	_
'2	(	nsp	_	_
'3	3e	_	_	_
'4	weekend	_	_	_
'5	in	_	_	_
'6	augustus	nsp	_	_
'7	)	_	_	_
'8	op	_	_	_
'9	de	_	_	_
'10	Grote	_	_	_
'11	Markt	_	_	_
'12	Mechelen	_	_	_

# sent_id = wiki-1058.p.19.s.1.xml
# text = Zeer geregeld
'1	Zeer	_	_	_
'2	geregeld	_	_	VERB

# sent_id = wiki-1058.p.1.s.1.xml
# text = Mechelen (stad)
'1	Mechelen	_	_	_
'2	(	nsp	_	_
'3	stad	nsp	_	_
'4	)	_	_	_

# sent_id = wiki-1058.p.20.s.1.xml
# text = Beiaardconcerten vanuit de kathedraal
'1	Beiaardconcerten	_	_	_
'2	vanuit	_	_	_
'3	de	_	_	_
'4	kathedraal	_	_	_

# sent_id = wiki-1058.p.21.s.1.xml
# text = gans het jaar door op zaterdag en maandag om 11.30u en zondag om 15u
'1	gans	_	_	_
'2	het	_	_	_
'3	jaar	_	_	_
'4	door	_	_	_
'5	op	_	_	_
'6	zaterdag	_	_	_
'7	en	_	_	_
'8	maandag	_	_	_
'9	om	_	_	_
'10	11.30u	_	_	_
'11	en	_	_	_
'12	zondag	_	_	_
'13	om	_	_	_
'14	15u	_	_	_

# sent_id = wiki-1058.p.21.s.2.xml
# text = zomerconcerten van juni tot half september: elke maandag om 20.30u
'1	zomerconcerten	_	_	_
'2	van	_	_	_
'3	juni	_	_	_
'4	tot	_	_	_
'5	half	_	_	_
'6	september	nsp	_	_
'7	:	_	_	_
'8	elke	_	_	_
'9	maandag	_	_	_
'10	om	_	_	_
'11	20.30u	_	_	_

# sent_id = wiki-1058.p.22.s.1.xml
# text = Gastronomie
'1	Gastronomie	_	_	_

# sent_id = wiki-1058.p.23.s.1.xml
# text = Mechelse koekoek: een kippenras
'1	Mechelse	_	_	_
'2	koekoek	nsp	_	_
'3	:	_	_	_
'4	een	_	_	_
'5	kippenras	_	_	_

# sent_id = wiki-1058.p.23.s.2.xml
# text = Gouden Carolusbier: een drank gebrouwen in Brouwerij Het Anker
'1	Gouden	_	_	_
'2	Carolusbier	nsp	_	_
'3	:	_	_	_
'4	een	_	_	_
'5	drank	_	_	_
'6	gebrouwen	_	_	VERB
'7	in	_	_	_
'8	Brouwerij	_	_	_
'9	Het	_	_	_
'10	Anker	_	_	_

# sent_id = wiki-1058.p.23.s.3.xml
# text = Mechels maantje: een chocolaatje
'1	Mechels	_	_	_
'2	maantje	nsp	_	_
'3	:	_	_	_
'4	een	_	_	_
'5	chocolaatje	_	_	_

# sent_id = wiki-1058.p.23.s.4.xml
# text = Mechels torentje: een zandkoekje
'1	Mechels	_	_	_
'2	torentje	nsp	_	_
'3	:	_	_	_
'4	een	_	_	_
'5	zandkoekje	_	_	_

# sent_id = wiki-1058.p.23.s.5.xml
# text = Mechels margrietje: een citroenkoekje
'1	Mechels	_	_	_
'2	margrietje	nsp	_	_
'3	:	_	_	_
'4	een	_	_	_
'5	citroenkoekje	_	_	_

# sent_id = wiki-1058.p.24.s.1.xml
# text = Sport
'1	Sport	_	_	_

# sent_id = wiki-1058.p.25.s.1.xml
# text = Mechelen herbergt twee van de oudste voetbalploegen van België: Racing Mechelen (stamnummer 24) en KV Mechelen (stamnummer 25), beide opgericht in 1904.
'1	Mechelen	_	_	_
'2	herbergt	_	_	VERB
'3	twee	_	_	_
'4	van	_	_	_
'5	de	_	_	_
'6	oudste	_	_	_
'7	voetbalploegen	_	_	_
'8	van	_	_	_
'9	België	nsp	_	_
'10	:	_	_	_
'11	Racing	_	_	_
'12	Mechelen	_	_	_
'13	(	nsp	_	_
'14	stamnummer	_	_	_
'15	24	nsp	_	_
'16	)	_	_	_
'17	en	_	_	_
'18	KV	_	_	_
'19	Mechelen	_	_	_
'20	(	nsp	_	_
'21	stamnummer	_	_	_
'22	25	nsp	_	_
'23	)	nsp	_	_
'24	,	_	_	_
'25	beide	_	_	_
'26	opgericht	_	_	VERB
'27	in	_	_	_
'28	1904	nsp	_	_
'29	.	_	_	_

# sent_id = wiki-1058.p.26.s.1.xml
# text = Foto's
'1	Foto's	_	_	_

# sent_id = wiki-1058.p.27.s.1.xml
# text = Er is een zeer actieve online Mechelen-fotogroep op «Flickr».
'1	Er	_	_	_
'2	is	_	_	VERB
'3	een	_	_	_
'4	zeer	_	_	_
'5	actieve	_	_	_
'6	online	_	_	_
'7	Mechelen-fotogroep	_	_	_
'8	op	_	_	_
'9	«	nsp	_	_
'10	Flickr	nsp	_	_
'11	»	nsp	_	_
'12	.	_	_	_

# sent_id = wiki-1058.p.28.s.1.xml
# text = Nieuwe stadsprojecten
'1	Nieuwe	_	_	_
'2	stadsprojecten	_	_	_

# sent_id = wiki-1058.p.29.s.10.xml
# text = openleggen van de vliet Melaan
'1	openleggen	_	_	VERB
'2	van	_	_	_
'3	de	_	_	_
'4	vliet	_	_	_
'5	Melaan	_	_	_

# sent_id = wiki-1058.p.29.s.1.xml
# text = de Lamotsite website http://www.lamot-mechelen.be /
'1	de	_	_	_
'2	Lamotsite	_	_	_
'3	website	_	_	_
'4	http://www.lamot-mechelen.be	_	_	_
'5	/	_	_	_

# sent_id = wiki-1058.p.29.s.2.xml
# text = het Euroshoppingcomplex
'1	het	_	_	_
'2	Euroshoppingcomplex	_	_	_

# sent_id = wiki-1058.p.29.s.3.xml
# text = Zoutwerf
'1	Zoutwerf	_	_	_

# sent_id = wiki-1058.p.29.s.4.xml
# text = Gommarushof
'1	Gommarushof	_	_	_

# sent_id = wiki-1058.p.29.s.5.xml
# text = het Huis van de Mechelaar
'1	het	_	_	_
'2	Huis	_	_	_
'3	van	_	_	_
'4	de	_	_	_
'5	Mechelaar	_	_	_

# sent_id = wiki-1058.p.29.s.6.xml
# text = het Holocaustmuseum
'1	het	_	_	_
'2	Holocaustmuseum	_	_	_

# sent_id = wiki-1058.p.29.s.7.xml
# text = Dijlepad
'1	Dijlepad	_	_	_

# sent_id = wiki-1058.p.29.s.8.xml
# text = Ondergrondse parking Grote Markt Mechelen
'1	Ondergrondse	_	_	_
'2	parking	_	_	_
'3	Grote	_	_	_
'4	Markt	_	_	_
'5	Mechelen	_	_	_

# sent_id = wiki-1058.p.29.s.9.xml
# text = Parking Veemarkt
'1	Parking	_	_	_
'2	Veemarkt	_	_	_

# sent_id = wiki-1058.p.2.s.1.xml
# text = Mechelen (Frans: «Malines», Duits: «Mecheln», Engels: «Mechelen» of traditioneel «Mechlin») is een stad in België, het Vlaams Gewest, provincie Antwerpen.
'1	Mechelen	_	_	_
'2	(	nsp	_	_
'3	Frans	nsp	_	_
'4	:	_	_	_
'5	«	nsp	_	_
'6	Malines	nsp	_	_
'7	»	nsp	_	_
'8	,	_	_	_
'9	Duits	nsp	_	_
'10	:	_	_	_
'11	«	nsp	_	_
'12	Mecheln	nsp	_	_
'13	»	nsp	_	_
'14	,	_	_	_
'15	Engels	nsp	_	_
'16	:	_	_	_
'17	«	nsp	_	_
'18	Mechelen	nsp	_	_
'19	»	_	_	_
'20	of	_	_	_
'21	traditioneel	_	_	_
'22	«	nsp	_	_
'23	Mechlin	nsp	_	_
'24	»	nsp	_	_
'25	)	_	_	_
'26	is	_	_	_
'27	een	_	_	_
'28	stad	_	_	_
'29	in	_	_	_
'30	België	nsp	_	_
'31	,	_	_	_
'32	het	_	_	_
'33	Vlaams	_	_	_
'34	Gewest	nsp	_	_
'35	,	_	_	_
'36	provincie	_	_	_
'37	Antwerpen	nsp	_	_
'38	.	_	_	_

# sent_id = wiki-1058.p.2.s.2.xml
# text = Ze ligt centraal tussen de grote steden Antwerpen en Brussel, aan de rivier Dijle, en telt ruim 78.000 inwoners.
'1	Ze	_	_	_
'2	ligt	_	_	VERB
'3	centraal	_	_	_
'4	tussen	_	_	_
'5	de	_	_	_
'6	grote	_	_	_
'7	steden	_	_	_
'8	Antwerpen	_	_	_
'9	en	_	_	_
'10	Brussel	nsp	_	_
'11	,	_	_	_
'12	aan	_	_	_
'13	de	_	_	_
'14	rivier	_	_	_
'15	Dijle	nsp	_	_
'16	,	_	_	_
'17	en	_	_	_
'18	telt	_	_	VERB
'19	ruim	_	_	_
'20	78.000	_	_	_
'21	inwoners	nsp	_	_
'22	.	_	_	_

# sent_id = wiki-1058.p.30.s.1.xml
# text = Diversen
'1	Diversen	_	_	_

# sent_id = wiki-1058.p.31.s.1.xml
# text = Mechelen is bekend om zijn beiaard en zijn beiaardschool die vanuit het buitenland heel wat cursisten aantrekt.
'1	Mechelen	_	_	_
'2	is	_	_	_
'3	bekend	_	_	_
'4	om	_	_	_
'5	zijn	_	_	_
'6	beiaard	_	_	_
'7	en	_	_	_
'8	zijn	_	_	_
'9	beiaardschool	_	_	_
'10	die	_	_	_
'11	vanuit	_	_	_
'12	het	_	_	_
'13	buitenland	_	_	_
'14	heel	_	_	_
'15	wat	_	_	_
'16	cursisten	_	_	_
'17	aantrekt	nsp	_	VERB
'18	.	_	_	_

# sent_id = wiki-1058.p.31.s.2.xml
# text = Het was het levenswerk van Jef Denyn.
'1	Het	_	_	_
'2	was	_	_	_
'3	het	_	_	_
'4	levenswerk	_	_	_
'5	van	_	_	_
'6	Jef	_	_	_
'7	Denyn	nsp	_	_
'8	.	_	_	_

# sent_id = wiki-1058.p.31.s.3.xml
# text = de Nekkerhal met zijn beurzen, festivals, rommelmarkten, concerten. http://www.nekkerhal.be
'1	de	_	_	_
'2	Nekkerhal	_	_	_
'3	met	_	_	_
'4	zijn	_	_	_
'5	beurzen	nsp	_	_
'6	,	_	_	_
'7	festivals	nsp	_	_
'8	,	_	_	_
'9	rommelmarkten	nsp	_	_
'10	,	_	_	_
'11	concerten	nsp	_	_
'12	.	_	_	_
'13	http://www.nekkerhal.be	_	_	_

# sent_id = wiki-1058.p.31.s.4.xml
# text = cultuur: Cultuurcentrum Mechelen CC Mechelen
'1	cultuur	nsp	_	_
'2	:	_	_	_
'3	Cultuurcentrum	_	_	_
'4	Mechelen	_	_	_
'5	CC	_	_	_
'6	Mechelen	_	_	_

# sent_id = wiki-1058.p.31.s.5.xml
# text = toerisme: stadswandelingen, geleide bezoeken, rondvaarten op de Mechelse Binnendijle
'1	toerisme	nsp	_	_
'2	:	_	_	_
'3	stadswandelingen	nsp	_	_
'4	,	_	_	_
'5	geleide	_	_	VERB
'6	bezoeken	nsp	_	VERB
'7	,	_	_	_
'8	rondvaarten	_	_	_
'9	op	_	_	_
'10	de	_	_	_
'11	Mechelse	_	_	_
'12	Binnendijle	_	_	_

# sent_id = wiki-1058.p.31.s.6.xml
# text = onderwijs: grootste toerisme-Hogeschool van België - Campus Coloma - één van de opleidingen van de KH Mechelen
'1	onderwijs	nsp	_	_
'2	:	_	_	_
'3	grootste	_	_	_
'4	toerisme-Hogeschool	_	_	_
'5	van	_	_	_
'6	België	_	_	_
'7	-	_	_	_
'8	Campus	_	_	_
'9	Coloma	_	_	_
'10	-	_	_	_
'11	één	_	_	_
'12	van	_	_	_
'13	de	_	_	_
'14	opleidingen	_	_	_
'15	van	_	_	_
'16	de	_	_	_
'17	KH	_	_	_
'18	Mechelen	_	_	_

# sent_id = wiki-1058.p.32.s.1.xml
# text = Bekende Mechelaars
'1	Bekende	_	_	_
'2	Mechelaars	_	_	_

# sent_id = wiki-1058.p.33.s.1.xml
# text = Zie de opsomming van bekende Mechelaars of de aparte lijst van oud-burgemeesters.
'1	Zie	_	_	VERB
'2	de	_	_	_
'3	opsomming	_	_	_
'4	van	_	_	_
'5	bekende	_	_	_
'6	Mechelaars	_	_	_
'7	of	_	_	_
'8	de	_	_	_
'9	aparte	_	_	_
'10	lijst	_	_	_
'11	van	_	_	_
'12	oud-burgemeesters	nsp	_	_
'13	.	_	_	_

# sent_id = wiki-1058.p.34.s.1.xml
# text = Evolutie van het inwoneraantal
'1	Evolutie	_	_	_
'2	van	_	_	_
'3	het	_	_	_
'4	inwoneraantal	_	_	_

# sent_id = wiki-1058.p.35.s.1.xml
# text = 19e eeuw
'1	19e	_	_	_
'2	eeuw	_	_	_

# sent_id = wiki-1058.p.36.s.1.xml
# text = 20e eeuw tot aan herinrichting gemeenten
'1	20e	_	_	_
'2	eeuw	_	_	_
'3	tot	_	_	_
'4	aan	_	_	_
'5	herinrichting	_	_	_
'6	gemeenten	_	_	_

# sent_id = wiki-1058.p.37.s.1.xml
# text = Na de gemeentelijke herinrichting
'1	Na	_	_	_
'2	de	_	_	_
'3	gemeentelijke	_	_	_
'4	herinrichting	_	_	_

# sent_id = wiki-1058.p.38.s.1.xml
# text = Externe links
'1	Externe	_	_	_
'2	links	_	_	_

# sent_id = wiki-1058.p.39.s.1.xml
# text = Wiki Mechelen
'1	Wiki	_	_	_
'2	Mechelen	_	_	_

# sent_id = wiki-1058.p.39.s.2.xml
# text = Gemeentesite
'1	Gemeentesite	_	_	_

# sent_id = wiki-1058.p.39.s.3.xml
# text = Het verdwenen Mechelse gehucht Halfgalg
'1	Het	_	_	_
'2	verdwenen	_	_	VERB
'3	Mechelse	_	_	_
'4	gehucht	_	_	_
'5	Halfgalg	_	_	_

# sent_id = wiki-1058.p.39.s.4.xml
# text = Restauratie Integratie Mechelen
'1	Restauratie	_	_	_
'2	Integratie	_	_	_
'3	Mechelen	_	_	_

# sent_id = wiki-1058.p.39.s.5.xml
# text = Mechelenbinnenstebuiten
'1	Mechelenbinnenstebuiten	_	_	_

# sent_id = wiki-1058.p.39.s.6.xml
# text = Mechelen op Google Maps
'1	Mechelen	_	_	_
'2	op	_	_	_
'3	Google	_	_	_
'4	Maps	_	_	_

# sent_id = wiki-1058.p.3.s.1.xml
# text = Gedurende een korte periode in de zestiende eeuw werden de Nederlanden vanuit Mechelen geregeerd.
'1	Gedurende	_	_	_
'2	een	_	_	_
'3	korte	_	_	_
'4	periode	_	_	_
'5	in	_	_	_
'6	de	_	_	_
'7	zestiende	_	_	_
'8	eeuw	_	_	_
'9	werden	_	_	_
'10	de	_	_	_
'11	Nederlanden	_	_	_
'12	vanuit	_	_	_
'13	Mechelen	_	_	_
'14	geregeerd	nsp	_	VERB
'15	.	_	_	_

# sent_id = wiki-1058.p.3.s.2.xml
# text = Het uitgebreide kunstpatrimonium is verspreid over een aantal bouwsels.
'1	Het	_	_	_
'2	uitgebreide	_	_	VERB
'3	kunstpatrimonium	_	_	_
'4	is	_	_	_
'5	verspreid	_	_	VERB
'6	over	_	_	_
'7	een	_	_	_
'8	aantal	_	_	_
'9	bouwsels	nsp	_	_
'10	.	_	_	_

# sent_id = wiki-1058.p.3.s.3.xml
# text = Momenteel is het de stad met het op één na hoogst aantal beschermde gebouwen van Vlaanderen en ze geniet maar liefst vier UNESCO vermeldingen.
'1	Momenteel	_	_	_
'2	is	_	_	_
'3	het	_	_	_
'4	de	_	_	_
'5	stad	_	_	_
'6	met	_	_	_
'7	het	_	_	_
'8	op	_	_	_
'9	één	_	_	_
'10	na	_	_	_
'11	hoogst	_	_	_
'12	aantal	_	_	_
'13	beschermde	_	_	VERB
'14	gebouwen	_	_	_
'15	van	_	_	_
'16	Vlaanderen	_	_	_
'17	en	_	_	_
'18	ze	_	_	_
'19	geniet	_	_	VERB
'20	maar	_	_	_
'21	liefst	_	_	_
'22	vier	_	_	_
'23	UNESCO	_	_	_
'24	vermeldingen	nsp	_	_
'25	.	_	_	_

# sent_id = wiki-1058.p.4.s.1.xml
# text = De inwoners van Mechelen dragen de bijnaam «Maneblussers».
'1	De	_	_	_
'2	inwoners	_	_	_
'3	van	_	_	_
'4	Mechelen	_	_	_
'5	dragen	_	_	VERB
'6	de	_	_	_
'7	bijnaam	_	_	_
'8	«	nsp	_	_
'9	Maneblussers	nsp	_	_
'10	»	nsp	_	_
'11	.	_	_	_

# sent_id = wiki-1058.p.4.s.2.xml
# text = Sint-Rombout geldt als hun beschermheilige.
'1	Sint-Rombout	_	_	_
'2	geldt	_	_	VERB
'3	als	_	_	_
'4	hun	_	_	_
'5	beschermheilige	nsp	_	_
'6	.	_	_	_

# sent_id = wiki-1058.p.5.s.1.xml
# text = Geschiedenis
'1	Geschiedenis	_	_	_

# sent_id = wiki-1058.p.6.s.1.xml
# text = Mechelen verscheen voor het eerst in een nog bestaande oorkonde in 1008 met de naam «Machlines», dat later evolueerde tot «Machele» (12e eeuw), «Mechgelme» (14e eeuw) en tot «Mechelen» in de 15e eeuw.
'1	Mechelen	_	_	_
'2	verscheen	_	_	VERB
'3	voor	_	_	_
'4	het	_	_	_
'5	eerst	_	_	_
'6	in	_	_	_
'7	een	_	_	_
'8	nog	_	_	_
'9	bestaande	_	_	VERB
'10	oorkonde	_	_	_
'11	in	_	_	_
'12	1008	_	_	_
'13	met	_	_	_
'14	de	_	_	_
'15	naam	_	_	_
'16	«	nsp	_	_
'17	Machlines	nsp	_	_
'18	»	nsp	_	_
'19	,	_	_	_
'20	dat	_	_	_
'21	later	_	_	_
'22	evolueerde	_	_	VERB
'23	tot	_	_	_
'24	«	nsp	_	_
'25	Machele	nsp	_	_
'26	»	_	_	_
'27	(	nsp	_	_
'28	12e	_	_	_
'29	eeuw	nsp	_	_
'30	)	nsp	_	_
'31	,	_	_	_
'32	«	nsp	_	_
'33	Mechgelme	nsp	_	_
'34	»	_	_	_
'35	(	nsp	_	_
'36	14e	_	_	_
'37	eeuw	nsp	_	_
'38	)	_	_	_
'39	en	_	_	_
'40	tot	_	_	_
'41	«	nsp	_	_
'42	Mechelen	nsp	_	_
'43	»	_	_	_
'44	in	_	_	_
'45	de	_	_	_
'46	15e	_	_	_
'47	eeuw	nsp	_	_
'48	.	_	_	_

# sent_id = wiki-1058.p.6.s.2.xml
# text = De naam van de stad zou afgeleid zijn van het woord «mahal» dat naar een vergader- of gerechtsplaats verwijst.
'1	De	_	_	_
'2	naam	_	_	_
'3	van	_	_	_
'4	de	_	_	_
'5	stad	_	_	_
'6	zou	_	_	_
'7	afgeleid	_	_	VERB
'8	zijn	_	_	_
'9	van	_	_	_
'10	het	_	_	_
'11	woord	_	_	_
'12	«	nsp	_	_
'13	mahal	nsp	_	_
'14	»	_	_	_
'15	dat	_	_	_
'16	naar	_	_	_
'17	een	_	_	_
'18	vergader-	_	_	_
'19	of	_	_	_
'20	gerechtsplaats	_	_	_
'21	verwijst	nsp	_	VERB
'22	.	_	_	_

# sent_id = wiki-1058.p.6.s.3.xml
# text = Tot 1795 vormde de stad het centrum van de kleine zelfstandige Heerlijkheid Mechelen.
'1	Tot	_	_	_
'2	1795	_	_	_
'3	vormde	_	_	VERB
'4	de	_	_	_
'5	stad	_	_	_
'6	het	_	_	_
'7	centrum	_	_	_
'8	van	_	_	_
'9	de	_	_	_
'10	kleine	_	_	_
'11	zelfstandige	_	_	_
'12	Heerlijkheid	_	_	_
'13	Mechelen	nsp	_	_
'14	.	_	_	_

# sent_id = wiki-1058.p.7.s.1.xml
# text = Bezienswaardigheden
'1	Bezienswaardigheden	_	_	_

# sent_id = wiki-1058.p.8.s.1.xml
# text = Kerken
'1	Kerken	_	_	_

# sent_id = wiki-1058.p.9.s.1.xml
# text = De Sint-Romboutskathedraal (de toren met twee complete beiaarden is UNESCO werelderfgoed ID 943-016)
'1	De	_	_	_
'2	Sint-Romboutskathedraal	_	_	_
'3	(	nsp	_	_
'4	de	_	_	_
'5	toren	_	_	_
'6	met	_	_	_
'7	twee	_	_	_
'8	complete	_	_	_
'9	beiaarden	_	_	_
'10	is	_	_	_
'11	UNESCO	_	_	_
'12	werelderfgoed	_	_	_
'13	ID	_	_	_
'14	943-016	nsp	_	_
'15	)	_	_	_

# sent_id = wiki-1058.p.9.s.2.xml
# text = De barokke Onze-Lieve-Vrouw-van-Hanswijkbasiliek met haar koepel, befaamde architect was de lokale Lucas Faydherbe
'1	De	_	_	_
'2	barokke	_	_	_
'3	Onze-Lieve-Vrouw-van-Hanswijkbasiliek	_	_	_
'4	met	_	_	_
'5	haar	_	_	_
'6	koepel	nsp	_	_
'7	,	_	_	_
'8	befaamde	_	_	_
'9	architect	_	_	_
'10	was	_	_	_
'11	de	_	_	_
'12	lokale	_	_	_
'13	Lucas	_	_	_
'14	Faydherbe	_	_	_

# sent_id = wiki-1058.p.9.s.3.xml
# text = De Sint-Janskerk (Sint-Jan de Evangelist) herbergt «De aanbidding der wijzen» van Rubens.
'1	De	_	_	_
'2	Sint-Janskerk	_	_	_
'3	(	nsp	_	_
'4	Sint-Jan	_	_	_
'5	de	_	_	_
'6	Evangelist	nsp	_	_
'7	)	_	_	_
'8	herbergt	_	_	VERB
'9	«	nsp	_	_
'10	De	_	_	_
'11	aanbidding	_	_	_
'12	der	_	_	_
'13	wijzen	nsp	_	VERB
'14	»	_	_	_
'15	van	_	_	_
'16	Rubens	nsp	_	_
'17	.	_	_	_

# sent_id = wiki-1058.p.9.s.4.xml
# text = De Onze-Lieve-Vrouw-over-de-Dijlekerk herbergt «De wonderbare visvangst» van Rubens.
'1	De	_	_	_
'2	Onze-Lieve-Vrouw-over-de-Dijlekerk	_	_	_
'3	herbergt	_	_	VERB
'4	«	nsp	_	_
'5	De	_	_	_
'6	wonderbare	_	_	_
'7	visvangst	nsp	_	_
'8	»	_	_	_
'9	van	_	_	_
'10	Rubens	nsp	_	_
'11	.	_	_	_

# sent_id = wiki-1058.p.9.s.5.xml
# text = De voormalige jezuietenkerk Sint-Pieters- en Paulus (nu parochiekerk)
'1	De	_	_	_
'2	voormalige	_	_	_
'3	jezuietenkerk	_	_	_
'4	Sint-Pieters-	_	_	_
'5	en	_	_	_
'6	Paulus	_	_	_
'7	(	nsp	_	_
'8	nu	_	_	_
'9	parochiekerk	nsp	_	_
'10	)	_	_	_

# sent_id = wiki-1058.p.9.s.6.xml
# text = De barokke Begijnenkerk, opgedragen aan Sint-Alexius en Sint-Katelijne, in het Groot Begijnhof
'1	De	_	_	_
'2	barokke	_	_	_
'3	Begijnenkerk	nsp	_	_
'4	,	_	_	_
'5	opgedragen	_	_	VERB
'6	aan	_	_	_
'7	Sint-Alexius	_	_	_
'8	en	_	_	_
'9	Sint-Katelijne	nsp	_	_
'10	,	_	_	_
'11	in	_	_	_
'12	het	_	_	_
'13	Groot	_	_	_
'14	Begijnhof	_	_	_

# sent_id = wiki-1094.p.1.s.1.xml
# text = Mol
'1	Mol	_	_	_

# sent_id = wiki-1094.p.2.s.1.xml
# text = Mol kan betrekking hebben op:
'1	Mol	_	_	_
'2	kan	_	_	_
'3	betrekking	_	_	_
'4	hebben	_	_	VERB
'5	op	nsp	_	_
'6	:	_	_	_

# sent_id = wiki-1094.p.3.s.1.xml
# text = mol (dier), ondergronds levend zoogdier;
'1	mol	_	_	_
'2	(	nsp	_	_
'3	dier	nsp	_	_
'4	)	nsp	_	_
'5	,	_	_	_
'6	ondergronds	_	_	_
'7	levend	_	_	VERB
'8	zoogdier	nsp	_	_
'9	;	_	_	_

# sent_id = wiki-1094.p.3.s.2.xml
# text = mol (muziek), muziekteken om aan te geven dat een toon een halve noot moet worden verlaagd;
'1	mol	_	_	_
'2	(	nsp	_	_
'3	muziek	nsp	_	_
'4	)	nsp	_	_
'5	,	_	_	_
'6	muziekteken	_	_	_
'7	om	_	_	_
'8	aan	_	_	_
'9	te	_	_	_
'10	geven	_	_	VERB
'11	dat	_	_	_
'12	een	_	_	_
'13	toon	_	_	_
'14	een	_	_	_
'15	halve	_	_	_
'16	noot	_	_	_
'17	moet	_	_	_
'18	worden	_	_	_
'19	verlaagd	nsp	_	VERB
'20	;	_	_	_

# sent_id = wiki-1094.p.3.s.3.xml
# text = mol (eenheid), eenheid voor hoeveelheid stof in het Internationaal Stelsel van Eenheden;
'1	mol	_	_	_
'2	(	nsp	_	_
'3	eenheid	nsp	_	_
'4	)	nsp	_	_
'5	,	_	_	_
'6	eenheid	_	_	_
'7	voor	_	_	_
'8	hoeveelheid	_	_	_
'9	stof	_	_	_
'10	in	_	_	_
'11	het	_	_	_
'12	Internationaal	_	_	_
'13	Stelsel	_	_	_
'14	van	_	_	_
'15	Eenheden	nsp	_	_
'16	;	_	_	_

# sent_id = wiki-1094.p.3.s.4.xml
# text = Mol (België), plaats in België;
'1	Mol	_	_	_
'2	(	nsp	_	_
'3	België	nsp	_	_
'4	)	nsp	_	_
'5	,	_	_	_
'6	plaats	_	_	_
'7	in	_	_	_
'8	België	nsp	_	_
'9	;	_	_	_

# sent_id = wiki-1094.p.3.s.5.xml
# text = spion, infiltrant;
'1	spion	nsp	_	_
'2	,	_	_	_
'3	infiltrant	nsp	_	_
'4	;	_	_	_

# sent_id = wiki-1094.p.3.s.6.xml
# text = De Mol, saboteur in het gelijknamige televisieprogramma.
'1	De	_	_	_
'2	Mol	nsp	_	_
'3	,	_	_	_
'4	saboteur	_	_	_
'5	in	_	_	_
'6	het	_	_	_
'7	gelijknamige	_	_	_
'8	televisieprogramma	nsp	_	_
'9	.	_	_	_

# sent_id = wiki-1094.p.3.s.7.xml
# text = Mol (bedrijf), Belgisch bedrijf
'1	Mol	_	_	_
'2	(	nsp	_	_
'3	bedrijf	nsp	_	_
'4	)	nsp	_	_
'5	,	_	_	_
'6	Belgisch	_	_	_
'7	bedrijf	_	_	_

# sent_id = wiki-1094.p.3.s.8.xml
# text = Albert Mol, Nederlands acteur
'1	Albert	_	_	_
'2	Mol	nsp	_	_
'3	,	_	_	_
'4	Nederlands	_	_	_
'5	acteur	_	_	_

# sent_id = wiki-1112.p.1.s.1.xml
# text = Minister van Staat
'1	Minister	_	_	_
'2	van	_	_	_
'3	Staat	_	_	_

# sent_id = wiki-1112.p.2.s.1.xml
# text = Minister van Staat (België)
'1	Minister	_	_	_
'2	van	_	_	_
'3	Staat	_	_	_
'4	(	nsp	_	_
'5	België	nsp	_	_
'6	)	_	_	_

# sent_id = wiki-1112.p.2.s.2.xml
# text = Minister van Staat (Frankrijk)
'1	Minister	_	_	_
'2	van	_	_	_
'3	Staat	_	_	_
'4	(	nsp	_	_
'5	Frankrijk	nsp	_	_
'6	)	_	_	_

# sent_id = wiki-1112.p.2.s.3.xml
# text = Minister van Staat (Nederland)
'1	Minister	_	_	_
'2	van	_	_	_
'3	Staat	_	_	_
'4	(	nsp	_	_
'5	Nederland	nsp	_	_
'6	)	_	_	_

# sent_id = wiki-11.p.10.s.1.xml
# text = (*)
'1	(	nsp	_	_
'2	*	nsp	_	_
'3	)	_	_	_

# sent_id = wiki-11.p.10.s.2.xml
# text = Voor alle duidelijkheid: Het derde district Berendrecht-Zandvliet-Lillo behoorde al sinds 1958 tot de toenmalige gemeente Antwerpen.
'1	Voor	_	_	_
'2	alle	_	_	_
'3	duidelijkheid	nsp	_	_
'4	:	_	_	_
'5	Het	_	_	_
'6	derde	_	_	_
'7	district	_	_	_
'8	Berendrecht-Zandvliet-Lillo	_	_	_
'9	behoorde	_	_	VERB
'10	al	_	_	_
'11	sinds	_	_	_
'12	1958	_	_	_
'13	tot	_	_	_
'14	de	_	_	_
'15	toenmalige	_	_	_
'16	gemeente	_	_	_
'17	Antwerpen	nsp	_	_
'18	.	_	_	_

# sent_id = wiki-11.p.11.s.1.xml
# text = In tegenstelling tot de deelgemeenten in andere Belgische gemeenten, zijn de Antwerpse districten een bestuurslaag.
'1	In	_	_	_
'2	tegenstelling	_	_	_
'3	tot	_	_	_
'4	de	_	_	_
'5	deelgemeenten	_	_	_
'6	in	_	_	_
'7	andere	_	_	_
'8	Belgische	_	_	_
'9	gemeenten	nsp	_	_
'10	,	_	_	_
'11	zijn	_	_	_
'12	de	_	_	_
'13	Antwerpse	_	_	_
'14	districten	_	_	_
'15	een	_	_	_
'16	bestuurslaag	nsp	_	_
'17	.	_	_	_

# sent_id = wiki-11.p.11.s.2.xml
# text = Ze worden bestuurd door de districtsraad en het districtscollege.
'1	Ze	_	_	_
'2	worden	_	_	_
'3	bestuurd	_	_	VERB
'4	door	_	_	_
'5	de	_	_	_
'6	districtsraad	_	_	_
'7	en	_	_	_
'8	het	_	_	_
'9	districtscollege	nsp	_	_
'10	.	_	_	_

# sent_id = wiki-11.p.12.s.1.xml
# text = Wijken in Antwerpen
'1	Wijken	_	_	_
'2	in	_	_	_
'3	Antwerpen	_	_	_

# sent_id = wiki-11.p.13.s.10.xml
# text = Klein-Antwerpen
'1	Klein-Antwerpen	_	_	_

# sent_id = wiki-11.p.13.s.1.xml
# text = Dam
'1	Dam	_	_	_

# sent_id = wiki-11.p.13.s.2.xml
# text = Eilandje
'1	Eilandje	_	_	_

# sent_id = wiki-11.p.13.s.3.xml
# text = Haringrode
'1	Haringrode	_	_	_

# sent_id = wiki-11.p.13.s.4.xml
# text = Kiel
'1	Kiel	_	_	_

# sent_id = wiki-11.p.13.s.5.xml
# text = Linkeroever
'1	Linkeroever	_	_	_

# sent_id = wiki-11.p.13.s.6.xml
# text = Luchtbal
'1	Luchtbal	_	_	_

# sent_id = wiki-11.p.13.s.7.xml
# text = Stuivenberg
'1	Stuivenberg	_	_	_

# sent_id = wiki-11.p.13.s.8.xml
# text = Zuid
'1	Zuid	_	_	_

# sent_id = wiki-11.p.13.s.9.xml
# text = Zurenborg
'1	Zurenborg	_	_	_

# sent_id = wiki-11.p.14.s.1.xml
# text = Demografie
'1	Demografie	_	_	_

# sent_id = wiki-11.p.15.s.1.xml
# text = Bevolking
'1	Bevolking	_	_	_

# sent_id = wiki-11.p.16.s.2.xml
# text = 1923: aanhechting van gebiedsdelen van Burcht en Zwijndrecht (+11,77 km² met 2.426 inwoners)
'1	1923	nsp	_	_
'2	:	_	_	_
'3	aanhechting	_	_	_
'4	van	_	_	_
'5	gebiedsdelen	_	_	_
'6	van	_	_	_
'7	Burcht	_	_	_
'8	en	_	_	_
'9	Zwijndrecht	_	_	_
'10	(	nsp	_	_
'11	+11,77	_	_	_
'12	km²	_	_	_
'13	met	_	_	_
'14	2.426	_	_	_
'15	inwoners	nsp	_	_
'16	)	_	_	_

# sent_id = wiki-11.p.16.s.3.xml
# text = 1929: aanhechting van Oorderen, Oosterweel en Wilmarsdonk en gebiedsdelen van Ekeren, Hoevenen, Merksem en Lillo (+46,29 km² met 5.543 inwoners)
'1	1929	nsp	_	_
'2	:	_	_	_
'3	aanhechting	_	_	_
'4	van	_	_	_
'5	Oorderen	nsp	_	_
'6	,	_	_	_
'7	Oosterweel	_	_	_
'8	en	_	_	_
'9	Wilmarsdonk	_	_	_
'10	en	_	_	_
'11	gebiedsdelen	_	_	_
'12	van	_	_	_
'13	Ekeren	nsp	_	_
'14	,	_	_	_
'15	Hoevenen	nsp	_	_
'16	,	_	_	_
'17	Merksem	_	_	_
'18	en	_	_	_
'19	Lillo	_	_	_
'20	(	nsp	_	_
'21	+46,29	_	_	_
'22	km²	_	_	_
'23	met	_	_	_
'24	5.543	_	_	_
'25	inwoners	nsp	_	_
'26	)	_	_	_

# sent_id = wiki-11.p.16.s.4.xml
# text = 1958: aanhechting van Berendrecht, Lillo en Zandvliet (+52,93 km² met 7.249 inwoners)
'1	1958	nsp	_	_
'2	:	_	_	_
'3	aanhechting	_	_	_
'4	van	_	_	_
'5	Berendrecht	nsp	_	_
'6	,	_	_	_
'7	Lillo	_	_	_
'8	en	_	_	_
'9	Zandvliet	_	_	_
'10	(	nsp	_	_
'11	+52,93	_	_	_
'12	km²	_	_	_
'13	met	_	_	_
'14	7.249	_	_	_
'15	inwoners	nsp	_	_
'16	)	_	_	_

# sent_id = wiki-11.p.16.s.5.xml
# text = 1983: aanhechting van Berchem, Borgerhout, Deurne, Ekeren, Hoboken, Merksem en Wilrijk (+64,68 km² met 305.503 inwoners)
'1	1983	nsp	_	_
'2	:	_	_	_
'3	aanhechting	_	_	_
'4	van	_	_	_
'5	Berchem	nsp	_	_
'6	,	_	_	_
'7	Borgerhout	nsp	_	_
'8	,	_	_	_
'9	Deurne	nsp	_	_
'10	,	_	_	_
'11	Ekeren	nsp	_	_
'12	,	_	_	_
'13	Hoboken	nsp	_	_
'14	,	_	_	_
'15	Merksem	_	_	_
'16	en	_	_	_
'17	Wilrijk	_	_	_
'18	(	nsp	_	_
'19	+64,68	_	_	_
'20	km²	_	_	_
'21	met	_	_	_
'22	305.503	_	_	_
'23	inwoners	nsp	_	_
'24	)	_	_	_

# sent_id = wiki-11.p.17.s.1.xml
# text = Religies en levensbeschouwingen in Antwerpen
'1	Religies	_	_	_
'2	en	_	_	_
'3	levensbeschouwingen	_	_	_
'4	in	_	_	_
'5	Antwerpen	_	_	_

# sent_id = wiki-11.p.18.s.1.xml
# text = Antwerpen staat sinds jaren bekend omwille van haar tolerantie t.o.v. de diversiteit aan religies en en levensbeschouwingen.
'1	Antwerpen	_	_	_
'2	staat	_	_	VERB
'3	sinds	_	_	_
'4	jaren	_	_	_
'5	bekend	_	_	_
'6	omwille	_	_	_
'7	van	_	_	_
'8	haar	_	_	_
'9	tolerantie	_	_	_
'10	t.o.v.	_	_	_
'11	de	_	_	_
'12	diversiteit	_	_	_
'13	aan	_	_	_
'14	religies	_	_	_
'15	en	_	_	_
'16	en	_	_	_
'17	levensbeschouwingen	nsp	_	_
'18	.	_	_	_

# sent_id = wiki-11.p.18.s.2.xml
# text = Volgende religies en levensbeschouwingen hebben in Antwerpen een permanente zetel en/of eredienstplaats:
'1	Volgende	_	_	VERB
'2	religies	_	_	_
'3	en	_	_	_
'4	levensbeschouwingen	_	_	_
'5	hebben	_	_	VERB
'6	in	_	_	_
'7	Antwerpen	_	_	_
'8	een	_	_	_
'9	permanente	_	_	_
'10	zetel	_	_	_
'11	en/of	_	_	_
'12	eredienstplaats	nsp	_	_
'13	:	_	_	_

# sent_id = wiki-11.p.19.s.1.xml
# text = Baha'i
'1	Baha'i	_	_	_

# sent_id = wiki-11.p.19.s.2.xml
# text = Boeddhisme
'1	Boeddhisme	_	_	_

# sent_id = wiki-11.p.1.s.1.xml
# text = Antwerpen (stad)
'1	Antwerpen	_	_	_
'2	(	nsp	_	_
'3	stad	nsp	_	_
'4	)	_	_	_

# sent_id = wiki-11.p.20.s.1.xml
# text = Vajrayana
'1	Vajrayana	_	_	_

# sent_id = wiki-11.p.20.s.2.xml
# text = Theravada
'1	Theravada	_	_	_

# sent_id = wiki-11.p.20.s.3.xml
# text = Zen
'1	Zen	_	_	_

# sent_id = wiki-11.p.20.s.4.xml
# text = Shin-Boeddhisme
'1	Shin-Boeddhisme	_	_	_

# sent_id = wiki-11.p.21.s.1.xml
# text = Christendom
'1	Christendom	_	_	_

# sent_id = wiki-11.p.22.s.1.xml
# text = Rooms-Katholieke Kerk, grootste genootschap
'1	Rooms-Katholieke	_	_	_
'2	Kerk	nsp	_	_
'3	,	_	_	_
'4	grootste	_	_	_
'5	genootschap	_	_	_

# sent_id = wiki-11.p.22.s.2.xml
# text = Vrij-Katholieke Kerk
'1	Vrij-Katholieke	_	_	_
'2	Kerk	_	_	_

# sent_id = wiki-11.p.22.s.3.xml
# text = Armeense Kerk
'1	Armeense	_	_	_
'2	Kerk	_	_	_

# sent_id = wiki-11.p.22.s.4.xml
# text = Anglicaanse Kerk
'1	Anglicaanse	_	_	_
'2	Kerk	_	_	_

# sent_id = wiki-11.p.22.s.5.xml
# text = Protestantisme, verschillende denominaties
'1	Protestantisme	nsp	_	_
'2	,	_	_	_
'3	verschillende	_	_	_
'4	denominaties	_	_	_

# sent_id = wiki-11.p.22.s.6.xml
# text = Grieks-Orthodoxe Kerk
'1	Grieks-Orthodoxe	_	_	_
'2	Kerk	_	_	_

# sent_id = wiki-11.p.22.s.7.xml
# text = Russisch-Orthodoxe Kerk
'1	Russisch-Orthodoxe	_	_	_
'2	Kerk	_	_	_

# sent_id = wiki-11.p.23.s.1.xml
# text = Hindoeïsme
'1	Hindoeïsme	_	_	_

# sent_id = wiki-11.p.23.s.2.xml
# text = Islam
'1	Islam	_	_	_

# sent_id = wiki-11.p.23.s.3.xml
# text = Jainisme, met onder meer de grootste Jain tempel in de wereld buiten India
'1	Jainisme	nsp	_	_
'2	,	_	_	_
'3	met	_	_	_
'4	onder	_	_	_
'5	meer	_	_	_
'6	de	_	_	_
'7	grootste	_	_	_
'8	Jain	_	_	_
'9	tempel	_	_	_
'10	in	_	_	_
'11	de	_	_	_
'12	wereld	_	_	_
'13	buiten	_	_	_
'14	India	_	_	_

# sent_id = wiki-11.p.23.s.4.xml
# text = Jodendom: Antwerpen is na Londen het op een na grootste centrum van charedische joden in Europa; zie onder
'1	Jodendom	nsp	_	_
'2	:	_	_	_
'3	Antwerpen	_	_	_
'4	is	_	_	_
'5	na	_	_	_
'6	Londen	_	_	_
'7	het	_	_	_
'8	op	_	_	_
'9	een	_	_	_
'10	na	_	_	_
'11	grootste	_	_	_
'12	centrum	_	_	_
'13	van	_	_	_
'14	charedische	_	_	_
'15	joden	_	_	_
'16	in	_	_	_
'17	Europa	nsp	_	_
'18	;	_	_	_
'19	zie	_	_	VERB
'20	onder	_	_	_

# sent_id = wiki-11.p.23.s.5.xml
# text = Vrijzinnigheid
'1	Vrijzinnigheid	_	_	_

# sent_id = wiki-11.p.23.s.6.xml
# text = Vrijmetselarij, zie ook: Lijst van Loges in Antwerpen
'1	Vrijmetselarij	nsp	_	_
'2	,	_	_	_
'3	zie	_	_	VERB
'4	ook	nsp	_	_
'5	:	_	_	_
'6	Lijst	_	_	_
'7	van	_	_	_
'8	Loges	_	_	_
'9	in	_	_	_
'10	Antwerpen	_	_	_

# sent_id = wiki-11.p.23.s.7.xml
# text = Theosofie
'1	Theosofie	_	_	_

# sent_id = wiki-11.p.24.s.1.xml
# text = Orthodox Joods Antwerpen
'1	Orthodox	_	_	_
'2	Joods	_	_	_
'3	Antwerpen	_	_	_

# sent_id = wiki-11.p.25.s.1.xml
# text = Zie ook Joods Antwerpen
'1	Zie	_	_	VERB
'2	ook	_	_	_
'3	Joods	_	_	_
'4	Antwerpen	_	_	_

# sent_id = wiki-11.p.26.s.10.xml
# text = Veel rijkere joden zijn naar buitenwijken van Antwerpen vertrokken.
'1	Veel	_	_	_
'2	rijkere	_	_	_
'3	joden	_	_	_
'4	zijn	_	_	_
'5	naar	_	_	_
'6	buitenwijken	_	_	_
'7	van	_	_	_
'8	Antwerpen	_	_	_
'9	vertrokken	nsp	_	VERB
'10	.	_	_	_

# sent_id = wiki-11.p.26.s.1.xml
# text = In Antwerpen wonen circa 20,000 orthodoxe joden.
'1	In	_	_	_
'2	Antwerpen	_	_	_
'3	wonen	_	_	VERB
'4	circa	_	_	_
'5	20,000	_	_	_
'6	orthodoxe	_	_	_
'7	joden	nsp	_	_
'8	.	_	_	_

# sent_id = wiki-11.p.26.s.2.xml
# text = Chassidische joden vormen het merendeel.
'1	Chassidische	_	_	_
'2	joden	_	_	_
'3	vormen	_	_	VERB
'4	het	_	_	_
'5	merendeel	nsp	_	_
'6	.	_	_	_

# sent_id = wiki-11.p.26.s.3.xml
# text = Grote chassidische bewegingen gevestigd in Antwerpen zijn o.a. Pshevorsk, Satmar, Belz, Bobov, en Lubavitch.
'1	Grote	_	_	_
'2	chassidische	_	_	_
'3	bewegingen	_	_	_
'4	gevestigd	_	_	VERB
'5	in	_	_	_
'6	Antwerpen	_	_	_
'7	zijn	_	_	_
'8	o.a.	_	_	_
'9	Pshevorsk	nsp	_	_
'10	,	_	_	_
'11	Satmar	nsp	_	_
'12	,	_	_	_
'13	Belz	nsp	_	_
'14	,	_	_	_
'15	Bobov	nsp	_	_
'16	,	_	_	_
'17	en	_	_	_
'18	Lubavitch	nsp	_	_
'19	.	_	_	_

# sent_id = wiki-11.p.26.s.4.xml
# text = Tientallen synagoges, jesjivas voor jongens en Beis Yaakovscholen voor meisjes, talloze liefdadigheidsinstellingen en verenigingen zorgen voor een omgeving waarin deze joden, zoals zij dat willen, afgezonderd van de niet-joodse wereld kunnen leven.
'1	Tientallen	_	_	_
'2	synagoges	nsp	_	_
'3	,	_	_	_
'4	jesjivas	_	_	_
'5	voor	_	_	_
'6	jongens	_	_	_
'7	en	_	_	_
'8	Beis	_	_	_
'9	Yaakovscholen	_	_	_
'10	voor	_	_	_
'11	meisjes	nsp	_	_
'12	,	_	_	_
'13	talloze	_	_	_
'14	liefdadigheidsinstellingen	_	_	_
'15	en	_	_	_
'16	verenigingen	_	_	_
'17	zorgen	_	_	VERB
'18	voor	_	_	_
'19	een	_	_	_
'20	omgeving	_	_	_
'21	waarin	_	_	_
'22	deze	_	_	_
'23	joden	nsp	_	_
'24	,	_	_	_
'25	zoals	_	_	_
'26	zij	_	_	_
'27	dat	_	_	_
'28	willen	nsp	_	VERB
'29	,	_	_	_
'30	afgezonderd	_	_	VERB
'31	van	_	_	_
'32	de	_	_	_
'33	niet-joodse	_	_	_
'34	wereld	_	_	_
'35	kunnen	_	_	_
'36	leven	nsp	_	VERB
'37	.	_	_	_

# sent_id = wiki-11.p.26.s.5.xml
# text = Sommige in Antwerpen geboren joden spreken zelfs niet erg goed Nederlands; hun moedertaal is Jiddish.
'1	Sommige	_	_	_
'2	in	_	_	_
'3	Antwerpen	_	_	_
'4	geboren	_	_	_
'5	joden	_	_	_
'6	spreken	_	_	VERB
'7	zelfs	_	_	_
'8	niet	_	_	_
'9	erg	_	_	_
'10	goed	_	_	_
'11	Nederlands	nsp	_	_
'12	;	_	_	_
'13	hun	_	_	_
'14	moedertaal	_	_	_
'15	is	_	_	_
'16	Jiddish	nsp	_	_
'17	.	_	_	_

# sent_id = wiki-11.p.26.s.6.xml
# text = De joodse gemeenschap van Antwerpen was ooit rijk.
'1	De	_	_	_
'2	joodse	_	_	_
'3	gemeenschap	_	_	_
'4	van	_	_	_
'5	Antwerpen	_	_	_
'6	was	_	_	_
'7	ooit	_	_	_
'8	rijk	nsp	_	_
'9	.	_	_	_

# sent_id = wiki-11.p.26.s.7.xml
# text = Joden speelden een belangrijke rol in de diamanthandel.
'1	Joden	_	_	_
'2	speelden	_	_	VERB
'3	een	_	_	_
'4	belangrijke	_	_	_
'5	rol	_	_	_
'6	in	_	_	_
'7	de	_	_	_
'8	diamanthandel	nsp	_	_
'9	.	_	_	_

# sent_id = wiki-11.p.26.s.8.xml
# text = Tegenwoordig is de diamanthandel echter voornamelijk in handen van Aziatische zakenlieden, en is de joodse gemeenschap sterk verarmd.
'1	Tegenwoordig	_	_	_
'2	is	_	_	VERB
'3	de	_	_	_
'4	diamanthandel	_	_	_
'5	echter	_	_	_
'6	voornamelijk	_	_	_
'7	in	_	_	_
'8	handen	_	_	_
'9	van	_	_	_
'10	Aziatische	_	_	_
'11	zakenlieden	nsp	_	_
'12	,	_	_	_
'13	en	_	_	_
'14	is	_	_	_
'15	de	_	_	_
'16	joodse	_	_	_
'17	gemeenschap	_	_	_
'18	sterk	_	_	_
'19	verarmd	nsp	_	VERB
'20	.	_	_	_

# sent_id = wiki-11.p.26.s.9.xml
# text = Mede vanwege de over het algemeen grote gezinsgrootte, met soms wel 10 of meer kinderen per gezin, leven veel gezinnen in armoede.
'1	Mede	_	_	_
'2	vanwege	_	_	_
'3	de	_	_	_
'4	over	_	_	_
'5	het	_	_	_
'6	algemeen	_	_	_
'7	grote	_	_	_
'8	gezinsgrootte	nsp	_	_
'9	,	_	_	_
'10	met	_	_	_
'11	soms	_	_	_
'12	wel	_	_	_
'13	10	_	_	_
'14	of	_	_	_
'15	meer	_	_	_
'16	kinderen	_	_	_
'17	per	_	_	_
'18	gezin	nsp	_	_
'19	,	_	_	_
'20	leven	_	_	VERB
'21	veel	_	_	_
'22	gezinnen	_	_	_
'23	in	_	_	_
'24	armoede	nsp	_	_
'25	.	_	_	_

# sent_id = wiki-11.p.27.s.1.xml
# text = Bezienswaardigheden
'1	Bezienswaardigheden	_	_	_

# sent_id = wiki-11.p.28.s.1.xml
# text = Antwerpen staat ook bekend om zijn dierentuin, die één van de oudste ter wereld is.
'1	Antwerpen	_	_	_
'2	staat	_	_	VERB
'3	ook	_	_	_
'4	bekend	_	_	_
'5	om	_	_	_
'6	zijn	_	_	_
'7	dierentuin	nsp	_	_
'8	,	_	_	_
'9	die	_	_	_
'10	één	_	_	_
'11	van	_	_	_
'12	de	_	_	_
'13	oudste	_	_	_
'14	ter	_	_	_
'15	wereld	_	_	_
'16	is	nsp	_	_
'17	.	_	_	_

# sent_id = wiki-11.p.28.s.2.xml
# text = De Antwerpse Zoo bevindt zich midden in de stad en huisvest meer dan 4000 dieren.
'1	De	_	_	_
'2	Antwerpse	_	_	_
'3	Zoo	_	_	_
'4	bevindt	_	_	VERB
'5	zich	_	_	_
'6	midden	_	_	_
'7	in	_	_	_
'8	de	_	_	_
'9	stad	_	_	_
'10	en	_	_	_
'11	huisvest	_	_	VERB
'12	meer	_	_	_
'13	dan	_	_	_
'14	4000	_	_	_
'15	dieren	nsp	_	_
'16	.	_	_	_

# sent_id = wiki-11.p.28.s.3.xml
# text = De Koninklijke Maatschappij voor Dierkunde houdt het welzijn van talloze dieren in de gaten en helpt al meer dan 100 jaar bedreigde diersoorten te beschermen.
'1	De	_	_	_
'2	Koninklijke	_	_	_
'3	Maatschappij	_	_	_
'4	voor	_	_	_
'5	Dierkunde	_	_	_
'6	houdt	_	_	VERB
'7	het	_	_	_
'8	welzijn	_	_	_
'9	van	_	_	_
'10	talloze	_	_	_
'11	dieren	_	_	_
'12	in	_	_	_
'13	de	_	_	_
'14	gaten	_	_	_
'15	en	_	_	_
'16	helpt	_	_	VERB
'17	al	_	_	_
'18	meer	_	_	_
'19	dan	_	_	_
'20	100	_	_	_
'21	jaar	_	_	_
'22	bedreigde	_	_	VERB
'23	diersoorten	_	_	_
'24	te	_	_	_
'25	beschermen	nsp	_	VERB
'26	.	_	_	_

# sent_id = wiki-11.p.29.s.1.xml
# text = De stad is rijk aan bezienswaardigheden.
'1	De	_	_	_
'2	stad	_	_	_
'3	is	_	_	_
'4	rijk	_	_	_
'5	aan	_	_	_
'6	bezienswaardigheden	nsp	_	_
'7	.	_	_	_

# sent_id = wiki-11.p.29.s.2.xml
# text = De volgende geven een beeld van deze stad:
'1	De	_	_	_
'2	volgende	_	_	VERB
'3	geven	_	_	VERB
'4	een	_	_	_
'5	beeld	_	_	_
'6	van	_	_	_
'7	deze	_	_	_
'8	stad	nsp	_	_
'9	:	_	_	_

# sent_id = wiki-11.p.2.s.1.xml
# text = Antwerpen is de tweede grootste stad van België en de grootste van het Vlaams Gewest.
'1	Antwerpen	_	_	_
'2	is	_	_	_
'3	de	_	_	_
'4	tweede	_	_	_
'5	grootste	_	_	_
'6	stad	_	_	_
'7	van	_	_	_
'8	België	_	_	_
'9	en	_	_	_
'10	de	_	_	_
'11	grootste	_	_	_
'12	van	_	_	_
'13	het	_	_	_
'14	Vlaams	_	_	_
'15	Gewest	nsp	_	_
'16	.	_	_	_

# sent_id = wiki-11.p.2.s.2.xml
# text = De gemeente telt ruim 461.000 inwoners (in 2006) en is daarmee, qua inwonertal, de grootste gemeente van België.
'1	De	_	_	_
'2	gemeente	_	_	_
'3	telt	_	_	VERB
'4	ruim	_	_	_
'5	461.000	_	_	_
'6	inwoners	_	_	_
'7	(	nsp	_	_
'8	in	_	_	_
'9	2006	nsp	_	_
'10	)	_	_	_
'11	en	_	_	_
'12	is	_	_	_
'13	daarmee	nsp	_	_
'14	,	_	_	_
'15	qua	_	_	_
'16	inwonertal	nsp	_	_
'17	,	_	_	_
'18	de	_	_	_
'19	grootste	_	_	_
'20	gemeente	_	_	_
'21	van	_	_	_
'22	België	nsp	_	_
'23	.	_	_	_

# sent_id = wiki-11.p.2.s.3.xml
# text = De totale Antwerpse agglomeratie heeft er circa 950.000.
'1	De	_	_	_
'2	totale	_	_	_
'3	Antwerpse	_	_	_
'4	agglomeratie	_	_	_
'5	heeft	_	_	VERB
'6	er	_	_	_
'7	circa	_	_	_
'8	950.000	nsp	_	_
'9	.	_	_	_

# sent_id = wiki-11.p.2.s.4.xml
# text = Het is de hoofdstad van de gelijknamige provincie Antwerpen.
'1	Het	_	_	_
'2	is	_	_	_
'3	de	_	_	_
'4	hoofdstad	_	_	_
'5	van	_	_	_
'6	de	_	_	_
'7	gelijknamige	_	_	_
'8	provincie	_	_	_
'9	Antwerpen	nsp	_	_
'10	.	_	_	_

# sent_id = wiki-11.p.2.s.5.xml
# text = De stad ligt grotendeels op de rechteroever van de Schelde en is bekend voor zijn uitgestrekt havengebied met internationaal vrachtvervoer.
'1	De	_	_	_
'2	stad	_	_	_
'3	ligt	_	_	VERB
'4	grotendeels	_	_	_
'5	op	_	_	_
'6	de	_	_	_
'7	rechteroever	_	_	_
'8	van	_	_	_
'9	de	_	_	_
'10	Schelde	_	_	_
'11	en	_	_	_
'12	is	_	_	_
'13	bekend	_	_	_
'14	voor	_	_	_
'15	zijn	_	_	_
'16	uitgestrekt	_	_	VERB
'17	havengebied	_	_	_
'18	met	_	_	_
'19	internationaal	_	_	_
'20	vrachtvervoer	nsp	_	_
'21	.	_	_	_

# sent_id = wiki-11.p.2.s.6.xml
# text = Oorspronkelijk was het gebied van de stad niet groter dan de postzones Antwerpen 0, 1 en 6 binnen het district Antwerpen.
'1	Oorspronkelijk	_	_	_
'2	was	_	_	_
'3	het	_	_	_
'4	gebied	_	_	_
'5	van	_	_	_
'6	de	_	_	_
'7	stad	_	_	_
'8	niet	_	_	_
'9	groter	_	_	_
'10	dan	_	_	_
'11	de	_	_	_
'12	postzones	_	_	_
'13	Antwerpen	_	_	_
'14	0	nsp	_	_
'15	,	_	_	_
'16	1	_	_	_
'17	en	_	_	_
'18	6	_	_	_
'19	binnen	_	_	_
'20	het	_	_	_
'21	district	_	_	_
'22	Antwerpen	nsp	_	_
'23	.	_	_	_

# sent_id = wiki-11.p.30.s.10.xml
# text = De Onze-Lieve-Vrouwekathedraal
'1	De	_	_	_
'2	Onze-Lieve-Vrouwekathedraal	_	_	_

# sent_id = wiki-11.p.30.s.11.xml
# text = De Carolus Borromeuskerk aan het Hendrik Conscienceplein
'1	De	_	_	_
'2	Carolus	_	_	_
'3	Borromeuskerk	_	_	_
'4	aan	_	_	_
'5	het	_	_	_
'6	Hendrik	_	_	_
'7	Conscienceplein	_	_	_

# sent_id = wiki-11.p.30.s.12.xml
# text = de Cogels-Osylei, en andere straten met Art Deco en Jugendstil
'1	de	_	_	_
'2	Cogels-Osylei	nsp	_	_
'3	,	_	_	_
'4	en	_	_	_
'5	andere	_	_	_
'6	straten	_	_	_
'7	met	_	_	_
'8	Art	_	_	_
'9	Deco	_	_	_
'10	en	_	_	_
'11	Jugendstil	_	_	_

# sent_id = wiki-11.p.30.s.13.xml
# text = Het Schoonselhof, begraafplaats van de beroemde Antwerpenaren.
'1	Het	_	_	_
'2	Schoonselhof	nsp	_	_
'3	,	_	_	_
'4	begraafplaats	_	_	_
'5	van	_	_	_
'6	de	_	_	_
'7	beroemde	_	_	_
'8	Antwerpenaren	nsp	_	_
'9	.	_	_	_

# sent_id = wiki-11.p.30.s.14.xml
# text = De Van Wesenbekestraat, het Chinatown van Antwerpen
'1	De	_	_	_
'2	Van	_	_	_
'3	Wesenbekestraat	nsp	_	_
'4	,	_	_	_
'5	het	_	_	_
'6	Chinatown	_	_	_
'7	van	_	_	_
'8	Antwerpen	_	_	_

# sent_id = wiki-11.p.30.s.15.xml
# text = De Boerentoren, de eerste wolkenkrabber op het Europese vasteland
'1	De	_	_	_
'2	Boerentoren	nsp	_	_
'3	,	_	_	_
'4	de	_	_	_
'5	eerste	_	_	_
'6	wolkenkrabber	_	_	_
'7	op	_	_	_
'8	het	_	_	_
'9	Europese	_	_	_
'10	vasteland	_	_	_

# sent_id = wiki-11.p.30.s.16.xml
# text = zie ook:
'1	zie	_	_	VERB
'2	ook	nsp	_	_
'3	:	_	_	_

# sent_id = wiki-11.p.30.s.1.xml
# text = De Grote Markt
'1	De	_	_	_
'2	Grote	_	_	_
'3	Markt	_	_	_

# sent_id = wiki-11.p.30.s.2.xml
# text = Stadhuis (Antwerpen)
'1	Stadhuis	_	_	_
'2	(	nsp	_	_
'3	Antwerpen	nsp	_	_
'4	)	_	_	_

# sent_id = wiki-11.p.30.s.3.xml
# text = Brabo
'1	Brabo	_	_	_

# sent_id = wiki-11.p.30.s.4.xml
# text = Het voormalig Koninklijk Paleis Antwerpen op de Meir
'1	Het	_	_	_
'2	voormalig	_	_	_
'3	Koninklijk	_	_	_
'4	Paleis	_	_	_
'5	Antwerpen	_	_	_
'6	op	_	_	_
'7	de	_	_	_
'8	Meir	_	_	_

# sent_id = wiki-11.p.30.s.5.xml
# text = Het Steen
'1	Het	_	_	_
'2	Steen	_	_	_

# sent_id = wiki-11.p.30.s.6.xml
# text = De Zoo
'1	De	_	_	_
'2	Zoo	_	_	_

# sent_id = wiki-11.p.30.s.7.xml
# text = Het Hof van Liere, waar een campus van de Universiteit Antwerpen gevestigd is
'1	Het	_	_	_
'2	Hof	_	_	_
'3	van	_	_	_
'4	Liere	nsp	_	_
'5	,	_	_	_
'6	waar	_	_	_
'7	een	_	_	_
'8	campus	_	_	_
'9	van	_	_	_
'10	de	_	_	_
'11	Universiteit	_	_	_
'12	Antwerpen	_	_	_
'13	gevestigd	_	_	VERB
'14	is	_	_	_

# sent_id = wiki-11.p.30.s.8.xml
# text = Ook het Antwerpse Centraal Station aan het Astridplein is de moeite waard
'1	Ook	_	_	_
'2	het	_	_	_
'3	Antwerpse	_	_	_
'4	Centraal	_	_	_
'5	Station	_	_	_
'6	aan	_	_	_
'7	het	_	_	_
'8	Astridplein	_	_	_
'9	is	_	_	_
'10	de	_	_	_
'11	moeite	_	_	_
'12	waard	_	_	_

# sent_id = wiki-11.p.30.s.9.xml
# text = Het nieuwe Antwerpse justitiepaleis in het uiterste zuiden oogt nu reeds heel modern
'1	Het	_	_	_
'2	nieuwe	_	_	_
'3	Antwerpse	_	_	_
'4	justitiepaleis	_	_	_
'5	in	_	_	_
'6	het	_	_	_
'7	uiterste	_	_	_
'8	zuiden	_	_	_
'9	oogt	_	_	VERB
'10	nu	_	_	_
'11	reeds	_	_	_
'12	heel	_	_	_
'13	modern	_	_	_

# sent_id = wiki-11.p.31.s.1.xml
# text = Lijst van kerken in Antwerpen
'1	Lijst	_	_	_
'2	van	_	_	_
'3	kerken	_	_	_
'4	in	_	_	_
'5	Antwerpen	_	_	_

# sent_id = wiki-11.p.32.s.1.xml
# text = Cultuur
'1	Cultuur	_	_	_

# sent_id = wiki-11.p.33.s.1.xml
# text = Musea
'1	Musea	_	_	_

# sent_id = wiki-11.p.34.s.10.xml
# text = Het Volkskunde Museum
'1	Het	_	_	_
'2	Volkskunde	_	_	_
'3	Museum	_	_	_
