# sent_id = s1
# text = Proces privatizacije na Kosovu pod lupom
'1	Proces	_	_	_
'2	privatizacije	_	_	_
'3	na	_	_	_
'4	Kosovu	_	_	_
'5	pod	_	_	_
'6	lupom	_	_	_

# sent_id = s2
# text = Kosovo ozbiljno analizira svoje procese privatizacije u svetlu čestih pritužbi.
'1	Kosovo	_	_	_
'2	ozbiljno	_	_	_
'3	analizira	_	_	VERB
'4	svoje	_	_	_
'5	procese	_	_	_
'6	privatizacije	_	_	_
'7	u	_	_	_
'8	svetlu	_	_	_
'9	čestih	_	_	_
'10	pritužbi	nsp	_	_
'11	.	_	_	_

# sent_id = s3
# text = Bar na papiru, to izgleda kao odlična ideja.
'1	Bar	_	_	_
'2	na	_	_	_
'3	papiru	nsp	_	_
'4	,	_	_	_
'5	to	_	_	_
'6	izgleda	_	_	VERB
'7	kao	_	_	_
'8	odlična	_	_	_
'9	ideja	nsp	_	_
'10	.	_	_	_

# sent_id = s4
# text = Vlada prodaje preduzeća, rešava se tereta upravljanja njima, a novac od prodaje pomaže u finansiranju državnog budžeta.
'1	Vlada	_	_	_
'2	prodaje	_	_	VERB
'3	preduzeća	nsp	_	_
'4	,	_	_	_
'5	rešava	_	_	VERB
'6	se	_	_	_
'7	tereta	_	_	_
'8	upravljanja	_	_	_
'9	njima	nsp	_	_
'10	,	_	_	_
'11	a	_	_	_
'12	novac	_	_	_
'13	od	_	_	_
'14	prodaje	_	_	_
'15	pomaže	_	_	VERB
'16	u	_	_	_
'17	finansiranju	_	_	_
'18	državnog	_	_	_
'19	budžeta	nsp	_	_
'20	.	_	_	_

# sent_id = s5
# text = Ali, na Kosovu, kritičari kažu da je pravni proces vezan za privatizaciju složen i politički nabijen, što će imati dugoročan uticaj na ekonomiju.
'1	Ali	nsp	_	_
'2	,	_	_	_
'3	na	_	_	_
'4	Kosovu	nsp	_	_
'5	,	_	_	_
'6	kritičari	_	_	_
'7	kažu	_	_	VERB
'8	da	_	_	_
'9	je	_	_	_
'10	pravni	_	_	_
'11	proces	_	_	_
'12	vezan	_	_	_
'13	za	_	_	_
'14	privatizaciju	_	_	_
'15	složen	_	_	_
'16	i	_	_	_
'17	politički	_	_	_
'18	nabijen	nsp	_	_
'19	,	_	_	_
'20	što	_	_	_
'21	će	_	_	_
'22	imati	_	_	VERB
'23	dugoročan	_	_	_
'24	uticaj	_	_	_
'25	na	_	_	_
'26	ekonomiju	nsp	_	_
'27	.	_	_	_

# sent_id = s6
# text = Oni kažu da neki vlasnici i zaposleni mogu da koriste određene rupe u zakonu, dok ostali ne dobijaju gotovo ništa.
'1	Oni	_	_	_
'2	kažu	_	_	VERB
'3	da	_	_	_
'4	neki	_	_	_
'5	vlasnici	_	_	_
'6	i	_	_	_
'7	zaposleni	_	_	_
'8	mogu	_	_	VERB
'9	da	_	_	_
'10	koriste	_	_	VERB
'11	određene	_	_	_
'12	rupe	_	_	_
'13	u	_	_	_
'14	zakonu	nsp	_	_
'15	,	_	_	_
'16	dok	_	_	_
'17	ostali	_	_	_
'18	ne	_	_	_
'19	dobijaju	_	_	VERB
'20	gotovo	_	_	_
'21	ništa	nsp	_	_
'22	.	_	_	_

# sent_id = s7
# text = Tu je i etnička komponenta, s obzirom da pojedinci iz različitih zajednica mogu da kažu da je diskriminacija -- bilo sada ili ranije -- uticala na njihovu mogućnost ostvarivanja koristi od privatizacije.
'1	Tu	_	_	_
'2	je	_	_	_
'3	i	_	_	_
'4	etnička	_	_	_
'5	komponenta	nsp	_	_
'6	,	_	_	_
'7	s	_	_	_
'8	obzirom	_	_	_
'9	da	_	_	_
'10	pojedinci	_	_	_
'11	iz	_	_	_
'12	različitih	_	_	_
'13	zajednica	_	_	_
'14	mogu	_	_	VERB
'15	da	_	_	_
'16	kažu	_	_	VERB
'17	da	_	_	_
'18	je	_	_	_
'19	diskriminacija	_	_	_
'20	--	_	_	_
'21	bilo	_	_	_
'22	sada	_	_	_
'23	ili	_	_	_
'24	ranije	_	_	_
'25	--	_	_	_
'26	uticala	_	_	VERB
'27	na	_	_	_
'28	njihovu	_	_	_
'29	mogućnost	_	_	_
'30	ostvarivanja	_	_	_
'31	koristi	_	_	_
'32	od	_	_	_
'33	privatizacije	nsp	_	_
'34	.	_	_	_

# sent_id = s8
# text = Esat Beriša je jedan takav primer.
'1	Esat	_	_	_
'2	Beriša	_	_	_
'3	je	_	_	_
'4	jedan	_	_	_
'5	takav	_	_	_
'6	primer	nsp	_	_
'7	.	_	_	_

# sent_id = s9
# text = "Moj otac je radio u Hidrotehnici, [kao i ja], do decembra 1990. godine, ali onda sam ja otpušten zato što su nas srpske vlasti otpustile.
'1	"	nsp	_	_
'2	Moj	_	_	_
'3	otac	_	_	_
'4	je	_	_	_
'5	radio	_	_	VERB
'6	u	_	_	_
'7	Hidrotehnici	nsp	_	_
'8	,	_	_	_
'9	[	nsp	_	_
'10	kao	_	_	_
'11	i	_	_	_
'12	ja	nsp	_	_
'13	]	nsp	_	_
'14	,	_	_	_
'15	do	_	_	_
'16	decembra	_	_	_
'17	1990.	_	_	_
'18	godine	nsp	_	_
'19	,	_	_	_
'20	ali	_	_	_
'21	onda	_	_	_
'22	sam	_	_	_
'23	ja	_	_	_
'24	otpušten	_	_	_
'25	zato	_	_	_
'26	što	_	_	_
'27	su	_	_	_
'28	nas	_	_	_
'29	srpske	_	_	_
'30	vlasti	_	_	_
'31	otpustile	nsp	_	VERB
'32	.	_	_	_

# sent_id = s10
# text = Posle rata sam se nadao da ću dobiti svoj posao nazad, ali to se nikada nije dogodilo."
'1	Posle	_	_	_
'2	rata	_	_	_
'3	sam	_	_	_
'4	se	_	_	_
'5	nadao	_	_	VERB
'6	da	_	_	_
'7	ću	_	_	_
'8	dobiti	_	_	VERB
'9	svoj	_	_	_
'10	posao	_	_	_
'11	nazad	nsp	_	_
'12	,	_	_	_
'13	ali	_	_	_
'14	to	_	_	_
'15	se	_	_	_
'16	nikada	_	_	_
'17	nije	_	_	_
'18	dogodilo	nsp	_	VERB
'19	.	nsp	_	_
'20	"	_	_	_

# sent_id = s11
# text = Nakon što je Hidrotehnika privatizovana 2006. godine, "nikada nisam dobio bilo kakvu nadoknadu, a najgore je to što kompanija više ne postoji, jer je novi vlasnik promenio njenu namenu", rekao je Beriša za SETimes.
'1	Nakon	_	_	_
'2	što	_	_	_
'3	je	_	_	_
'4	Hidrotehnika	_	_	_
'5	privatizovana	_	_	_
'6	2006.	_	_	_
'7	godine	nsp	_	_
'8	,	_	_	_
'9	"	nsp	_	_
'10	nikada	_	_	_
'11	nisam	_	_	_
'12	dobio	_	_	VERB
'13	bilo	_	_	_
'14	kakvu	_	_	_
'15	nadoknadu	nsp	_	_
'16	,	_	_	_
'17	a	_	_	_
'18	najgore	_	_	_
'19	je	_	_	_
'20	to	_	_	_
'21	što	_	_	_
'22	kompanija	_	_	_
'23	više	_	_	_
'24	ne	_	_	_
'25	postoji	nsp	_	VERB
'26	,	_	_	_
'27	jer	_	_	_
'28	je	_	_	_
'29	novi	_	_	_
'30	vlasnik	_	_	_
'31	promenio	_	_	VERB
'32	njenu	_	_	_
'33	namenu	nsp	_	_
'34	"	nsp	_	_
'35	,	_	_	_
'36	rekao	_	_	VERB
'37	je	_	_	_
'38	Beriša	_	_	_
'39	za	_	_	_
'40	SETimes	nsp	_	_
'41	.	_	_	_

# sent_id = s12
# text = U nekim slučajevima kompanije su kupovane više zbog zemljišta nego zbog želje da se nastavi rad.
'1	U	_	_	_
'2	nekim	_	_	_
'3	slučajevima	_	_	_
'4	kompanije	_	_	_
'5	su	_	_	_
'6	kupovane	_	_	_
'7	više	_	_	_
'8	zbog	_	_	_
'9	zemljišta	_	_	_
'10	nego	_	_	_
'11	zbog	_	_	_
'12	želje	_	_	_
'13	da	_	_	_
'14	se	_	_	_
'15	nastavi	_	_	VERB
'16	rad	nsp	_	_
'17	.	_	_	_

# sent_id = s13
# text = On nije usamljen: diskriminatorni zakon koji je nametnuo Miloševićev režim primorao je hiljade Kosovara da napuste svoje poslove.
'1	On	_	_	_
'2	nije	_	_	_
'3	usamljen	nsp	_	_
'4	:	_	_	_
'5	diskriminatorni	_	_	_
'6	zakon	_	_	_
'7	koji	_	_	_
'8	je	_	_	_
'9	nametnuo	_	_	VERB
'10	Miloševićev	_	_	_
'11	režim	_	_	_
'12	primorao	_	_	VERB
'13	je	_	_	_
'14	hiljade	_	_	_
'15	Kosovara	_	_	_
'16	da	_	_	_
'17	napuste	_	_	VERB
'18	svoje	_	_	_
'19	poslove	nsp	_	_
'20	.	_	_	_

# sent_id = s14
# text = Osim toga, mnoge kompanije koje su privatizovane promenile su lokaciju poslovanja i vrlo često se zaposleni, kao što je Beriša, skidaju sa platnog spiska, što dovodi do čestih protesta ispred Agencije za privatizaciju.
'1	Osim	_	_	_
'2	toga	nsp	_	_
'3	,	_	_	_
'4	mnoge	_	_	_
'5	kompanije	_	_	_
'6	koje	_	_	_
'7	su	_	_	_
'8	privatizovane	_	_	_
'9	promenile	_	_	VERB
'10	su	_	_	_
'11	lokaciju	_	_	_
'12	poslovanja	_	_	_
'13	i	_	_	_
'14	vrlo	_	_	_
'15	često	_	_	_
'16	se	_	_	_
'17	zaposleni	nsp	_	_
'18	,	_	_	_
'19	kao	_	_	_
'20	što	_	_	_
'21	je	_	_	_
'22	Beriša	nsp	_	_
'23	,	_	_	_
'24	skidaju	_	_	VERB
'25	sa	_	_	_
'26	platnog	_	_	_
'27	spiska	nsp	_	_
'28	,	_	_	_
'29	što	_	_	_
'30	dovodi	_	_	VERB
'31	do	_	_	_
'32	čestih	_	_	_
'33	protesta	_	_	_
'34	ispred	_	_	_
'35	Agencije	_	_	_
'36	za	_	_	_
'37	privatizaciju	nsp	_	_
'38	.	_	_	_

# sent_id = s15
# text = Dardan Sejdiu, ekonomski ekspert iz pokreta Vetvendosje, veliki je kritičar toga.
'1	Dardan	_	_	_
'2	Sejdiu	nsp	_	_
'3	,	_	_	_
'4	ekonomski	_	_	_
'5	ekspert	_	_	_
'6	iz	_	_	_
'7	pokreta	_	_	_
'8	Vetvendosje	nsp	_	_
'9	,	_	_	_
'10	veliki	_	_	_
'11	je	_	_	_
'12	kritičar	_	_	_
'13	toga	nsp	_	_
'14	.	_	_	_

# sent_id = s16
# text = "Deceniju kasnije vidimo da je ekonomija užasno nestrukturirana.
'1	"	nsp	_	_
'2	Deceniju	_	_	_
'3	kasnije	_	_	_
'4	vidimo	_	_	VERB
'5	da	_	_	_
'6	je	_	_	_
'7	ekonomija	_	_	_
'8	užasno	_	_	_
'9	nestrukturirana	nsp	_	_
'10	.	_	_	_

# sent_id = s17
# text = Većina proizvodnih kompanija više ne postoji ili se koriste za skladištenje robe; efikasnost kao koncept su, čini se, bile samo reči, a nezaposlenost se produbljuje.
'1	Većina	_	_	_
'2	proizvodnih	_	_	_
'3	kompanija	_	_	_
'4	više	_	_	_
'5	ne	_	_	_
'6	postoji	_	_	VERB
'7	ili	_	_	_
'8	se	_	_	_
'9	koriste	_	_	VERB
'10	za	_	_	_
'11	skladištenje	_	_	_
'12	robe	nsp	_	_
'13	;	_	_	_
'14	efikasnost	_	_	_
'15	kao	_	_	_
'16	koncept	_	_	_
'17	su	nsp	_	_
'18	,	_	_	_
'19	čini	_	_	VERB
'20	se	nsp	_	_
'21	,	_	_	_
'22	bile	_	_	_
'23	samo	_	_	_
'24	reči	nsp	_	_
'25	,	_	_	_
'26	a	_	_	_
'27	nezaposlenost	_	_	_
'28	se	_	_	_
'29	produbljuje	nsp	_	VERB
'30	.	_	_	_

# sent_id = s18
# text = Na kraju je i broj stranih investitora samo simboličan, a i suma koju su uložili je simbolična ", rekao je Sejdiu za SETimes.
'1	Na	_	_	_
'2	kraju	_	_	_
'3	je	_	_	_
'4	i	_	_	_
'5	broj	_	_	_
'6	stranih	_	_	_
'7	investitora	_	_	_
'8	samo	_	_	_
'9	simboličan	nsp	_	_
'10	,	_	_	_
'11	a	_	_	_
'12	i	_	_	_
'13	suma	_	_	_
'14	koju	_	_	_
'15	su	_	_	_
'16	uložili	_	_	VERB
'17	je	_	_	_
'18	simbolična	_	_	_
'19	"	nsp	_	_
'20	,	_	_	_
'21	rekao	_	_	VERB
'22	je	_	_	_
'23	Sejdiu	_	_	_
'24	za	_	_	_
'25	SETimes	nsp	_	_
'26	.	_	_	_

# sent_id = s19
# text = Privatizacija javnih i državnih kompanija poslednjih godina donela je više od 600 miliona evra, koji su prebačeni u banke u inostranstvu, a kosovska vlada ne koristi ta sredstva.
'1	Privatizacija	_	_	_
'2	javnih	_	_	_
'3	i	_	_	_
'4	državnih	_	_	_
'5	kompanija	_	_	_
'6	poslednjih	_	_	_
'7	godina	_	_	_
'8	donela	_	_	VERB
'9	je	_	_	_
'10	više	_	_	_
'11	od	_	_	_
'12	600	_	_	_
'13	miliona	_	_	_
'14	evra	nsp	_	_
'15	,	_	_	_
'16	koji	_	_	_
'17	su	_	_	_
'18	prebačeni	_	_	_
'19	u	_	_	_
'20	banke	_	_	_
'21	u	_	_	_
'22	inostranstvu	nsp	_	_
'23	,	_	_	_
'24	a	_	_	_
'25	kosovska	_	_	_
'26	vlada	_	_	_
'27	ne	_	_	_
'28	koristi	_	_	VERB
'29	ta	_	_	_
'30	sredstva	nsp	_	_
'31	.	_	_	_

# sent_id = s20
# text = Sejdiu kaže da je to premalo i da su zemlje u regionu prodale samo jednu ili nekoliko kompanija po toj ceni.
'1	Sejdiu	_	_	_
'2	kaže	_	_	VERB
'3	da	_	_	_
'4	je	_	_	_
'5	to	_	_	_
'6	premalo	_	_	_
'7	i	_	_	_
'8	da	_	_	_
'9	su	_	_	_
'10	zemlje	_	_	_
'11	u	_	_	_
'12	regionu	_	_	_
'13	prodale	_	_	VERB
'14	samo	_	_	_
'15	jednu	_	_	_
'16	ili	_	_	_
'17	nekoliko	_	_	_
'18	kompanija	_	_	_
'19	po	_	_	_
'20	toj	_	_	_
'21	ceni	nsp	_	_
'22	.	_	_	_

# sent_id = s21
# text = Seb Bitići, izvršni direktor Instituta za balkansku politiku, slaže se sa tim.
'1	Seb	_	_	_
'2	Bitići	nsp	_	_
'3	,	_	_	_
'4	izvršni	_	_	_
'5	direktor	_	_	_
'6	Instituta	_	_	_
'7	za	_	_	_
'8	balkansku	_	_	_
'9	politiku	nsp	_	_
'10	,	_	_	_
'11	slaže	_	_	VERB
'12	se	_	_	_
'13	sa	_	_	_
'14	tim	nsp	_	_
'15	.	_	_	_

# sent_id = s22
# text = "Glavni nedostaci su prodaja po nižim cenama, s obzirom da se vrednost [kompanija] smanjivala zbog lošeg upravljanja, nefunkcionisanje preduzeća i optužbe za korupciju", rekao je on za SETimes.
'1	"	nsp	_	_
'2	Glavni	_	_	_
'3	nedostaci	_	_	_
'4	su	_	_	_
'5	prodaja	_	_	_
'6	po	_	_	_
'7	nižim	_	_	_
'8	cenama	nsp	_	_
'9	,	_	_	_
'10	s	_	_	_
'11	obzirom	_	_	_
'12	da	_	_	_
'13	se	_	_	_
'14	vrednost	_	_	_
'15	[	nsp	_	_
'16	kompanija	nsp	_	_
'17	]	_	_	_
'18	smanjivala	_	_	VERB
'19	zbog	_	_	_
'20	lošeg	_	_	_
'21	upravljanja	nsp	_	_
'22	,	_	_	_
'23	nefunkcionisanje	_	_	_
'24	preduzeća	_	_	_
'25	i	_	_	_
'26	optužbe	_	_	_
'27	za	_	_	_
'28	korupciju	nsp	_	_
'29	"	nsp	_	_
'30	,	_	_	_
'31	rekao	_	_	VERB
'32	je	_	_	_
'33	on	_	_	_
'34	za	_	_	_
'35	SETimes	nsp	_	_
'36	.	_	_	_

# sent_id = s23
# text = Tu su takođe troškovi izgubljenih mogućnosti: "U nekim slučajevima je privatizacija mogla da donese bolje usluge i efikasnost."
'1	Tu	_	_	_
'2	su	_	_	_
'3	takođe	_	_	_
'4	troškovi	_	_	_
'5	izgubljenih	_	_	_
'6	mogućnosti	nsp	_	_
'7	:	_	_	_
'8	"	nsp	_	_
'9	U	_	_	_
'10	nekim	_	_	_
'11	slučajevima	_	_	_
'12	je	_	_	_
'13	privatizacija	_	_	_
'14	mogla	_	_	VERB
'15	da	_	_	_
'16	donese	_	_	VERB
'17	bolje	_	_	_
'18	usluge	_	_	_
'19	i	_	_	_
'20	efikasnost	nsp	_	_
'21	.	nsp	_	_
'22	"	_	_	_

# sent_id = s24
# text = Sejdiu kaže da je, iz ove perspektive, proces "bio prenagljen… bez plana za ekonomski razvoj" i da je privatizacija dovela do velikih problema za radnike.
'1	Sejdiu	_	_	_
'2	kaže	_	_	VERB
'3	da	_	_	_
'4	je	nsp	_	_
'5	,	_	_	_
'6	iz	_	_	_
'7	ove	_	_	_
'8	perspektive	nsp	_	_
'9	,	_	_	_
'10	proces	_	_	_
'11	"	nsp	_	_
'12	bio	_	_	_
'13	prenagljen	nsp	_	_
'14	…	_	_	_
'15	bez	_	_	_
'16	plana	_	_	_
'17	za	_	_	_
'18	ekonomski	_	_	_
'19	razvoj	nsp	_	_
'20	"	_	_	_
'21	i	_	_	_
'22	da	_	_	_
'23	je	_	_	_
'24	privatizacija	_	_	_
'25	dovela	_	_	VERB
'26	do	_	_	_
'27	velikih	_	_	_
'28	problema	_	_	_
'29	za	_	_	_
'30	radnike	nsp	_	_
'31	.	_	_	_

# sent_id = s25
# text = On ukazuje na kompanije u istočnom regionu Ana Morava, gde je ranije bilo "skoro 17.000 radnika, u preduzećima koja su sada privatizovana.
'1	On	_	_	_
'2	ukazuje	_	_	VERB
'3	na	_	_	_
'4	kompanije	_	_	_
'5	u	_	_	_
'6	istočnom	_	_	_
'7	regionu	_	_	_
'8	Ana	_	_	_
'9	Morava	nsp	_	_
'10	,	_	_	_
'11	gde	_	_	_
'12	je	_	_	_
'13	ranije	_	_	_
'14	bilo	_	_	_
'15	"	nsp	_	_
'16	skoro	_	_	_
'17	17.000	_	_	_
'18	radnika	nsp	_	_
'19	,	_	_	_
'20	u	_	_	_
'21	preduzećima	_	_	_
'22	koja	_	_	_
'23	su	_	_	_
'24	sada	_	_	_
'25	privatizovana	nsp	_	_
'26	.	_	_	_

# sent_id = s26
# text = Danas ta preduzeća zapošljavaju [manje od] 1.700 njih -- ni 10 odsto radne snage nije zadržano ", tvrdi Sejdiu.
'1	Danas	_	_	_
'2	ta	_	_	_
'3	preduzeća	_	_	_
'4	zapošljavaju	_	_	VERB
'5	[	nsp	_	_
'6	manje	_	_	_
'7	od	nsp	_	_
'8	]	_	_	_
'9	1.700	_	_	_
'10	njih	_	_	_
'11	--	_	_	_
'12	ni	_	_	_
'13	10	_	_	_
'14	odsto	_	_	_
'15	radne	_	_	_
'16	snage	_	_	_
'17	nije	_	_	_
'18	zadržano	_	_	_
'19	"	nsp	_	_
'20	,	_	_	_
'21	tvrdi	_	_	VERB
'22	Sejdiu	nsp	_	_
'23	.	_	_	_

# sent_id = s27
# text = Bitići kaže da bi jači sindikati doneli bolje ishode.
'1	Bitići	_	_	_
'2	kaže	_	_	VERB
'3	da	_	_	_
'4	bi	_	_	_
'5	jači	_	_	_
'6	sindikati	_	_	_
'7	doneli	_	_	VERB
'8	bolje	_	_	_
'9	ishode	nsp	_	_
'10	.	_	_	_

# sent_id = s28
# text = "Ovde je glavni problem nepostojanje pravih sindikata.
'1	"	nsp	_	_
'2	Ovde	_	_	_
'3	je	_	_	_
'4	glavni	_	_	_
'5	problem	_	_	_
'6	nepostojanje	_	_	_
'7	pravih	_	_	_
'8	sindikata	nsp	_	_
'9	.	_	_	_

# sent_id = s29
# text = Radnici nisu mogli da ispregovaraju sporazum koji omogućava lakšu tranziciju.
'1	Radnici	_	_	_
'2	nisu	_	_	_
'3	mogli	_	_	VERB
'4	da	_	_	_
'5	ispregovaraju	_	_	VERB
'6	sporazum	_	_	_
'7	koji	_	_	_
'8	omogućava	_	_	VERB
'9	lakšu	_	_	_
'10	tranziciju	nsp	_	_
'11	.	_	_	_

# sent_id = s30
# text = Toliko je radnika otpušteno.
'1	Toliko	_	_	_
'2	je	_	_	_
'3	radnika	_	_	_
'4	otpušteno	nsp	_	_
'5	.	_	_	_

# sent_id = s31
# text = Kada su u pitanju oni koji i dalje rade, [ne postoji] garancija za bezbednost na radu.
'1	Kada	_	_	_
'2	su	_	_	_
'3	u	_	_	_
'4	pitanju	_	_	_
'5	oni	_	_	_
'6	koji	_	_	_
'7	i	_	_	_
'8	dalje	_	_	_
'9	rade	nsp	_	VERB
'10	,	_	_	_
'11	[	nsp	_	_
'12	ne	_	_	_
'13	postoji	nsp	_	VERB
'14	]	_	_	_
'15	garancija	_	_	_
'16	za	_	_	_
'17	bezbednost	_	_	_
'18	na	_	_	_
'19	radu	nsp	_	_
'20	.	_	_	_

# sent_id = s32
# text = Feronikeli je flagrantan slučaj u kojem nedostatak političke volje da se reši pitanje bezbednosti na radu ugrožava živote radnika ", rekao je on za SETimes.
'1	Feronikeli	_	_	_
'2	je	_	_	_
'3	flagrantan	_	_	_
'4	slučaj	_	_	_
'5	u	_	_	_
'6	kojem	_	_	_
'7	nedostatak	_	_	_
'8	političke	_	_	_
'9	volje	_	_	_
'10	da	_	_	_
'11	se	_	_	_
'12	reši	_	_	VERB
'13	pitanje	_	_	_
'14	bezbednosti	_	_	_
'15	na	_	_	_
'16	radu	_	_	_
'17	ugrožava	_	_	VERB
'18	živote	_	_	_
'19	radnika	_	_	_
'20	"	nsp	_	_
'21	,	_	_	_
'22	rekao	_	_	VERB
'23	je	_	_	_
'24	on	_	_	_
'25	za	_	_	_
'26	SETimes	nsp	_	_
'27	.	_	_	_

# sent_id = s33
# text = Poslednjih meseci povređeno je više radnika kompanije Feronikel na centralnom Kosovu, što je primoralo predsednika parlamenta Jakupa Krasnićija da pozove na bolje i sigurnije uslove rada.
'1	Poslednjih	_	_	_
'2	meseci	_	_	_
'3	povređeno	_	_	_
'4	je	_	_	_
'5	više	_	_	_
'6	radnika	_	_	_
'7	kompanije	_	_	_
'8	Feronikel	_	_	_
'9	na	_	_	_
'10	centralnom	_	_	_
'11	Kosovu	nsp	_	_
'12	,	_	_	_
'13	što	_	_	_
'14	je	_	_	_
'15	primoralo	_	_	VERB
'16	predsednika	_	_	_
'17	parlamenta	_	_	_
'18	Jakupa	_	_	_
'19	Krasnićija	_	_	_
'20	da	_	_	_
'21	pozove	_	_	VERB
'22	na	_	_	_
'23	bolje	_	_	_
'24	i	_	_	_
'25	sigurnije	_	_	_
'26	uslove	_	_	_
'27	rada	nsp	_	_
'28	.	_	_	_

# sent_id = s34
# text = Feronikel je privatizovan 2007. godine.
'1	Feronikel	_	_	_
'2	je	_	_	_
'3	privatizovan	_	_	_
'4	2007.	_	_	_
'5	godine	nsp	_	_
'6	.	_	_	_

# sent_id = s35
# text = Kazna medijskom mogulu obnovila debatu u Makedoniji
'1	Kazna	_	_	_
'2	medijskom	_	_	_
'3	mogulu	_	_	_
'4	obnovila	_	_	VERB
'5	debatu	_	_	_
'6	u	_	_	_
'7	Makedoniji	_	_	_

# sent_id = s36
# text = Neki tvrde da je presuda Veliji Ramkovskom napad na slobodu medija, ali drugi tvrde da dokazi o njegovim krivičnim delima govore suprotno.
'1	Neki	_	_	_
'2	tvrde	_	_	VERB
'3	da	_	_	_
'4	je	_	_	_
'5	presuda	_	_	_
'6	Veliji	_	_	_
'7	Ramkovskom	_	_	_
'8	napad	_	_	_
'9	na	_	_	_
'10	slobodu	_	_	_
'11	medija	nsp	_	_
'12	,	_	_	_
'13	ali	_	_	_
'14	drugi	_	_	_
'15	tvrde	_	_	VERB
'16	da	_	_	_
'17	dokazi	_	_	_
'18	o	_	_	_
'19	njegovim	_	_	_
'20	krivičnim	_	_	_
'21	delima	_	_	_
'22	govore	_	_	VERB
'23	suprotno	nsp	_	_
'24	.	_	_	_

# sent_id = s37
# text = Medijski mogul Velija Ramkovski osuđen je na 13 godina zatvora zbog utaje poreza i pranja novca.
'1	Medijski	_	_	_
'2	mogul	_	_	_
'3	Velija	_	_	_
'4	Ramkovski	_	_	_
'5	osuđen	_	_	_
'6	je	_	_	_
'7	na	_	_	_
'8	13	_	_	_
'9	godina	_	_	_
'10	zatvora	_	_	_
'11	zbog	_	_	_
'12	utaje	_	_	_
'13	poreza	_	_	_
'14	i	_	_	_
'15	pranja	_	_	_
'16	novca	nsp	_	_
'17	.	_	_	_

# sent_id = s38
# text = Krivična presuda i zatvorska kazna medijskom mogulu Veliji Ramkovskom, koji je često kritikovao makedonsku vladu, mogla bi da zaplaši medije, kažu novinari u toj maloj balkanskoj državi.
'1	Krivična	_	_	_
'2	presuda	_	_	_
'3	i	_	_	_
'4	zatvorska	_	_	_
'5	kazna	_	_	_
'6	medijskom	_	_	_
'7	mogulu	_	_	_
'8	Veliji	_	_	_
'9	Ramkovskom	nsp	_	_
'10	,	_	_	_
'11	koji	_	_	_
'12	je	_	_	_
'13	često	_	_	_
'14	kritikovao	_	_	VERB
'15	makedonsku	_	_	_
'16	vladu	nsp	_	_
'17	,	_	_	_
'18	mogla	_	_	VERB
'19	bi	_	_	_
'20	da	_	_	_
'21	zaplaši	_	_	VERB
'22	medije	nsp	_	_
'23	,	_	_	_
'24	kažu	_	_	VERB
'25	novinari	_	_	_
'26	u	_	_	_
'27	toj	_	_	_
'28	maloj	_	_	_
'29	balkanskoj	_	_	_
'30	državi	nsp	_	_
'31	.	_	_	_

# sent_id = s39
# text = Ramkovski, bivši vlasnik televizijske stanice A1, četiri novine i drugih preduzeća, osuđen je u krivičnom sudu u Skoplju 14. marta na 13 godina zatvora, zbog pranja novca, kriminalne zavere, zloupotrebe položaja i utaje poreza; 19 saučesnika dobilo je zatvorske kazne u trajanju dve do sedam godina.
'1	Ramkovski	nsp	_	_
'2	,	_	_	_
'3	bivši	_	_	_
'4	vlasnik	_	_	_
'5	televizijske	_	_	_
'6	stanice	_	_	_
'7	A1	nsp	_	_
'8	,	_	_	_
'9	četiri	_	_	_
'10	novine	_	_	_
'11	i	_	_	_
'12	drugih	_	_	_
'13	preduzeća	nsp	_	_
'14	,	_	_	_
'15	osuđen	_	_	_
'16	je	_	_	_
'17	u	_	_	_
'18	krivičnom	_	_	_
'19	sudu	_	_	_
'20	u	_	_	_
'21	Skoplju	_	_	_
'22	14.	_	_	_
'23	marta	_	_	_
'24	na	_	_	_
'25	13	_	_	_
'26	godina	_	_	_
'27	zatvora	nsp	_	_
'28	,	_	_	_
'29	zbog	_	_	_
'30	pranja	_	_	_
'31	novca	nsp	_	_
'32	,	_	_	_
'33	kriminalne	_	_	_
'34	zavere	nsp	_	_
'35	,	_	_	_
'36	zloupotrebe	_	_	_
'37	položaja	_	_	_
'38	i	_	_	_
'39	utaje	_	_	_
'40	poreza	nsp	_	_
'41	;	_	_	_
'42	19	_	_	_
'43	saučesnika	_	_	_
'44	dobilo	_	_	VERB
'45	je	_	_	_
'46	zatvorske	_	_	_
'47	kazne	_	_	_
'48	u	_	_	_
'49	trajanju	_	_	_
'50	dve	_	_	_
'51	do	_	_	_
'52	sedam	_	_	_
'53	godina	nsp	_	_
'54	.	_	_	_

# sent_id = s40
# text = A1 TV i četiri novine zatvoreni su zato što nisu plaćali porez, niti ispunjavali obaveze prema kreditorima.
'1	A1	_	_	_
'2	TV	_	_	_
'3	i	_	_	_
'4	četiri	_	_	_
'5	novine	_	_	_
'6	zatvoreni	_	_	_
'7	su	_	_	_
'8	zato	_	_	_
'9	što	_	_	_
'10	nisu	_	_	_
'11	plaćali	_	_	VERB
'12	porez	nsp	_	_
'13	,	_	_	_
'14	niti	_	_	_
'15	ispunjavali	_	_	VERB
'16	obaveze	_	_	_
'17	prema	_	_	_
'18	kreditorima	nsp	_	_
'19	.	_	_	_

# sent_id = s41
# text = "Utisak je da su koraci preduzeti prema medijima, za koje su izrečene presude, selektivni, te da institucije ne koriste iste metode u sprovođenju zakona prema svim medijima", rekla direktorka Medijskog instituta Makedonije Biljana Petkovska za SETimes.
'1	"	nsp	_	_
'2	Utisak	_	_	_
'3	je	_	_	_
'4	da	_	_	_
'5	su	_	_	_
'6	koraci	_	_	_
'7	preduzeti	_	_	_
'8	prema	_	_	_
'9	medijima	nsp	_	_
'10	,	_	_	_
'11	za	_	_	_
'12	koje	_	_	_
'13	su	_	_	_
'14	izrečene	_	_	_
'15	presude	nsp	_	_
'16	,	_	_	_
'17	selektivni	nsp	_	_
'18	,	_	_	_
'19	te	_	_	_
'20	da	_	_	_
'21	institucije	_	_	_
'22	ne	_	_	_
'23	koriste	_	_	VERB
'24	iste	_	_	_
'25	metode	_	_	_
'26	u	_	_	_
'27	sprovođenju	_	_	_
'28	zakona	_	_	_
'29	prema	_	_	_
'30	svim	_	_	_
'31	medijima	nsp	_	_
'32	"	nsp	_	_
'33	,	_	_	_
'34	rekla	_	_	VERB
'35	direktorka	_	_	_
'36	Medijskog	_	_	_
'37	instituta	_	_	_
'38	Makedonije	_	_	_
'39	Biljana	_	_	_
'40	Petkovska	_	_	_
'41	za	_	_	_
'42	SETimes	nsp	_	_
'43	.	_	_	_

# sent_id = s42
# text = Neki novinari, a posebno bivši zaposleni u A1 TV, tvrde da taj slučaj, pod nazivom "Paukova mreža", predstavlja borbu između vlade i tada najmoćnije TV stanice u Makedoniji, koja je kritikovala njenu politiku i podržavala opoziciju.
'1	Neki	_	_	_
'2	novinari	nsp	_	_
'3	,	_	_	_
'4	a	_	_	_
'5	posebno	_	_	_
'6	bivši	_	_	_
'7	zaposleni	_	_	_
'8	u	_	_	_
'9	A1	_	_	_
'10	TV	nsp	_	_
'11	,	_	_	_
'12	tvrde	_	_	VERB
'13	da	_	_	_
'14	taj	_	_	_
'15	slučaj	nsp	_	_
'16	,	_	_	_
'17	pod	_	_	_
'18	nazivom	_	_	_
'19	"	nsp	_	_
'20	Paukova	_	_	_
'21	mreža	nsp	_	_
'22	"	nsp	_	_
'23	,	_	_	_
'24	predstavlja	_	_	VERB
'25	borbu	_	_	_
'26	između	_	_	_
'27	vlade	_	_	_
'28	i	_	_	_
'29	tada	_	_	_
'30	najmoćnije	_	_	_
'31	TV	_	_	_
'32	stanice	_	_	_
'33	u	_	_	_
'34	Makedoniji	nsp	_	_
'35	,	_	_	_
'36	koja	_	_	_
'37	je	_	_	_
'38	kritikovala	_	_	VERB
'39	njenu	_	_	_
'40	politiku	_	_	_
'41	i	_	_	_
'42	podržavala	_	_	VERB
'43	opoziciju	nsp	_	_
'44	.	_	_	_

# sent_id = s43
# text = "Trenutni politički establišment staviće pod potpunu kontrolu svaku slobodnu misao i svako mišljenje koje je protiv njega.
'1	"	nsp	_	_
'2	Trenutni	_	_	_
'3	politički	_	_	_
'4	establišment	_	_	_
'5	staviće	_	_	VERB
'6	pod	_	_	_
'7	potpunu	_	_	_
'8	kontrolu	_	_	_
'9	svaku	_	_	_
'10	slobodnu	_	_	_
'11	misao	_	_	_
'12	i	_	_	_
'13	svako	_	_	_
'14	mišljenje	_	_	_
'15	koje	_	_	_
'16	je	_	_	_
'17	protiv	_	_	_
'18	njega	nsp	_	_
'19	.	_	_	_

# sent_id = s44
# text = Njegov cilj, a danas se to i pokazalo, bio je da ućutka A1 TV i Veliju Ramkovskog, kao nosioce borbe protiv diktature [premijera] Nikole Gruevskog ", kaže bivši urednik A1 TV i poslanik opozicione Sandžačke lige Safet Biševac.
'1	Njegov	_	_	_
'2	cilj	nsp	_	_
'3	,	_	_	_
'4	a	_	_	_
'5	danas	_	_	_
'6	se	_	_	_
'7	to	_	_	_
'8	i	_	_	_
'9	pokazalo	nsp	_	VERB
'10	,	_	_	_
'11	bio	_	_	_
'12	je	_	_	_
'13	da	_	_	_
'14	ućutka	_	_	VERB
'15	A1	_	_	_
'16	TV	_	_	_
'17	i	_	_	_
'18	Veliju	_	_	_
'19	Ramkovskog	nsp	_	_
'20	,	_	_	_
'21	kao	_	_	_
'22	nosioce	_	_	_
'23	borbe	_	_	_
'24	protiv	_	_	_
'25	diktature	_	_	_
'26	[	nsp	_	_
'27	premijera	nsp	_	_
'28	]	_	_	_
'29	Nikole	_	_	_
'30	Gruevskog	_	_	_
'31	"	nsp	_	_
'32	,	_	_	_
'33	kaže	_	_	VERB
'34	bivši	_	_	_
'35	urednik	_	_	_
'36	A1	_	_	_
'37	TV	_	_	_
'38	i	_	_	_
'39	poslanik	_	_	_
'40	opozicione	_	_	_
'41	Sandžačke	_	_	_
'42	lige	_	_	_
'43	Safet	_	_	_
'44	Biševac	nsp	_	_
'45	.	_	_	_

# sent_id = s45
# text = Zvaničnici su odgovorili da je A1 TV tretirana isto kao bilo koja druga organizacija, a Ramkovski je kriv za višegodišnje kriminalne aktivnosti.
'1	Zvaničnici	_	_	_
'2	su	_	_	_
'3	odgovorili	_	_	VERB
'4	da	_	_	_
'5	je	_	_	_
'6	A1	_	_	_
'7	TV	_	_	_
'8	tretirana	_	_	_
'9	isto	_	_	_
'10	kao	_	_	_
'11	bilo	_	_	_
'12	koja	_	_	_
'13	druga	_	_	_
'14	organizacija	nsp	_	_
'15	,	_	_	_
'16	a	_	_	_
'17	Ramkovski	_	_	_
'18	je	_	_	_
'19	kriv	_	_	_
'20	za	_	_	_
'21	višegodišnje	_	_	_
'22	kriminalne	_	_	_
'23	aktivnosti	nsp	_	_
'24	.	_	_	_

# sent_id = s46
# text = "Ovo je beskompromisna borba protiv kriminala i korupcije, koji postoje u svim zemljama, ali čije sankcionisanje zavisi uglavnom od političke volje relevantnih faktora i sposobnosti institucija da nezavisno obavljaju svoj rad", rekao je poslanik vladajuće VMRO Antonio Milososki za SETimes.
'1	"	nsp	_	_
'2	Ovo	_	_	_
'3	je	_	_	_
'4	beskompromisna	_	_	_
'5	borba	_	_	_
'6	protiv	_	_	_
'7	kriminala	_	_	_
'8	i	_	_	_
'9	korupcije	nsp	_	_
'10	,	_	_	_
'11	koji	_	_	_
'12	postoje	_	_	VERB
'13	u	_	_	_
'14	svim	_	_	_
'15	zemljama	nsp	_	_
'16	,	_	_	_
'17	ali	_	_	_
'18	čije	_	_	_
'19	sankcionisanje	_	_	_
'20	zavisi	_	_	VERB
'21	uglavnom	_	_	_
'22	od	_	_	_
'23	političke	_	_	_
'24	volje	_	_	_
'25	relevantnih	_	_	_
'26	faktora	_	_	_
'27	i	_	_	_
'28	sposobnosti	_	_	_
'29	institucija	_	_	_
'30	da	_	_	_
'31	nezavisno	_	_	_
'32	obavljaju	_	_	VERB
'33	svoj	_	_	_
'34	rad	nsp	_	_
'35	"	nsp	_	_
'36	,	_	_	_
'37	rekao	_	_	VERB
'38	je	_	_	_
'39	poslanik	_	_	_
'40	vladajuće	_	_	_
'41	VMRO	_	_	_
'42	Antonio	_	_	_
'43	Milososki	_	_	_
'44	za	_	_	_
'45	SETimes	nsp	_	_
'46	.	_	_	_

# sent_id = s47
# text = Tužioci su izveli 25 svedoka, koji su rekli da je Ramkovski izbegao da plati 4,5 miliona evra poreza i da je stekao 17,5 miliona evra kroz prevaru -- kao što je izdavanje računa sa lažnim sadržajem.
'1	Tužioci	_	_	_
'2	su	_	_	_
'3	izveli	_	_	VERB
'4	25	_	_	_
'5	svedoka	nsp	_	_
'6	,	_	_	_
'7	koji	_	_	_
'8	su	_	_	_
'9	rekli	_	_	VERB
'10	da	_	_	_
'11	je	_	_	_
'12	Ramkovski	_	_	_
'13	izbegao	_	_	VERB
'14	da	_	_	_
'15	plati	_	_	VERB
'16	4,5	_	_	_
'17	miliona	_	_	_
'18	evra	_	_	_
'19	poreza	_	_	_
'20	i	_	_	_
'21	da	_	_	_
'22	je	_	_	_
'23	stekao	_	_	VERB
'24	17,5	_	_	_
'25	miliona	_	_	_
'26	evra	_	_	_
'27	kroz	_	_	_
'28	prevaru	_	_	_
'29	--	_	_	_
'30	kao	_	_	_
'31	što	_	_	_
'32	je	_	_	_
'33	izdavanje	_	_	_
'34	računa	_	_	_
'35	sa	_	_	_
'36	lažnim	_	_	_
'37	sadržajem	nsp	_	_
'38	.	_	_	_

# sent_id = s48
# text = Ramkovski je delovao preko svojih 15 firmi -- koje takođe posluju u Turskoj i SAD -- čije je sedište naveo na adresi A1 TV.
'1	Ramkovski	_	_	_
'2	je	_	_	_
'3	delovao	_	_	VERB
'4	preko	_	_	_
'5	svojih	_	_	_
'6	15	_	_	_
'7	firmi	_	_	_
'8	--	_	_	_
'9	koje	_	_	_
'10	takođe	_	_	_
'11	posluju	_	_	VERB
'12	u	_	_	_
'13	Turskoj	_	_	_
'14	i	_	_	_
'15	SAD	_	_	_
'16	--	_	_	_
'17	čije	_	_	_
'18	je	_	_	_
'19	sedište	_	_	_
'20	naveo	_	_	VERB
'21	na	_	_	_
'22	adresi	_	_	_
'23	A1	_	_	_
'24	TV	nsp	_	_
'25	.	_	_	_

# sent_id = s49
# text = Prema rečima predsednice makedonskog ogranka Transparensi Internešnala Slađane Taseve, više brine to što je vlada zamrzla i zaplenila sredstva A1 TV.
'1	Prema	_	_	_
'2	rečima	_	_	_
'3	predsednice	_	_	_
'4	makedonskog	_	_	_
'5	ogranka	_	_	_
'6	Transparensi	_	_	_
'7	Internešnala	_	_	_
'8	Slađane	_	_	_
'9	Taseve	nsp	_	_
'10	,	_	_	_
'11	više	_	_	_
'12	brine	_	_	VERB
'13	to	_	_	_
'14	što	_	_	_
'15	je	_	_	_
'16	vlada	_	_	_
'17	zamrzla	_	_	VERB
'18	i	_	_	_
'19	zaplenila	_	_	VERB
'20	sredstva	_	_	_
'21	A1	_	_	_
'22	TV	nsp	_	_
'23	.	_	_	_

# sent_id = s50
# text = Taseva kaže da je Transparensi podneo zahtev Ustavnom sudu Makedonije da preispita zakonitost zaplene.
'1	Taseva	_	_	_
'2	kaže	_	_	VERB
'3	da	_	_	_
'4	je	_	_	_
'5	Transparensi	_	_	_
'6	podneo	_	_	VERB
'7	zahtev	_	_	_
'8	Ustavnom	_	_	_
'9	sudu	_	_	_
'10	Makedonije	_	_	_
'11	da	_	_	_
'12	preispita	_	_	VERB
'13	zakonitost	_	_	_
'14	zaplene	nsp	_	_
'15	.	_	_	_

# sent_id = s51
# text = "Uverena sam da će Paukova mreža imati svoj epilog na međunarodnim sudovima", rekla je Taseva.
'1	"	nsp	_	_
'2	Uverena	_	_	_
'3	sam	_	_	_
'4	da	_	_	_
'5	će	_	_	_
'6	Paukova	_	_	_
'7	mreža	_	_	_
'8	imati	_	_	VERB
'9	svoj	_	_	_
'10	epilog	_	_	_
'11	na	_	_	_
'12	međunarodnim	_	_	_
'13	sudovima	nsp	_	_
'14	"	nsp	_	_
'15	,	_	_	_
'16	rekla	_	_	VERB
'17	je	_	_	_
'18	Taseva	nsp	_	_
'19	.	_	_	_

# sent_id = s52
# text = Drugi, kao što je novinarska veteranka Mirka Velinovska, tvrde da ne postoje argumenti koji potkrepljuju pritužbe vezane za slobodu medija.
'1	Drugi	nsp	_	_
'2	,	_	_	_
'3	kao	_	_	_
'4	što	_	_	_
'5	je	_	_	_
'6	novinarska	_	_	_
'7	veteranka	_	_	_
'8	Mirka	_	_	_
'9	Velinovska	nsp	_	_
'10	,	_	_	_
'11	tvrde	_	_	VERB
'12	da	_	_	_
'13	ne	_	_	_
'14	postoje	_	_	VERB
'15	argumenti	_	_	_
'16	koji	_	_	_
'17	potkrepljuju	_	_	VERB
'18	pritužbe	_	_	_
'19	vezane	_	_	_
'20	za	_	_	_
'21	slobodu	_	_	_
'22	medija	nsp	_	_
'23	.	_	_	_

# sent_id = s53
# text = "Da li želite da se zakon poštuje ili ne?
'1	"	nsp	_	_
'2	Da	_	_	_
'3	li	_	_	_
'4	želite	_	_	VERB
'5	da	_	_	_
'6	se	_	_	_
'7	zakon	_	_	_
'8	poštuje	_	_	VERB
'9	ili	_	_	_
'10	ne	nsp	_	_
'11	?	_	_	_

# sent_id = s54
# text = Sloboda govora u Makedoniji je živa i zdrava, a novinari sa A1 TV koji su ostali bez posla sada ponovo rade u svojoj profesiji.
'1	Sloboda	_	_	_
'2	govora	_	_	_
'3	u	_	_	_
'4	Makedoniji	_	_	_
'5	je	_	_	_
'6	živa	_	_	_
'7	i	_	_	_
'8	zdrava	nsp	_	_
'9	,	_	_	_
'10	a	_	_	_
'11	novinari	_	_	_
'12	sa	_	_	_
'13	A1	_	_	_
'14	TV	_	_	_
'15	koji	_	_	_
'16	su	_	_	_
'17	ostali	_	_	VERB
'18	bez	_	_	_
'19	posla	_	_	_
'20	sada	_	_	_
'21	ponovo	_	_	_
'22	rade	_	_	VERB
'23	u	_	_	_
'24	svojoj	_	_	_
'25	profesiji	nsp	_	_
'26	.	_	_	_

# sent_id = s55
# text = Neki... su dobili novčanu podršku iz inostranstva i otvorili sopstvene medije; drugi su zaposleni u domaćim medijima.
'1	Neki	nsp	_	_
'2	...	_	_	_
'3	su	_	_	_
'4	dobili	_	_	VERB
'5	novčanu	_	_	_
'6	podršku	_	_	_
'7	iz	_	_	_
'8	inostranstva	_	_	_
'9	i	_	_	_
'10	otvorili	_	_	VERB
'11	sopstvene	_	_	_
'12	medije	nsp	_	_
'13	;	_	_	_
'14	drugi	_	_	_
'15	su	_	_	_
'16	zaposleni	_	_	_
'17	u	_	_	_
'18	domaćim	_	_	_
'19	medijima	nsp	_	_
'20	.	_	_	_

# sent_id = s56
# text = Kako je tu onda potisnuta sloboda medija? "rekla je Velinovska za SETimes.
'1	Kako	_	_	_
'2	je	_	_	_
'3	tu	_	_	_
'4	onda	_	_	_
'5	potisnuta	_	_	_
'6	sloboda	_	_	_
'7	medija	nsp	_	_
'8	?	_	_	_
'9	"	nsp	_	_
'10	rekla	_	_	VERB
'11	je	_	_	_
'12	Velinovska	_	_	_
'13	za	_	_	_
'14	SETimes	nsp	_	_
'15	.	_	_	_

# sent_id = s57
# text = Član Predsedništva BiH Komšić podneo ostavku u svojoj stranci
'1	Član	_	_	_
'2	Predsedništva	_	_	_
'3	BiH	_	_	_
'4	Komšić	_	_	_
'5	podneo	_	_	VERB
'6	ostavku	_	_	_
'7	u	_	_	_
'8	svojoj	_	_	_
'9	stranci	_	_	_

# sent_id = s58
# text = Član Predsedništva BiH Željko Komšić okrenuo je leđa vladajućoj Socijaldemokratskoj partiji, uzdrmavši političku scenu u zemlji.
'1	Član	_	_	_
'2	Predsedništva	_	_	_
'3	BiH	_	_	_
'4	Željko	_	_	_
'5	Komšić	_	_	_
'6	okrenuo	_	_	VERB
'7	je	_	_	_
'8	leđa	_	_	_
'9	vladajućoj	_	_	_
'10	Socijaldemokratskoj	_	_	_
'11	partiji	nsp	_	_
'12	,	_	_	_
'13	uzdrmavši	_	_	_
'14	političku	_	_	_
'15	scenu	_	_	_
'16	u	_	_	_
'17	zemlji	nsp	_	_
'18	.	_	_	_

# sent_id = s59
# text = Željko Komšić nastaviće da obavlja funkciju člana tročlanog Predsedništva BiH.
'1	Željko	_	_	_
'2	Komšić	_	_	_
'3	nastaviće	_	_	VERB
'4	da	_	_	_
'5	obavlja	_	_	VERB
'6	funkciju	_	_	_
'7	člana	_	_	_
'8	tročlanog	_	_	_
'9	Predsedništva	_	_	_
'10	BiH	nsp	_	_
'11	.	_	_	_

# sent_id = s60
# text = Član Predsedništva Bosne i Hercegovine (BiH) Željko Komšić podneo je u utorak (20. marta) ostavku na mesto potpredsednika Socijaldemokratske partije (SDP) i dugogodišnjeg člana najvišeg rukovodstva stranke.
'1	Član	_	_	_
'2	Predsedništva	_	_	_
'3	Bosne	_	_	_
'4	i	_	_	_
'5	Hercegovine	_	_	_
'6	(	nsp	_	_
'7	BiH	nsp	_	_
'8	)	_	_	_
'9	Željko	_	_	_
'10	Komšić	_	_	_
'11	podneo	_	_	VERB
'12	je	_	_	_
'13	u	_	_	_
'14	utorak	_	_	_
'15	(	nsp	_	_
'16	20.	_	_	_
'17	marta	nsp	_	_
'18	)	_	_	_
'19	ostavku	_	_	_
'20	na	_	_	_
'21	mesto	_	_	_
'22	potpredsednika	_	_	_
'23	Socijaldemokratske	_	_	_
'24	partije	_	_	_
'25	(	nsp	_	_
'26	SDP	nsp	_	_
'27	)	_	_	_
'28	i	_	_	_
'29	dugogodišnjeg	_	_	_
'30	člana	_	_	_
'31	najvišeg	_	_	_
'32	rukovodstva	_	_	_
'33	stranke	nsp	_	_
'34	.	_	_	_

# sent_id = s61
# text = Komšić, hrvatski član tročlanog Predsedništva, jedan je od najpopularnijih političara u Federciji Bosne i Hercegovine.
'1	Komšić	nsp	_	_
'2	,	_	_	_
'3	hrvatski	_	_	_
'4	član	_	_	_
'5	tročlanog	_	_	_
'6	Predsedništva	nsp	_	_
'7	,	_	_	_
'8	jedan	_	_	_
'9	je	_	_	_
'10	od	_	_	_
'11	najpopularnijih	_	_	_
'12	političara	_	_	_
'13	u	_	_	_
'14	Federciji	_	_	_
'15	Bosne	_	_	_
'16	i	_	_	_
'17	Hercegovine	nsp	_	_
'18	.	_	_	_

# sent_id = s62
# text = "Ostajem član Predsedništva [BiH] i nastavljam na tom položaju da radim u punom kapacitetu sa svim obavezama prema državi", izjavio je Komšić medijima nakon što je saopštio da podnosi ostavku na mesto u stranci.
'1	"	nsp	_	_
'2	Ostajem	_	_	VERB
'3	član	_	_	_
'4	Predsedništva	_	_	_
'5	[	nsp	_	_
'6	BiH	nsp	_	_
'7	]	_	_	_
'8	i	_	_	_
'9	nastavljam	_	_	VERB
'10	na	_	_	_
'11	tom	_	_	_
'12	položaju	_	_	_
'13	da	_	_	_
'14	radim	_	_	VERB
'15	u	_	_	_
'16	punom	_	_	_
'17	kapacitetu	_	_	_
'18	sa	_	_	_
'19	svim	_	_	_
'20	obavezama	_	_	_
'21	prema	_	_	_
'22	državi	nsp	_	_
'23	"	nsp	_	_
'24	,	_	_	_
'25	izjavio	_	_	VERB
'26	je	_	_	_
'27	Komšić	_	_	_
'28	medijima	_	_	_
'29	nakon	_	_	_
'30	što	_	_	_
'31	je	_	_	_
'32	saopštio	_	_	VERB
'33	da	_	_	_
'34	podnosi	_	_	VERB
'35	ostavku	_	_	_
'36	na	_	_	_
'37	mesto	_	_	_
'38	u	_	_	_
'39	stranci	nsp	_	_
'40	.	_	_	_

# sent_id = s63
# text = Mada iz SDP-a nije bilo reakcija, mnogi spekulišu da Komšićev nagli potez proizlazi iz njegovog neslaganja sa predsednikom stranke Zlatkom Lagumdžijom, koji je podržao kandidaturu srpskog ministra inostranih poslova Vuka Jeremića za predsedavajućeg Generalne skupštine UN.
'1	Mada	_	_	_
'2	iz	_	_	_
'3	SDP-a	_	_	_
'4	nije	_	_	_
'5	bilo	_	_	_
'6	reakcija	nsp	_	_
'7	,	_	_	_
'8	mnogi	_	_	_
'9	spekulišu	_	_	VERB
'10	da	_	_	_
'11	Komšićev	_	_	_
'12	nagli	_	_	_
'13	potez	_	_	_
'14	proizlazi	_	_	VERB
'15	iz	_	_	_
'16	njegovog	_	_	_
'17	neslaganja	_	_	_
'18	sa	_	_	_
'19	predsednikom	_	_	_
'20	stranke	_	_	_
'21	Zlatkom	_	_	_
'22	Lagumdžijom	nsp	_	_
'23	,	_	_	_
'24	koji	_	_	_
'25	je	_	_	_
'26	podržao	_	_	VERB
'27	kandidaturu	_	_	_
'28	srpskog	_	_	_
'29	ministra	_	_	_
'30	inostranih	_	_	_
'31	poslova	_	_	_
'32	Vuka	_	_	_
'33	Jeremića	_	_	_
'34	za	_	_	_
'35	predsedavajućeg	_	_	_
'36	Generalne	_	_	_
'37	skupštine	_	_	_
'38	UN	nsp	_	_
'39	.	_	_	_

# sent_id = s64
# text = Poseta predsednika SDP Beogradu prošle nedelje bila je vrhunac neslaganja, jer je Lagumdžija ignorisao protivljenje Komšića i članova i pristalica stranke njegovoj podršci Jeremiću.
'1	Poseta	_	_	_
'2	predsednika	_	_	_
'3	SDP	_	_	_
'4	Beogradu	_	_	_
'5	prošle	_	_	_
'6	nedelje	_	_	_
'7	bila	_	_	_
'8	je	_	_	_
'9	vrhunac	_	_	_
'10	neslaganja	nsp	_	_
'11	,	_	_	_
'12	jer	_	_	_
'13	je	_	_	_
'14	Lagumdžija	_	_	_
'15	ignorisao	_	_	VERB
'16	protivljenje	_	_	_
'17	Komšića	_	_	_
'18	i	_	_	_
'19	članova	_	_	_
'20	i	_	_	_
'21	pristalica	_	_	_
'22	stranke	_	_	_
'23	njegovoj	_	_	_
'24	podršci	_	_	_
'25	Jeremiću	nsp	_	_
'26	.	_	_	_

# sent_id = s65
# text = "Dobro je da se postigne konsenzus i da imamo jednog kandidata.
'1	"	nsp	_	_
'2	Dobro	_	_	_
'3	je	_	_	_
'4	da	_	_	_
'5	se	_	_	_
'6	postigne	_	_	VERB
'7	konsenzus	_	_	_
'8	i	_	_	_
'9	da	_	_	_
'10	imamo	_	_	VERB
'11	jednog	_	_	_
'12	kandidata	nsp	_	_
'13	.	_	_	_

# sent_id = s66
# text = Mi treba da... damo podršku Jeremiću.
'1	Mi	_	_	_
'2	treba	_	_	VERB
'3	da	nsp	_	_
'4	...	_	_	_
'5	damo	_	_	VERB
'6	podršku	_	_	_
'7	Jeremiću	nsp	_	_
'8	.	_	_	_

# sent_id = s67
# text = U suprotnom ćemo biti neozbiljni političari bez zajedničkog stava ", rekao je Lagumdžija novinarima u Beogradu posle sastanka sa Jeremićem 14. marta.
'1	U	_	_	_
'2	suprotnom	_	_	_
'3	ćemo	_	_	_
'4	biti	_	_	_
'5	neozbiljni	_	_	_
'6	političari	_	_	_
'7	bez	_	_	_
'8	zajedničkog	_	_	_
'9	stava	_	_	_
'10	"	nsp	_	_
'11	,	_	_	_
'12	rekao	_	_	VERB
'13	je	_	_	_
'14	Lagumdžija	_	_	_
'15	novinarima	_	_	_
'16	u	_	_	_
'17	Beogradu	_	_	_
'18	posle	_	_	_
'19	sastanka	_	_	_
'20	sa	_	_	_
'21	Jeremićem	_	_	_
'22	14.	_	_	_
'23	marta	nsp	_	_
'24	.	_	_	_

# sent_id = s68
# text = SDP je postao najjača stranka na političkoj sceni u BiH na poslednjim opštim izborima 2010. godine.
'1	SDP	_	_	_
'2	je	_	_	_
'3	postao	_	_	VERB
'4	najjača	_	_	_
'5	stranka	_	_	_
'6	na	_	_	_
'7	političkoj	_	_	_
'8	sceni	_	_	_
'9	u	_	_	_
'10	BiH	_	_	_
'11	na	_	_	_
'12	poslednjim	_	_	_
'13	opštim	_	_	_
'14	izborima	_	_	_
'15	2010.	_	_	_
'16	godine	nsp	_	_
'17	.	_	_	_

# sent_id = s69
# text = Ironično je da su se rezultati tih izbora našli u centru tenzija u stranci.
'1	Ironično	_	_	_
'2	je	_	_	_
'3	da	_	_	_
'4	su	_	_	_
'5	se	_	_	_
'6	rezultati	_	_	_
'7	tih	_	_	_
'8	izbora	_	_	_
'9	našli	_	_	VERB
'10	u	_	_	_
'11	centru	_	_	_
'12	tenzija	_	_	_
'13	u	_	_	_
'14	stranci	nsp	_	_
'15	.	_	_	_

# sent_id = s70
# text = Mnogi članovi stranke misle da je Lagumdžijina odluka da uđe u koaliciju sa Strankom demokratske akcije (SDA) bila autokratska -- i posmatrana je kao potpuna izdaja od strane većine stranačkih krugova i građana koji su podržali SPD na izborima.
'1	Mnogi	_	_	_
'2	članovi	_	_	_
'3	stranke	_	_	_
'4	misle	_	_	VERB
'5	da	_	_	_
'6	je	_	_	_
'7	Lagumdžijina	_	_	_
'8	odluka	_	_	_
'9	da	_	_	_
'10	uđe	_	_	VERB
'11	u	_	_	_
'12	koaliciju	_	_	_
'13	sa	_	_	_
'14	Strankom	_	_	_
'15	demokratske	_	_	_
'16	akcije	_	_	_
'17	(	nsp	_	_
'18	SDA	nsp	_	_
'19	)	_	_	_
'20	bila	_	_	_
'21	autokratska	_	_	_
'22	--	_	_	_
'23	i	_	_	_
'24	posmatrana	_	_	_
'25	je	_	_	_
'26	kao	_	_	_
'27	potpuna	_	_	_
'28	izdaja	_	_	_
'29	od	_	_	_
'30	strane	_	_	_
'31	većine	_	_	_
'32	stranačkih	_	_	_
'33	krugova	_	_	_
'34	i	_	_	_
'35	građana	_	_	_
'36	koji	_	_	_
'37	su	_	_	_
'38	podržali	_	_	VERB
'39	SPD	_	_	_
'40	na	_	_	_
'41	izborima	nsp	_	_
'42	.	_	_	_

# sent_id = s71
# text = "Lagumdžija i Komšić su upropastili SDP pretvorivši je u taoca ličnih političkih želja.
'1	"	nsp	_	_
'2	Lagumdžija	_	_	_
'3	i	_	_	_
'4	Komšić	_	_	_
'5	su	_	_	_
'6	upropastili	_	_	VERB
'7	SDP	_	_	_
'8	pretvorivši	_	_	_
'9	je	_	_	_
'10	u	_	_	_
'11	taoca	_	_	_
'12	ličnih	_	_	_
'13	političkih	_	_	_
'14	želja	nsp	_	_
'15	.	_	_	_

# sent_id = s72
# text = Njihov sukob je samo pokazatelj neodgovornosti države ", rekao je za SETimes profesor Filozofskog fakulteta u Sarajevu Enver Kazaz.
'1	Njihov	_	_	_
'2	sukob	_	_	_
'3	je	_	_	_
'4	samo	_	_	_
'5	pokazatelj	_	_	_
'6	neodgovornosti	_	_	_
'7	države	_	_	_
'8	"	nsp	_	_
'9	,	_	_	_
'10	rekao	_	_	VERB
'11	je	_	_	_
'12	za	_	_	_
'13	SETimes	_	_	_
'14	profesor	_	_	_
'15	Filozofskog	_	_	_
'16	fakulteta	_	_	_
'17	u	_	_	_
'18	Sarajevu	_	_	_
'19	Enver	_	_	_
'20	Kazaz	nsp	_	_
'21	.	_	_	_

# sent_id = s73
# text = Sukobi u SDP su prisutni odavno.
'1	Sukobi	_	_	_
'2	u	_	_	_
'3	SDP	_	_	_
'4	su	_	_	_
'5	prisutni	_	_	_
'6	odavno	nsp	_	_
'7	.	_	_	_

# sent_id = s74
# text = Mnogi istaknuti članovi su otišli iz stranke.
'1	Mnogi	_	_	_
'2	istaknuti	_	_	_
'3	članovi	_	_	_
'4	su	_	_	_
'5	otišli	_	_	VERB
'6	iz	_	_	_
'7	stranke	nsp	_	_
'8	.	_	_	_

# sent_id = s75
# text = "Stranka zaboravlja principe socijaldemokratije.
'1	"	nsp	_	_
'2	Stranka	_	_	_
'3	zaboravlja	_	_	VERB
'4	principe	_	_	_
'5	socijaldemokratije	nsp	_	_
'6	.	_	_	_

# sent_id = s76
# text = To je njeno temeljno načelo i ova dešavanja u stranci su cena tog čina ", kaže za SETimes Senad Pećanac, bivši član SDP.
'1	To	_	_	_
'2	je	_	_	_
'3	njeno	_	_	_
'4	temeljno	_	_	_
'5	načelo	_	_	_
'6	i	_	_	_
'7	ova	_	_	_
'8	dešavanja	_	_	_
'9	u	_	_	_
'10	stranci	_	_	_
'11	su	_	_	_
'12	cena	_	_	_
'13	tog	_	_	_
'14	čina	_	_	_
'15	"	nsp	_	_
'16	,	_	_	_
'17	kaže	_	_	VERB
'18	za	_	_	_
'19	SETimes	_	_	_
'20	Senad	_	_	_
'21	Pećanac	nsp	_	_
'22	,	_	_	_
'23	bivši	_	_	_
'24	član	_	_	_
'25	SDP	nsp	_	_
'26	.	_	_	_

# sent_id = s77
# text = Sulejman Tihić, lider SDA, smatra da bi Komšićeva ostavka mogla da utiče na spoljnu politiku zemlje.
'1	Sulejman	_	_	_
'2	Tihić	nsp	_	_
'3	,	_	_	_
'4	lider	_	_	_
'5	SDA	nsp	_	_
'6	,	_	_	_
'7	smatra	_	_	VERB
'8	da	_	_	_
'9	bi	_	_	_
'10	Komšićeva	_	_	_
'11	ostavka	_	_	_
'12	mogla	_	_	VERB
'13	da	_	_	_
'14	utiče	_	_	VERB
'15	na	_	_	_
'16	spoljnu	_	_	_
'17	politiku	_	_	_
'18	zemlje	nsp	_	_
'19	.	_	_	_

# sent_id = s78
# text = "Ovo bi moglo da iskomplikuje funkcionisanje Predsedništva BiH i ministarstva spoljnih poslova, u pogledu činjenice da je Komšić, zajedno sa drugim članovima Predsedništva, zadužen za spoljnu politiku", rekao je Tihić za SETimes.
'1	"	nsp	_	_
'2	Ovo	_	_	_
'3	bi	_	_	_
'4	moglo	_	_	VERB
'5	da	_	_	_
'6	iskomplikuje	_	_	VERB
'7	funkcionisanje	_	_	_
'8	Predsedništva	_	_	_
'9	BiH	_	_	_
'10	i	_	_	_
'11	ministarstva	_	_	_
'12	spoljnih	_	_	_
'13	poslova	nsp	_	_
'14	,	_	_	_
'15	u	_	_	_
'16	pogledu	_	_	_
'17	činjenice	_	_	_
'18	da	_	_	_
'19	je	_	_	_
'20	Komšić	nsp	_	_
'21	,	_	_	_
'22	zajedno	_	_	_
'23	sa	_	_	_
'24	drugim	_	_	_
'25	članovima	_	_	_
'26	Predsedništva	nsp	_	_
'27	,	_	_	_
'28	zadužen	_	_	_
'29	za	_	_	_
'30	spoljnu	_	_	_
'31	politiku	nsp	_	_
'32	"	nsp	_	_
'33	,	_	_	_
'34	rekao	_	_	VERB
'35	je	_	_	_
'36	Tihić	_	_	_
'37	za	_	_	_
'38	SETimes	nsp	_	_
'39	.	_	_	_

# sent_id = s79
# text = Samo nekoliko meseci uoči oktobarskih lokalnih izbora ostavka je uzdrmala birače i dovela SDP u nepovoljan položaj, s obzirom na Komšićevu popularnost.
'1	Samo	_	_	_
'2	nekoliko	_	_	_
'3	meseci	_	_	_
'4	uoči	_	_	_
'5	oktobarskih	_	_	_
'6	lokalnih	_	_	_
'7	izbora	_	_	_
'8	ostavka	_	_	_
'9	je	_	_	_
'10	uzdrmala	_	_	VERB
'11	birače	_	_	_
'12	i	_	_	_
'13	dovela	_	_	VERB
'14	SDP	_	_	_
'15	u	_	_	_
'16	nepovoljan	_	_	_
'17	položaj	nsp	_	_
'18	,	_	_	_
'19	s	_	_	_
'20	obzirom	_	_	_
'21	na	_	_	_
'22	Komšićevu	_	_	_
'23	popularnost	nsp	_	_
'24	.	_	_	_

# sent_id = s80
# text = "On nikada nije isticao jedan narod, nego se borio za zemlju, za BiH.
'1	"	nsp	_	_
'2	On	_	_	_
'3	nikada	_	_	_
'4	nije	_	_	_
'5	isticao	_	_	VERB
'6	jedan	_	_	_
'7	narod	nsp	_	_
'8	,	_	_	_
'9	nego	_	_	_
'10	se	_	_	_
'11	borio	_	_	VERB
'12	za	_	_	_
'13	zemlju	nsp	_	_
'14	,	_	_	_
'15	za	_	_	_
'16	BiH	nsp	_	_
'17	.	_	_	_

# sent_id = s81
# text = To je bio moj motiv da glasam za njega ", rekla je Selma Gunić iz Sarajeva za SETimes.
'1	To	_	_	_
'2	je	_	_	_
'3	bio	_	_	_
'4	moj	_	_	_
'5	motiv	_	_	_
'6	da	_	_	_
'7	glasam	_	_	VERB
'8	za	_	_	_
'9	njega	_	_	_
'10	"	nsp	_	_
'11	,	_	_	_
'12	rekla	_	_	VERB
'13	je	_	_	_
'14	Selma	_	_	_
'15	Gunić	_	_	_
'16	iz	_	_	_
'17	Sarajeva	_	_	_
'18	za	_	_	_
'19	SETimes	nsp	_	_
'20	.	_	_	_

# sent_id = s82
# text = "Zemlji su potrebni političari kao što je Komšić.
'1	"	nsp	_	_
'2	Zemlji	_	_	_
'3	su	_	_	_
'4	potrebni	_	_	_
'5	političari	_	_	_
'6	kao	_	_	_
'7	što	_	_	_
'8	je	_	_	_
'9	Komšić	nsp	_	_
'10	.	_	_	_

# sent_id = s83
# text = Ako je stranka izneverila njegove stavove, logičan korak je napustiti je.
'1	Ako	_	_	_
'2	je	_	_	_
'3	stranka	_	_	_
'4	izneverila	_	_	VERB
'5	njegove	_	_	_
'6	stavove	nsp	_	_
'7	,	_	_	_
'8	logičan	_	_	_
'9	korak	_	_	_
'10	je	_	_	_
'11	napustiti	_	_	VERB
'12	je	nsp	_	_
'13	.	_	_	_

# sent_id = s84
# text = Zbog tih koraka ga još snažnije podržavam ", rekao je stanovnik Tuzle Ivica Tomić za SETimes.
'1	Zbog	_	_	_
'2	tih	_	_	_
'3	koraka	_	_	_
'4	ga	_	_	_
'5	još	_	_	_
'6	snažnije	_	_	_
'7	podržavam	_	_	VERB
'8	"	nsp	_	_
'9	,	_	_	_
'10	rekao	_	_	VERB
'11	je	_	_	_
'12	stanovnik	_	_	_
'13	Tuzle	_	_	_
'14	Ivica	_	_	_
'15	Tomić	_	_	_
'16	za	_	_	_
'17	SETimes	nsp	_	_
'18	.	_	_	_

# sent_id = s85
# text = Novi predsednik Moldavije fokusiraće se na reforme i integraciju
'1	Novi	_	_	_
'2	predsednik	_	_	_
'3	Moldavije	_	_	_
'4	fokusiraće	_	_	VERB
'5	se	_	_	_
'6	na	_	_	_
'7	reforme	_	_	_
'8	i	_	_	_
'9	integraciju	_	_	_

# sent_id = s86
# text = Posle skoro tri godine bez lidera, Moldavija sada ima novog predsednika.
'1	Posle	_	_	_
'2	skoro	_	_	_
'3	tri	_	_	_
'4	godine	_	_	_
'5	bez	_	_	_
'6	lidera	nsp	_	_
'7	,	_	_	_
'8	Moldavija	_	_	_
'9	sada	_	_	_
'10	ima	_	_	VERB
'11	novog	_	_	_
'12	predsednika	nsp	_	_
'13	.	_	_	_

# sent_id = s87
# text = Novi predsednik Moldavije Nikolae Timofti prvi je lider zemlje posle tri godine.
'1	Novi	_	_	_
'2	predsednik	_	_	_
'3	Moldavije	_	_	_
'4	Nikolae	_	_	_
'5	Timofti	_	_	_
'6	prvi	_	_	_
'7	je	_	_	_
'8	lider	_	_	_
'9	zemlje	_	_	_
'10	posle	_	_	_
'11	tri	_	_	_
'12	godine	nsp	_	_
'13	.	_	_	_

# sent_id = s88
# text = Novi predsednik Moldavije, 64-godišnji bivši sudija Nikolae Timofti, obećao je sa će voditi zemlju putem pridruživanja Evropi.
'1	Novi	_	_	_
'2	predsednik	_	_	_
'3	Moldavije	nsp	_	_
'4	,	_	_	_
'5	64-godišnji	_	_	_
'6	bivši	_	_	_
'7	sudija	_	_	_
'8	Nikolae	_	_	_
'9	Timofti	nsp	_	_
'10	,	_	_	_
'11	obećao	_	_	VERB
'12	je	_	_	_
'13	sa	_	_	_
'14	će	_	_	_
'15	voditi	_	_	VERB
'16	zemlju	_	_	_
'17	putem	_	_	_
'18	pridruživanja	_	_	_
'19	Evropi	nsp	_	_
'20	.	_	_	_

# sent_id = s89
# text = Međutim, on mora da premosti više izazova da bi uradio to.
'1	Međutim	nsp	_	_
'2	,	_	_	_
'3	on	_	_	_
'4	mora	_	_	VERB
'5	da	_	_	_
'6	premosti	_	_	VERB
'7	više	_	_	_
'8	izazova	_	_	_
'9	da	_	_	_
'10	bi	_	_	_
'11	uradio	_	_	VERB
'12	to	nsp	_	_
'13	.	_	_	_

# sent_id = s90
# text = Timofti preuzima funkciju nakon tesnog glasanja prošle nedelje.
'1	Timofti	_	_	_
'2	preuzima	_	_	VERB
'3	funkciju	_	_	_
'4	nakon	_	_	_
'5	tesnog	_	_	_
'6	glasanja	_	_	_
'7	prošle	_	_	_
'8	nedelje	nsp	_	_
'9	.	_	_	_

# sent_id = s91
# text = Zemlja je bila bez lidera skoro tri godine.
'1	Zemlja	_	_	_
'2	je	_	_	_
'3	bila	_	_	_
'4	bez	_	_	_
'5	lidera	_	_	_
'6	skoro	_	_	_
'7	tri	_	_	_
'8	godine	nsp	_	_
'9	.	_	_	_

# sent_id = s92
# text = "Jedna od najvažnijih državnih institucija je paralisana.
'1	"	nsp	_	_
'2	Jedna	_	_	_
'3	od	_	_	_
'4	najvažnijih	_	_	_
'5	državnih	_	_	_
'6	institucija	_	_	_
'7	je	_	_	_
'8	paralisana	nsp	_	_
'9	.	_	_	_

# sent_id = s93
# text = Vitalan proces razvoja zemlje pogođen je nestabilnošću i neizvesnošću ", rekao je Timofti parlamentu u ponedeljak (19. marta), nakon što su poslanici potvrdili izbor od 16. marta.
'1	Vitalan	_	_	_
'2	proces	_	_	_
'3	razvoja	_	_	_
'4	zemlje	_	_	_
'5	pogođen	_	_	_
'6	je	_	_	_
'7	nestabilnošću	_	_	_
'8	i	_	_	_
'9	neizvesnošću	_	_	_
'10	"	nsp	_	_
'11	,	_	_	_
'12	rekao	_	_	VERB
'13	je	_	_	_
'14	Timofti	_	_	_
'15	parlamentu	_	_	_
'16	u	_	_	_
'17	ponedeljak	_	_	_
'18	(	nsp	_	_
'19	19.	_	_	_
'20	marta	nsp	_	_
'21	)	nsp	_	_
'22	,	_	_	_
'23	nakon	_	_	_
'24	što	_	_	_
'25	su	_	_	_
'26	poslanici	_	_	_
'27	potvrdili	_	_	VERB
'28	izbor	_	_	_
'29	od	_	_	_
'30	16.	_	_	_
'31	marta	nsp	_	_
'32	.	_	_	_

# sent_id = s94
# text = Na vrhu njegovog programa biće rešavanje političkog zastoja.
'1	Na	_	_	_
'2	vrhu	_	_	_
'3	njegovog	_	_	_
'4	programa	_	_	_
'5	biće	_	_	_
'6	rešavanje	_	_	_
'7	političkog	_	_	_
'8	zastoja	nsp	_	_
'9	.	_	_	_

# sent_id = s95
# text = U mnogim debatama zaključeno je da ustav mora da bude promenjen, čime bi se omogućilo da sledećeg predsednika biraju građani, a ne politički podeljeni parlament.
'1	U	_	_	_
'2	mnogim	_	_	_
'3	debatama	_	_	_
'4	zaključeno	_	_	_
'5	je	_	_	_
'6	da	_	_	_
'7	ustav	_	_	_
'8	mora	_	_	VERB
'9	da	_	_	_
'10	bude	_	_	_
'11	promenjen	nsp	_	_
'12	,	_	_	_
'13	čime	_	_	_
'14	bi	_	_	_
'15	se	_	_	_
'16	omogućilo	_	_	VERB
'17	da	_	_	_
'18	sledećeg	_	_	_
'19	predsednika	_	_	_
'20	biraju	_	_	VERB
'21	građani	nsp	_	_
'22	,	_	_	_
'23	a	_	_	_
'24	ne	_	_	_
'25	politički	_	_	_
'26	podeljeni	_	_	_
'27	parlament	nsp	_	_
'28	.	_	_	_

# sent_id = s96
# text = "Moramo priznati sa ustavna reforma koja je počela 2000. godine nije završena.
'1	"	nsp	_	_
'2	Moramo	_	_	VERB
'3	priznati	_	_	VERB
'4	sa	_	_	_
'5	ustavna	_	_	_
'6	reforma	_	_	_
'7	koja	_	_	_
'8	je	_	_	_
'9	počela	_	_	VERB
'10	2000.	_	_	_
'11	godine	_	_	_
'12	nije	_	_	_
'13	završena	nsp	_	_
'14	.	_	_	_

# sent_id = s97
# text = Danas se suočavamo sa novim ozbiljnim problemima koji utiču ne samo na državne institucije, nego i na osnovna ljudska prava ", rekao je Timofti poslanicima.
'1	Danas	_	_	_
'2	se	_	_	_
'3	suočavamo	_	_	VERB
'4	sa	_	_	_
'5	novim	_	_	_
'6	ozbiljnim	_	_	_
'7	problemima	_	_	_
'8	koji	_	_	_
'9	utiču	_	_	VERB
'10	ne	_	_	_
'11	samo	_	_	_
'12	na	_	_	_
'13	državne	_	_	_
'14	institucije	nsp	_	_
'15	,	_	_	_
'16	nego	_	_	_
'17	i	_	_	_
'18	na	_	_	_
'19	osnovna	_	_	_
'20	ljudska	_	_	_
'21	prava	_	_	_
'22	"	nsp	_	_
'23	,	_	_	_
'24	rekao	_	_	VERB
'25	je	_	_	_
'26	Timofti	_	_	_
'27	poslanicima	nsp	_	_
'28	.	_	_	_

# sent_id = s98
# text = Stručnjak za ustav i poslanik Viktor Popa izjavio je da bi prvi Timoftijevi ciljevi trebalo da budu ustavna reforma i poboljšanja.
'1	Stručnjak	_	_	_
'2	za	_	_	_
'3	ustav	_	_	_
'4	i	_	_	_
'5	poslanik	_	_	_
'6	Viktor	_	_	_
'7	Popa	_	_	_
'8	izjavio	_	_	VERB
'9	je	_	_	_
'10	da	_	_	_
'11	bi	_	_	_
'12	prvi	_	_	_
'13	Timoftijevi	_	_	_
'14	ciljevi	_	_	_
'15	trebalo	_	_	VERB
'16	da	_	_	_
'17	budu	_	_	_
'18	ustavna	_	_	_
'19	reforma	_	_	_
'20	i	_	_	_
'21	poboljšanja	nsp	_	_
'22	.	_	_	_

# sent_id = s99
# text = "Mislim da je njegova obaveza da sarađuje sa parlamentom na ustavnim reformama.
'1	"	nsp	_	_
'2	Mislim	_	_	VERB
'3	da	_	_	_
'4	je	_	_	_
'5	njegova	_	_	_
'6	obaveza	_	_	_
'7	da	_	_	_
'8	sarađuje	_	_	VERB
'9	sa	_	_	_
'10	parlamentom	_	_	_
'11	na	_	_	_
'12	ustavnim	_	_	_
'13	reformama	nsp	_	_
'14	.	_	_	_

# sent_id = s100
# text = Naravno, to je dug i komplikovan proces, ali novi predsednik treba da osigura da je ustav u korist svih građana ", rekao je Popa za SETimes.
'1	Naravno	nsp	_	_
'2	,	_	_	_
'3	to	_	_	_
'4	je	_	_	_
'5	dug	_	_	_
'6	i	_	_	_
'7	komplikovan	_	_	_
'8	proces	nsp	_	_
'9	,	_	_	_
'10	ali	_	_	_
'11	novi	_	_	_
'12	predsednik	_	_	_
'13	treba	_	_	VERB
'14	da	_	_	_
'15	osigura	_	_	VERB
'16	da	_	_	_
'17	je	_	_	_
'18	ustav	_	_	_
'19	u	_	_	_
'20	korist	_	_	_
'21	svih	_	_	_
'22	građana	_	_	_
'23	"	nsp	_	_
'24	,	_	_	_
'25	rekao	_	_	VERB
'26	je	_	_	_
'27	Popa	_	_	_
'28	za	_	_	_
'29	SETimes	nsp	_	_
'30	.	_	_	_

# sent_id = s101
# text = Parlament je sedam puta pokušavao da izabere predsednika, ali nijednom nije uspeo da imenuje kandidata koji bi dobio većinu glasova.
'1	Parlament	_	_	_
'2	je	_	_	_
'3	sedam	_	_	_
'4	puta	_	_	_
'5	pokušavao	_	_	VERB
'6	da	_	_	_
'7	izabere	_	_	VERB
'8	predsednika	nsp	_	_
'9	,	_	_	_
'10	ali	_	_	_
'11	nijednom	_	_	_
'12	nije	_	_	_
'13	uspeo	_	_	VERB
'14	da	_	_	_
'15	imenuje	_	_	VERB
'16	kandidata	_	_	_
'17	koji	_	_	_
'18	bi	_	_	_
'19	dobio	_	_	VERB
'20	većinu	_	_	_
'21	glasova	nsp	_	_
'22	.	_	_	_

# sent_id = s102
# text = Zastoj proističe iz činjenice da Alijansi za evropsku integraciju -- koja ima većinu glasova u parlamentu -- nedostaju dva glasa, dok su predstavnici Komunističke partije odbili da glasaju za kandidata Alijanse.
'1	Zastoj	_	_	_
'2	proističe	_	_	VERB
'3	iz	_	_	_
'4	činjenice	_	_	_
'5	da	_	_	_
'6	Alijansi	_	_	_
'7	za	_	_	_
'8	evropsku	_	_	_
'9	integraciju	_	_	_
'10	--	_	_	_
'11	koja	_	_	_
'12	ima	_	_	VERB
'13	većinu	_	_	_
'14	glasova	_	_	_
'15	u	_	_	_
'16	parlamentu	_	_	_
'17	--	_	_	_
'18	nedostaju	_	_	VERB
'19	dva	_	_	_
'20	glasa	nsp	_	_
'21	,	_	_	_
'22	dok	_	_	_
'23	su	_	_	_
'24	predstavnici	_	_	_
'25	Komunističke	_	_	_
'26	partije	_	_	_
'27	odbili	_	_	VERB
'28	da	_	_	_
'29	glasaju	_	_	VERB
'30	za	_	_	_
'31	kandidata	_	_	_
'32	Alijanse	nsp	_	_
'33	.	_	_	_

# sent_id = s103
# text = U novembru 2011. godine nekoliko članova Komunističke partije napustilo je stranku i formirali su socijalističku frakciju u parlamentu.
'1	U	_	_	_
'2	novembru	_	_	_
'3	2011.	_	_	_
'4	godine	_	_	_
'5	nekoliko	_	_	_
'6	članova	_	_	_
'7	Komunističke	_	_	_
'8	partije	_	_	_
'9	napustilo	_	_	VERB
'10	je	_	_	_
'11	stranku	_	_	_
'12	i	_	_	_
'13	formirali	_	_	VERB
'14	su	_	_	_
'15	socijalističku	_	_	_
'16	frakciju	_	_	_
'17	u	_	_	_
'18	parlamentu	nsp	_	_
'19	.	_	_	_

# sent_id = s104
# text = Na izborima 16. marta oni su se pridružili proevropskoj većini.
'1	Na	_	_	_
'2	izborima	_	_	_
'3	16.	_	_	_
'4	marta	_	_	_
'5	oni	_	_	_
'6	su	_	_	_
'7	se	_	_	_
'8	pridružili	_	_	VERB
'9	proevropskoj	_	_	_
'10	većini	nsp	_	_
'11	.	_	_	_

# sent_id = s105
# text = Novi predsednik je rekao da će pridruživanje EU biti prioritet.
'1	Novi	_	_	_
'2	predsednik	_	_	_
'3	je	_	_	_
'4	rekao	_	_	VERB
'5	da	_	_	_
'6	će	_	_	_
'7	pridruživanje	_	_	_
'8	EU	_	_	_
'9	biti	_	_	_
'10	prioritet	nsp	_	_
'11	.	_	_	_

# sent_id = s106
# text = "Potrebna nam je ideja da ponovo ujedinimo društvo, da ono krene napred kao celina.
'1	"	nsp	_	_
'2	Potrebna	_	_	_
'3	nam	_	_	_
'4	je	_	_	_
'5	ideja	_	_	_
'6	da	_	_	_
'7	ponovo	_	_	_
'8	ujedinimo	_	_	VERB
'9	društvo	nsp	_	_
'10	,	_	_	_
'11	da	_	_	_
'12	ono	_	_	_
'13	krene	_	_	VERB
'14	napred	_	_	_
'15	kao	_	_	_
'16	celina	nsp	_	_
'17	.	_	_	_

# sent_id = s107
# text = I verujem da je to ideja evropske integracije.
'1	I	_	_	_
'2	verujem	_	_	VERB
'3	da	_	_	_
'4	je	_	_	_
'5	to	_	_	_
'6	ideja	_	_	_
'7	evropske	_	_	_
'8	integracije	nsp	_	_
'9	.	_	_	_

# sent_id = s108
# text = Ljudi bi trebalo da shvate da je EU prostor vrednosti i blagostanja i oni zaslužuju da budu deo njega -- ali i mi moramo da uložimo određene napore ", rekao je Timofti tokom izbora.
'1	Ljudi	_	_	_
'2	bi	_	_	_
'3	trebalo	_	_	VERB
'4	da	_	_	_
'5	shvate	_	_	VERB
'6	da	_	_	_
'7	je	_	_	_
'8	EU	_	_	_
'9	prostor	_	_	_
'10	vrednosti	_	_	_
'11	i	_	_	_
'12	blagostanja	_	_	_
'13	i	_	_	_
'14	oni	_	_	_
'15	zaslužuju	_	_	VERB
'16	da	_	_	_
'17	budu	_	_	_
'18	deo	_	_	_
'19	njega	_	_	_
'20	--	_	_	_
'21	ali	_	_	_
'22	i	_	_	_
'23	mi	_	_	_
'24	moramo	_	_	VERB
'25	da	_	_	_
'26	uložimo	_	_	VERB
'27	određene	_	_	_
'28	napore	_	_	_
'29	"	nsp	_	_
'30	,	_	_	_
'31	rekao	_	_	VERB
'32	je	_	_	_
'33	Timofti	_	_	_
'34	tokom	_	_	_
'35	izbora	nsp	_	_
'36	.	_	_	_

# sent_id = s109
# text = Jedan od tih napora je, rekao je ministar pravde Oleg Efrim, reforma pravosuđa.
'1	Jedan	_	_	_
'2	od	_	_	_
'3	tih	_	_	_
'4	napora	_	_	_
'5	je	nsp	_	_
'6	,	_	_	_
'7	rekao	_	_	VERB
'8	je	_	_	_
'9	ministar	_	_	_
'10	pravde	_	_	_
'11	Oleg	_	_	_
'12	Efrim	nsp	_	_
'13	,	_	_	_
'14	reforma	_	_	_
'15	pravosuđa	nsp	_	_
'16	.	_	_	_

# sent_id = s110
# text = "Na početku smo pravosudne reforme u Moldaviji i doprinos novog predsednika jednostavno je obavezan.
'1	"	nsp	_	_
'2	Na	_	_	_
'3	početku	_	_	_
'4	smo	_	_	_
'5	pravosudne	_	_	_
'6	reforme	_	_	_
'7	u	_	_	_
'8	Moldaviji	_	_	_
'9	i	_	_	_
'10	doprinos	_	_	_
'11	novog	_	_	_
'12	predsednika	_	_	_
'13	jednostavno	_	_	_
'14	je	_	_	_
'15	obavezan	nsp	_	_
'16	.	_	_	_

# sent_id = s111
# text = On je predodređen da nam ponudi svo svoje znanje i stručnost u pogledu pravde za ljudska prava ", rekao je Efrim za SETimes.
'1	On	_	_	_
'2	je	_	_	_
'3	predodređen	_	_	_
'4	da	_	_	_
'5	nam	_	_	_
'6	ponudi	_	_	VERB
'7	svo	_	_	_
'8	svoje	_	_	_
'9	znanje	_	_	_
'10	i	_	_	_
'11	stručnost	_	_	_
'12	u	_	_	_
'13	pogledu	_	_	_
'14	pravde	_	_	_
'15	za	_	_	_
'16	ljudska	_	_	_
'17	prava	_	_	_
'18	"	nsp	_	_
'19	,	_	_	_
'20	rekao	_	_	VERB
'21	je	_	_	_
'22	Efrim	_	_	_
'23	za	_	_	_
'24	SETimes	nsp	_	_
'25	.	_	_	_

# sent_id = s112
# text = Timofti se slaže.
'1	Timofti	_	_	_
'2	se	_	_	_
'3	slaže	nsp	_	VERB
'4	.	_	_	_

# sent_id = s113
# text = "Nezavisan pravosudni sistem je ključan za razvoj zemlje.
'1	"	nsp	_	_
'2	Nezavisan	_	_	_
'3	pravosudni	_	_	_
'4	sistem	_	_	_
'5	je	_	_	_
'6	ključan	_	_	_
'7	za	_	_	_
'8	razvoj	_	_	_
'9	zemlje	nsp	_	_
'10	.	_	_	_

# sent_id = s114
# text = Iz toga nastaju investicije, radna mesta, razvoj preduzetništva, nastojanja u borbi protiv siromaštva i vera moldavskih građana u državu i budućnost, rekao je on.
'1	Iz	_	_	_
'2	toga	_	_	_
'3	nastaju	_	_	VERB
'4	investicije	nsp	_	_
'5	,	_	_	_
'6	radna	_	_	_
'7	mesta	nsp	_	_
'8	,	_	_	_
'9	razvoj	_	_	_
'10	preduzetništva	nsp	_	_
'11	,	_	_	_
'12	nastojanja	_	_	_
'13	u	_	_	_
'14	borbi	_	_	_
'15	protiv	_	_	_
'16	siromaštva	_	_	_
'17	i	_	_	_
'18	vera	_	_	_
'19	moldavskih	_	_	_
'20	građana	_	_	_
'21	u	_	_	_
'22	državu	_	_	_
'23	i	_	_	_
'24	budućnost	nsp	_	_
'25	,	_	_	_
'26	rekao	_	_	VERB
'27	je	_	_	_
'28	on	nsp	_	_
'29	.	_	_	_

# sent_id = s115
# text = Mada se građani razlikuju u svojim mišljenjima oko toga da li će novi lider rešiti problem zemlje, mnogi se slažu da je gore bez predsednika.
'1	Mada	_	_	_
'2	se	_	_	_
'3	građani	_	_	_
'4	razlikuju	_	_	VERB
'5	u	_	_	_
'6	svojim	_	_	_
'7	mišljenjima	_	_	_
'8	oko	_	_	_
'9	toga	_	_	_
'10	da	_	_	_
'11	li	_	_	_
'12	će	_	_	_
'13	novi	_	_	_
'14	lider	_	_	_
'15	rešiti	_	_	VERB
'16	problem	_	_	_
'17	zemlje	nsp	_	_
'18	,	_	_	_
'19	mnogi	_	_	_
'20	se	_	_	_
'21	slažu	_	_	VERB
'22	da	_	_	_
'23	je	_	_	_
'24	gore	_	_	_
'25	bez	_	_	_
'26	predsednika	nsp	_	_
'27	.	_	_	_

# sent_id = s116
# text = "Moldavija toliko dugo nije imala predsednika.
'1	"	nsp	_	_
'2	Moldavija	_	_	_
'3	toliko	_	_	_
'4	dugo	_	_	_
'5	nije	_	_	_
'6	imala	_	_	VERB
'7	predsednika	nsp	_	_
'8	.	_	_	_

# sent_id = s117
# text = To je kao kuća bez upravnika.
'1	To	_	_	_
'2	je	_	_	_
'3	kao	_	_	_
'4	kuća	_	_	_
'5	bez	_	_	_
'6	upravnika	nsp	_	_
'7	.	_	_	_

# sent_id = s118
# text = Zemlja ne može da se razvija bez predsednika; niko ne veruje u budućnost ", kaže za SETimes Veronika Popesku, nastavnica iz Kalarasija.
'1	Zemlja	_	_	_
'2	ne	_	_	_
'3	može	_	_	VERB
'4	da	_	_	_
'5	se	_	_	_
'6	razvija	_	_	VERB
'7	bez	_	_	_
'8	predsednika	nsp	_	_
'9	;	_	_	_
'10	niko	_	_	_
'11	ne	_	_	_
'12	veruje	_	_	VERB
'13	u	_	_	_
'14	budućnost	_	_	_
'15	"	nsp	_	_
'16	,	_	_	_
'17	kaže	_	_	VERB
'18	za	_	_	_
'19	SETimes	_	_	_
'20	Veronika	_	_	_
'21	Popesku	nsp	_	_
'22	,	_	_	_
'23	nastavnica	_	_	_
'24	iz	_	_	_
'25	Kalarasija	nsp	_	_
'26	.	_	_	_

# sent_id = s119
# text = "Nemamo radna mesta, moramo da napuštamo [zemlju] svake godine [da bismo pronašli posao], jer ovde nemamo tržište rada.
'1	"	nsp	_	_
'2	Nemamo	_	_	VERB
'3	radna	_	_	_
'4	mesta	nsp	_	_
'5	,	_	_	_
'6	moramo	_	_	VERB
'7	da	_	_	_
'8	napuštamo	_	_	VERB
'9	[	nsp	_	_
'10	zemlju	nsp	_	_
'11	]	_	_	_
'12	svake	_	_	_
'13	godine	_	_	_
'14	[	nsp	_	_
'15	da	_	_	_
'16	bismo	_	_	_
'17	pronašli	_	_	VERB
'18	posao	nsp	_	_
'19	]	nsp	_	_
'20	,	_	_	_
'21	jer	_	_	_
'22	ovde	_	_	_
'23	nemamo	_	_	VERB
'24	tržište	_	_	_
'25	rada	nsp	_	_
'26	.	_	_	_

# sent_id = s120
# text = Da li će predsednik rešiti taj problem?
'1	Da	_	_	_
'2	li	_	_	_
'3	će	_	_	_
'4	predsednik	_	_	_
'5	rešiti	_	_	VERB
'6	taj	_	_	_
'7	problem	nsp	_	_
'8	?	_	_	_

# sent_id = s121
# text = Mislim da neće, ali predsednik donosi veću političku stabilnost zemlji ", rekao je 52-godišnji građanin Moldavije George Tataru za SETimes.
'1	Mislim	_	_	VERB
'2	da	_	_	_
'3	neće	nsp	_	_
'4	,	_	_	_
'5	ali	_	_	_
'6	predsednik	_	_	_
'7	donosi	_	_	VERB
'8	veću	_	_	_
'9	političku	_	_	_
'10	stabilnost	_	_	_
'11	zemlji	_	_	_
'12	"	nsp	_	_
'13	,	_	_	_
'14	rekao	_	_	VERB
'15	je	_	_	_
'16	52-godišnji	_	_	_
'17	građanin	_	_	_
'18	Moldavije	_	_	_
'19	George	_	_	_
'20	Tataru	_	_	_
'21	za	_	_	_
'22	SETimes	nsp	_	_
'23	.	_	_	_

# sent_id = s122
# text = "Bio sam u školi na dan izbora -- imamo veliki televizijski ekran u sali.
'1	"	nsp	_	_
'2	Bio	_	_	_
'3	sam	_	_	_
'4	u	_	_	_
'5	školi	_	_	_
'6	na	_	_	_
'7	dan	_	_	_
'8	izbora	_	_	_
'9	--	_	_	_
'10	imamo	_	_	VERB
'11	veliki	_	_	_
'12	televizijski	_	_	_
'13	ekran	_	_	_
'14	u	_	_	_
'15	sali	nsp	_	_
'16	.	_	_	_

# sent_id = s123
# text = Svi nastavnici i učenici gledali su i slušali [glasanje].
'1	Svi	_	_	_
'2	nastavnici	_	_	_
'3	i	_	_	_
'4	učenici	_	_	_
'5	gledali	_	_	VERB
'6	su	_	_	_
'7	i	_	_	_
'8	slušali	_	_	VERB
'9	[	nsp	_	_
'10	glasanje	nsp	_	_
'11	]	nsp	_	_
'12	.	_	_	_

# sent_id = s124
# text = Meni se čini da je to važno.
'1	Meni	_	_	_
'2	se	_	_	_
'3	čini	_	_	VERB
'4	da	_	_	_
'5	je	_	_	_
'6	to	_	_	_
'7	važno	nsp	_	_
'8	.	_	_	_

# sent_id = s125
# text = Od kada sam rođena imali smo samo jednog, komunističkog predsednika -- ovo je prvi proevropski predsednik u mom životu ", kaže 11-godišnja učenica Inga Taranu za SETimes.
'1	Od	_	_	_
'2	kada	_	_	_
'3	sam	_	_	_
'4	rođena	_	_	_
'5	imali	_	_	VERB
'6	smo	_	_	_
'7	samo	_	_	_
'8	jednog	nsp	_	_
'9	,	_	_	_
'10	komunističkog	_	_	_
'11	predsednika	_	_	_
'12	--	_	_	_
'13	ovo	_	_	_
'14	je	_	_	_
'15	prvi	_	_	_
'16	proevropski	_	_	_
'17	predsednik	_	_	_
'18	u	_	_	_
'19	mom	_	_	_
'20	životu	_	_	_
'21	"	nsp	_	_
'22	,	_	_	_
'23	kaže	_	_	VERB
'24	11-godišnja	_	_	_
'25	učenica	_	_	_
'26	Inga	_	_	_
'27	Taranu	_	_	_
'28	za	_	_	_
'29	SETimes	nsp	_	_
'30	.	_	_	_

# sent_id = s126
# text = Branko Crvenkovski: Makedonija je ispunila uslove za poziv u NATO
'1	Branko	_	_	_
'2	Crvenkovski	nsp	_	_
'3	:	_	_	_
'4	Makedonija	_	_	_
'5	je	_	_	_
'6	ispunila	_	_	VERB
'7	uslove	_	_	_
'8	za	_	_	_
'9	poziv	_	_	_
'10	u	_	_	_
'11	NATO	_	_	_

# sent_id = s127
# text = Ulazak u NATO Albanije, Hrvatske i Makedonije znatno će doprineti daljoj stabilizaciji Balkana, kaže makedonski predsednik Branko Crvenkovski u ekskluzivnom intervjuu za Southeast European Times.
'1	Ulazak	_	_	_
'2	u	_	_	_
'3	NATO	_	_	_
'4	Albanije	nsp	_	_
'5	,	_	_	_
'6	Hrvatske	_	_	_
'7	i	_	_	_
'8	Makedonije	_	_	_
'9	znatno	_	_	_
'10	će	_	_	_
'11	doprineti	_	_	VERB
'12	daljoj	_	_	_
'13	stabilizaciji	_	_	_
'14	Balkana	nsp	_	_
'15	,	_	_	_
'16	kaže	_	_	VERB
'17	makedonski	_	_	_
'18	predsednik	_	_	_
'19	Branko	_	_	_
'20	Crvenkovski	_	_	_
'21	u	_	_	_
'22	ekskluzivnom	_	_	_
'23	intervjuu	_	_	_
'24	za	_	_	_
'25	Southeast	_	_	_
'26	European	_	_	_
'27	Times	nsp	_	_
'28	.	_	_	_

# sent_id = s128
# text = Makedonski predsednik Branko Crvenkovski.
'1	Makedonski	_	_	_
'2	predsednik	_	_	_
'3	Branko	_	_	_
'4	Crvenkovski	nsp	_	_
'5	.	_	_	_

# sent_id = s129
# text = Southeast European Times: Gospodine predsedniče, da li očekujete nemiran period u regionu posle nezavisnosti Kosova?
'1	Southeast	_	_	_
'2	European	_	_	_
'3	Times	nsp	_	_
'4	:	_	_	_
'5	Gospodine	_	_	_
'6	predsedniče	nsp	_	_
'7	,	_	_	_
'8	da	_	_	_
'9	li	_	_	_
'10	očekujete	_	_	VERB
'11	nemiran	_	_	_
'12	period	_	_	_
'13	u	_	_	_
'14	regionu	_	_	_
'15	posle	_	_	_
'16	nezavisnosti	_	_	_
'17	Kosova	nsp	_	_
'18	?	_	_	_

# sent_id = s130
# text = Branko Crvenkovski: Proglašenje nezavisnosti Kosova nesumnjivo sa sobom nosi izvesne rizike.
'1	Branko	_	_	_
'2	Crvenkovski	nsp	_	_
'3	:	_	_	_
'4	Proglašenje	_	_	_
'5	nezavisnosti	_	_	_
'6	Kosova	_	_	_
'7	nesumnjivo	_	_	_
'8	sa	_	_	_
'9	sobom	_	_	_
'10	nosi	_	_	VERB
'11	izvesne	_	_	_
'12	rizike	nsp	_	_
'13	.	_	_	_

# sent_id = s131
# text = Činjenica da se ni Srbija, ni srpsko stanovništvo na Kosovu, kao ni jedan broj zemalja na svetu, sa takvim činom ne slažu govore da se nalazimo pred periodom ozbiljnih izazova.
'1	Činjenica	_	_	_
'2	da	_	_	_
'3	se	_	_	_
'4	ni	_	_	_
'5	Srbija	nsp	_	_
'6	,	_	_	_
'7	ni	_	_	_
'8	srpsko	_	_	_
'9	stanovništvo	_	_	_
'10	na	_	_	_
'11	Kosovu	nsp	_	_
'12	,	_	_	_
'13	kao	_	_	_
'14	ni	_	_	_
'15	jedan	_	_	_
'16	broj	_	_	_
'17	zemalja	_	_	_
'18	na	_	_	_
'19	svetu	nsp	_	_
'20	,	_	_	_
'21	sa	_	_	_
'22	takvim	_	_	_
'23	činom	_	_	_
'24	ne	_	_	_
'25	slažu	_	_	VERB
'26	govore	_	_	VERB
'27	da	_	_	_
'28	se	_	_	_
'29	nalazimo	_	_	VERB
'30	pred	_	_	_
'31	periodom	_	_	_
'32	ozbiljnih	_	_	_
'33	izazova	nsp	_	_
'34	.	_	_	_

# sent_id = s132
# text = Po mom mišljenju, ključno pitanje je način na koji će se stvari odvijati na severnom Kosovu, gde živi većina srpske populacije.
'1	Po	_	_	_
'2	mom	_	_	_
'3	mišljenju	nsp	_	_
'4	,	_	_	_
'5	ključno	_	_	_
'6	pitanje	_	_	_
'7	je	_	_	_
'8	način	_	_	_
'9	na	_	_	_
'10	koji	_	_	_
'11	će	_	_	_
'12	se	_	_	_
'13	stvari	_	_	_
'14	odvijati	_	_	VERB
'15	na	_	_	_
'16	severnom	_	_	_
'17	Kosovu	nsp	_	_
'18	,	_	_	_
'19	gde	_	_	_
'20	živi	_	_	VERB
'21	većina	_	_	_
'22	srpske	_	_	_
'23	populacije	nsp	_	_
'24	.	_	_	_

# sent_id = s133
# text = Ukoliko u tom delu ne bude uspostavljeno efikasno prisustvo međunarodnih struktura i ne uspostavi se kosovska vlast, mogli bi da prisustvujemo tzv. "mekoj podeli" Kosova, koja bi bila stalni generator nestabilnosti u samom Kosovu, kao i ohrabrenje za nove nacionalne podele u regionu.
'1	Ukoliko	_	_	_
'2	u	_	_	_
'3	tom	_	_	_
'4	delu	_	_	_
'5	ne	_	_	_
'6	bude	_	_	_
'7	uspostavljeno	_	_	_
'8	efikasno	_	_	_
'9	prisustvo	_	_	_
'10	međunarodnih	_	_	_
'11	struktura	_	_	_
'12	i	_	_	_
'13	ne	_	_	_
'14	uspostavi	_	_	VERB
'15	se	_	_	_
'16	kosovska	_	_	_
'17	vlast	nsp	_	_
'18	,	_	_	_
'19	mogli	_	_	VERB
'20	bi	_	_	_
'21	da	_	_	_
'22	prisustvujemo	_	_	VERB
'23	tzv.	_	_	_
'24	"	nsp	_	_
'25	mekoj	_	_	_
'26	podeli	nsp	_	_
'27	"	_	_	_
'28	Kosova	nsp	_	_
'29	,	_	_	_
'30	koja	_	_	_
'31	bi	_	_	_
'32	bila	_	_	_
'33	stalni	_	_	_
'34	generator	_	_	_
'35	nestabilnosti	_	_	_
'36	u	_	_	_
'37	samom	_	_	_
'38	Kosovu	nsp	_	_
'39	,	_	_	_
'40	kao	_	_	_
'41	i	_	_	_
'42	ohrabrenje	_	_	_
'43	za	_	_	_
'44	nove	_	_	_
'45	nacionalne	_	_	_
'46	podele	_	_	_
'47	u	_	_	_
'48	regionu	nsp	_	_
'49	.	_	_	_

# sent_id = s134
# text = Setimes: Da li bi nezavisnost mogla da utiče na Makedoniju i njene odnose sa Srbijom?
'1	Setimes	nsp	_	_
'2	:	_	_	_
'3	Da	_	_	_
'4	li	_	_	_
'5	bi	_	_	_
'6	nezavisnost	_	_	_
'7	mogla	_	_	VERB
'8	da	_	_	_
'9	utiče	_	_	VERB
'10	na	_	_	_
'11	Makedoniju	_	_	_
'12	i	_	_	_
'13	njene	_	_	_
'14	odnose	_	_	_
'15	sa	_	_	_
'16	Srbijom	nsp	_	_
'17	?	_	_	_

# sent_id = s135
# text = Da li očekujete ekonomsku blokadu ili druge vrste blokada?
'1	Da	_	_	_
'2	li	_	_	_
'3	očekujete	_	_	VERB
'4	ekonomsku	_	_	_
'5	blokadu	_	_	_
'6	ili	_	_	_
'7	druge	_	_	_
'8	vrste	_	_	_
'9	blokada	nsp	_	_
'10	?	_	_	_

# sent_id = s136
# text = Crvenkovski: Republika Makedonija još nije definisala svoj konačni odnos prema nezavisnosti Kosova.
'1	Crvenkovski	nsp	_	_
'2	:	_	_	_
'3	Republika	_	_	_
'4	Makedonija	_	_	_
'5	još	_	_	_
'6	nije	_	_	_
'7	definisala	_	_	VERB
'8	svoj	_	_	_
'9	konačni	_	_	_
'10	odnos	_	_	_
'11	prema	_	_	_
'12	nezavisnosti	_	_	_
'13	Kosova	nsp	_	_
'14	.	_	_	_

# sent_id = s137
# text = Još uvek se držimo svog stava da ćemo, kao kandidat za članstvo u EU i NATO, slediti zajedničku politiku tih struktura po tom pitanju.
'1	Još	_	_	_
'2	uvek	_	_	_
'3	se	_	_	_
'4	držimo	_	_	VERB
'5	svog	_	_	_
'6	stava	_	_	_
'7	da	_	_	_
'8	ćemo	nsp	_	_
'9	,	_	_	_
'10	kao	_	_	_
'11	kandidat	_	_	_
'12	za	_	_	_
'13	članstvo	_	_	_
'14	u	_	_	_
'15	EU	_	_	_
'16	i	_	_	_
'17	NATO	nsp	_	_
'18	,	_	_	_
'19	slediti	_	_	VERB
'20	zajedničku	_	_	_
'21	politiku	_	_	_
'22	tih	_	_	_
'23	struktura	_	_	_
'24	po	_	_	_
'25	tom	_	_	_
'26	pitanju	nsp	_	_
'27	.	_	_	_

# sent_id = s138
# text = Međutim, naravno da će konačna odluka i vreme kada će ona biti doneta prvenstveno zavisiti od procene zaštite naših nacionalnih i državnih interesa.
'1	Međutim	nsp	_	_
'2	,	_	_	_
'3	naravno	_	_	_
'4	da	_	_	_
'5	će	_	_	_
'6	konačna	_	_	_
'7	odluka	_	_	_
'8	i	_	_	_
'9	vreme	_	_	_
'10	kada	_	_	_
'11	će	_	_	_
'12	ona	_	_	_
'13	biti	_	_	_
'14	doneta	_	_	_
'15	prvenstveno	_	_	_
'16	zavisiti	_	_	VERB
'17	od	_	_	_
'18	procene	_	_	_
'19	zaštite	_	_	_
'20	naših	_	_	_
'21	nacionalnih	_	_	_
'22	i	_	_	_
'23	državnih	_	_	_
'24	interesa	nsp	_	_
'25	.	_	_	_

# sent_id = s139
# text = Kao direktan sused, želimo da izgradimo podjednako dobre odnose i sa Beogradom i sa Prištinom.
'1	Kao	_	_	_
'2	direktan	_	_	_
'3	sused	nsp	_	_
'4	,	_	_	_
'5	želimo	_	_	VERB
'6	da	_	_	_
'7	izgradimo	_	_	VERB
'8	podjednako	_	_	_
'9	dobre	_	_	_
'10	odnose	_	_	_
'11	i	_	_	_
'12	sa	_	_	_
'13	Beogradom	_	_	_
'14	i	_	_	_
'15	sa	_	_	_
'16	Prištinom	nsp	_	_
'17	.	_	_	_

# sent_id = s140
# text = Da li ćemo u tome uspeti ne zavisi samo od nas, već i od ponašanja naših suseda.
'1	Da	_	_	_
'2	li	_	_	_
'3	ćemo	_	_	_
'4	u	_	_	_
'5	tome	_	_	_
'6	uspeti	_	_	VERB
'7	ne	_	_	_
'8	zavisi	_	_	VERB
'9	samo	_	_	_
'10	od	_	_	_
'11	nas	nsp	_	_
'12	,	_	_	_
'13	već	_	_	_
'14	i	_	_	_
'15	od	_	_	_
'16	ponašanja	_	_	_
'17	naših	_	_	_
'18	suseda	nsp	_	_
'19	.	_	_	_

# sent_id = s141
# text = Setimes: Da li očekujete da Makedonija dobije poziv na samitu u Bukureštu i kako će to uticati na bezbednosnu situaciju u regionu?
'1	Setimes	nsp	_	_
'2	:	_	_	_
'3	Da	_	_	_
'4	li	_	_	_
'5	očekujete	_	_	VERB
'6	da	_	_	_
'7	Makedonija	_	_	_
'8	dobije	_	_	VERB
'9	poziv	_	_	_
'10	na	_	_	_
'11	samitu	_	_	_
'12	u	_	_	_
'13	Bukureštu	_	_	_
'14	i	_	_	_
'15	kako	_	_	_
'16	će	_	_	_
'17	to	_	_	_
'18	uticati	_	_	VERB
'19	na	_	_	_
'20	bezbednosnu	_	_	_
'21	situaciju	_	_	_
'22	u	_	_	_
'23	regionu	nsp	_	_
'24	?	_	_	_

# sent_id = s142
# text = Da li očekujete i promenu ekonomske situacije u zemlji?
'1	Da	_	_	_
'2	li	_	_	_
'3	očekujete	_	_	VERB
'4	i	_	_	_
'5	promenu	_	_	_
'6	ekonomske	_	_	_
'7	situacije	_	_	_
'8	u	_	_	_
'9	zemlji	nsp	_	_
'10	?	_	_	_

# sent_id = s143
# text = Makedonski vojnik oprašta se od svog sina pred odlazak u mirovnu misiju u Avganistan.
'1	Makedonski	_	_	_
'2	vojnik	_	_	_
'3	oprašta	_	_	VERB
'4	se	_	_	_
'5	od	_	_	_
'6	svog	_	_	_
'7	sina	_	_	_
'8	pred	_	_	_
'9	odlazak	_	_	_
'10	u	_	_	_
'11	mirovnu	_	_	_
'12	misiju	_	_	_
'13	u	_	_	_
'14	Avganistan	nsp	_	_
'15	.	_	_	_

# sent_id = s144
# text = Makedonija je poslala svoje mirovnjake u nekoliko misija širom sveta.
'1	Makedonija	_	_	_
'2	je	_	_	_
'3	poslala	_	_	VERB
'4	svoje	_	_	_
'5	mirovnjake	_	_	_
'6	u	_	_	_
'7	nekoliko	_	_	_
'8	misija	_	_	_
'9	širom	_	_	_
'10	sveta	nsp	_	_
'11	.	_	_	_

# sent_id = s145
# text = Crvenkovski: Republika Makedonija ispunila je sve neophodne uslove da bi dobila poziv u NATO.
'1	Crvenkovski	nsp	_	_
'2	:	_	_	_
'3	Republika	_	_	_
'4	Makedonija	_	_	_
'5	ispunila	_	_	VERB
'6	je	_	_	_
'7	sve	_	_	_
'8	neophodne	_	_	_
'9	uslove	_	_	_
'10	da	_	_	_
'11	bi	_	_	_
'12	dobila	_	_	VERB
'13	poziv	_	_	_
'14	u	_	_	_
'15	NATO	nsp	_	_
'16	.	_	_	_

# sent_id = s146
# text = Naš ulazak u Alijansu, kao i pristupanje druge dve zemlje potpisnice Jadranske povelje, Albanije i Hrvatske, nesumnjivo će doprineti daljoj stabilizaciji regiona.
'1	Naš	_	_	_
'2	ulazak	_	_	_
'3	u	_	_	_
'4	Alijansu	nsp	_	_
'5	,	_	_	_
'6	kao	_	_	_
'7	i	_	_	_
'8	pristupanje	_	_	_
'9	druge	_	_	_
'10	dve	_	_	_
'11	zemlje	_	_	_
'12	potpisnice	_	_	_
'13	Jadranske	_	_	_
'14	povelje	nsp	_	_
'15	,	_	_	_
'16	Albanije	_	_	_
'17	i	_	_	_
'18	Hrvatske	nsp	_	_
'19	,	_	_	_
'20	nesumnjivo	_	_	_
'21	će	_	_	_
'22	doprineti	_	_	VERB
'23	daljoj	_	_	_
'24	stabilizaciji	_	_	_
'25	regiona	nsp	_	_
'26	.	_	_	_

# sent_id = s147
# text = To ima dodatnu težinu ako se ima u vidu proglašenje nezavisnosti Kosova i rizike koji iz toga proističu.
'1	To	_	_	_
'2	ima	_	_	VERB
'3	dodatnu	_	_	_
'4	težinu	_	_	_
'5	ako	_	_	_
'6	se	_	_	_
'7	ima	_	_	VERB
'8	u	_	_	_
'9	vidu	_	_	_
'10	proglašenje	_	_	_
'11	nezavisnosti	_	_	_
'12	Kosova	_	_	_
'13	i	_	_	_
'14	rizike	_	_	_
'15	koji	_	_	_
'16	iz	_	_	_
'17	toga	_	_	_
'18	proističu	nsp	_	VERB
'19	.	_	_	_

# sent_id = s148
# text = Svaka dodatna garancija političke i bezbednosne stabilnosti, a članstvo u NATO donosi takve garancije, snažan je podsticaj za priliv novih investicija i ekonomski razvoj.
'1	Svaka	_	_	_
'2	dodatna	_	_	_
'3	garancija	_	_	_
'4	političke	_	_	_
'5	i	_	_	_
'6	bezbednosne	_	_	_
'7	stabilnosti	nsp	_	_
'8	,	_	_	_
'9	a	_	_	_
'10	članstvo	_	_	_
'11	u	_	_	_
'12	NATO	_	_	_
'13	donosi	_	_	VERB
'14	takve	_	_	_
'15	garancije	nsp	_	_
'16	,	_	_	_
'17	snažan	_	_	_
'18	je	_	_	_
'19	podsticaj	_	_	_
'20	za	_	_	_
'21	priliv	_	_	_
'22	novih	_	_	_
'23	investicija	_	_	_
'24	i	_	_	_
'25	ekonomski	_	_	_
'26	razvoj	nsp	_	_
'27	.	_	_	_

# sent_id = s149
# text = Setimes: Da li je spor između Grčke i Makedonije oko imena prepreka za prijem Makedonije u NATO?
'1	Setimes	nsp	_	_
'2	:	_	_	_
'3	Da	_	_	_
'4	li	_	_	_
'5	je	_	_	_
'6	spor	_	_	_
'7	između	_	_	_
'8	Grčke	_	_	_
'9	i	_	_	_
'10	Makedonije	_	_	_
'11	oko	_	_	_
'12	imena	_	_	_
'13	prepreka	_	_	_
'14	za	_	_	_
'15	prijem	_	_	_
'16	Makedonije	_	_	_
'17	u	_	_	_
'18	NATO	nsp	_	_
'19	?	_	_	_

# sent_id = s150
# text = Crvenkovski: Spor oko imena između Makedonije i Grčke je bilateralan spor koji ni na koji način ne spada u uslove za članstvo i u principu ne bi trebalo da bude prepreka za našu integraciju u NATO.
'1	Crvenkovski	nsp	_	_
'2	:	_	_	_
'3	Spor	_	_	_
'4	oko	_	_	_
'5	imena	_	_	_
'6	između	_	_	_
'7	Makedonije	_	_	_
'8	i	_	_	_
'9	Grčke	_	_	_
'10	je	_	_	_
'11	bilateralan	_	_	_
'12	spor	_	_	_
'13	koji	_	_	_
'14	ni	_	_	_
'15	na	_	_	_
'16	koji	_	_	_
'17	način	_	_	_
'18	ne	_	_	_
'19	spada	_	_	VERB
'20	u	_	_	_
'21	uslove	_	_	_
'22	za	_	_	_
'23	članstvo	_	_	_
'24	i	_	_	_
'25	u	_	_	_
'26	principu	_	_	_
'27	ne	_	_	_
'28	bi	_	_	_
'29	trebalo	_	_	VERB
'30	da	_	_	_
'31	bude	_	_	_
'32	prepreka	_	_	_
'33	za	_	_	_
'34	našu	_	_	_
'35	integraciju	_	_	_
'36	u	_	_	_
'37	NATO	nsp	_	_
'38	.	_	_	_

# sent_id = s151
# text = Nažalost, Grčka je punopravna članica Alijanse i preti da će uložiti veto.
'1	Nažalost	nsp	_	_
'2	,	_	_	_
'3	Grčka	_	_	_
'4	je	_	_	_
'5	punopravna	_	_	_
'6	članica	_	_	_
'7	Alijanse	_	_	_
'8	i	_	_	_
'9	preti	_	_	VERB
'10	da	_	_	_
'11	će	_	_	_
'12	uložiti	_	_	VERB
'13	veto	nsp	_	_
'14	.	_	_	_

# sent_id = s152
# text = Na taj način pokušava da nametne svoj interes nad zajedničkim interesom Alijanse u zamenu za regionalnu stabilnost i na njen račun.
'1	Na	_	_	_
'2	taj	_	_	_
'3	način	_	_	_
'4	pokušava	_	_	VERB
'5	da	_	_	_
'6	nametne	_	_	VERB
'7	svoj	_	_	_
'8	interes	_	_	_
'9	nad	_	_	_
'10	zajedničkim	_	_	_
'11	interesom	_	_	_
'12	Alijanse	_	_	_
'13	u	_	_	_
'14	zamenu	_	_	_
'15	za	_	_	_
'16	regionalnu	_	_	_
'17	stabilnost	_	_	_
'18	i	_	_	_
'19	na	_	_	_
'20	njen	_	_	_
'21	račun	nsp	_	_
'22	.	_	_	_

# sent_id = s153
# text = Setimes: Šta će se desiti ako veto ipak bude uložen?
'1	Setimes	nsp	_	_
'2	:	_	_	_
'3	Šta	_	_	_
'4	će	_	_	_
'5	se	_	_	_
'6	desiti	_	_	VERB
'7	ako	_	_	_
'8	veto	_	_	_
'9	ipak	_	_	_
'10	bude	_	_	_
'11	uložen	nsp	_	_
'12	?	_	_	_

# sent_id = s154
# text = Vi i vlada imate zajednički stav - ako izbor spadne na ime ili poziv u NATO, Makedonija mora da izabere svoje ime.
'1	Vi	_	_	_
'2	i	_	_	_
'3	vlada	_	_	_
'4	imate	_	_	VERB
'5	zajednički	_	_	_
'6	stav	_	_	_
'7	-	_	_	_
'8	ako	_	_	_
'9	izbor	_	_	_
'10	spadne	_	_	VERB
'11	na	_	_	_
'12	ime	_	_	_
'13	ili	_	_	_
'14	poziv	_	_	_
'15	u	_	_	_
'16	NATO	nsp	_	_
'17	,	_	_	_
'18	Makedonija	_	_	_
'19	mora	_	_	VERB
'20	da	_	_	_
'21	izabere	_	_	VERB
'22	svoje	_	_	_
'23	ime	nsp	_	_
'24	.	_	_	_

# sent_id = s155
# text = Crvenkovski: Iskreno se nadam da se to neće desiti.
'1	Crvenkovski	nsp	_	_
'2	:	_	_	_
'3	Iskreno	_	_	_
'4	se	_	_	_
'5	nadam	_	_	VERB
'6	da	_	_	_
'7	se	_	_	_
'8	to	_	_	_
'9	neće	_	_	_
'10	desiti	nsp	_	VERB
'11	.	_	_	_

# sent_id = s156
# text = Republika Makedonija je iskrena u svojoj odlučnosti da postane članica NATO.
'1	Republika	_	_	_
'2	Makedonija	_	_	_
'3	je	_	_	_
'4	iskrena	_	_	_
'5	u	_	_	_
'6	svojoj	_	_	_
'7	odlučnosti	_	_	_
'8	da	_	_	_
'9	postane	_	_	VERB
'10	članica	_	_	_
'11	NATO	nsp	_	_
'12	.	_	_	_

# sent_id = s157
# text = Proteklih godina posvećeno smo radili na ostvarenju tog cilja i zaslužujemo poziv.
'1	Proteklih	_	_	_
'2	godina	_	_	_
'3	posvećeno	_	_	_
'4	smo	_	_	_
'5	radili	_	_	VERB
'6	na	_	_	_
'7	ostvarenju	_	_	_
'8	tog	_	_	_
'9	cilja	_	_	_
'10	i	_	_	_
'11	zaslužujemo	_	_	VERB
'12	poziv	nsp	_	_
'13	.	_	_	_

# sent_id = s158
# text = Nije ni pravično, niti u duhu osnovnih vrednosti na kojima Alijansa počiva da se od nas traži da za članstvo platimo odustajanjem od našeg nacionalnog i kulturnog identiteta.
'1	Nije	_	_	_
'2	ni	_	_	_
'3	pravično	nsp	_	_
'4	,	_	_	_
'5	niti	_	_	_
'6	u	_	_	_
'7	duhu	_	_	_
'8	osnovnih	_	_	_
'9	vrednosti	_	_	_
'10	na	_	_	_
'11	kojima	_	_	_
'12	Alijansa	_	_	_
'13	počiva	_	_	VERB
'14	da	_	_	_
'15	se	_	_	_
'16	od	_	_	_
'17	nas	_	_	_
'18	traži	_	_	VERB
'19	da	_	_	_
'20	za	_	_	_
'21	članstvo	_	_	_
'22	platimo	_	_	VERB
'23	odustajanjem	_	_	_
'24	od	_	_	_
'25	našeg	_	_	_
'26	nacionalnog	_	_	_
'27	i	_	_	_
'28	kulturnog	_	_	_
'29	identiteta	nsp	_	_
'30	.	_	_	_

# sent_id = s159
# text = Setimes: Posetili ste makedonske mirovnjake u Iraku.
'1	Setimes	nsp	_	_
'2	:	_	_	_
'3	Posetili	_	_	VERB
'4	ste	_	_	_
'5	makedonske	_	_	_
'6	mirovnjake	_	_	_
'7	u	_	_	_
'8	Iraku	nsp	_	_
'9	.	_	_	_

# sent_id = s160
# text = Kakvo je iskustvo iz tog poduhvata i koliko Makedonija dobija od slanja vojnika u te mirovne misije?
'1	Kakvo	_	_	_
'2	je	_	_	_
'3	iskustvo	_	_	_
'4	iz	_	_	_
'5	tog	_	_	_
'6	poduhvata	_	_	_
'7	i	_	_	_
'8	koliko	_	_	_
'9	Makedonija	_	_	_
'10	dobija	_	_	VERB
'11	od	_	_	_
'12	slanja	_	_	_
'13	vojnika	_	_	_
'14	u	_	_	_
'15	te	_	_	_
'16	mirovne	_	_	_
'17	misije	nsp	_	_
'18	?	_	_	_

# sent_id = s161
# text = Crvenkovski: Makedonski vojnici učestvuju u vojnim misijama u Iraku, Avganistanu, Bosni i Hercegovini i Libanu.
'1	Crvenkovski	nsp	_	_
'2	:	_	_	_
'3	Makedonski	_	_	_
'4	vojnici	_	_	_
'5	učestvuju	_	_	VERB
'6	u	_	_	_
'7	vojnim	_	_	_
'8	misijama	_	_	_
'9	u	_	_	_
'10	Iraku	nsp	_	_
'11	,	_	_	_
'12	Avganistanu	nsp	_	_
'13	,	_	_	_
'14	Bosni	_	_	_
'15	i	_	_	_
'16	Hercegovini	_	_	_
'17	i	_	_	_
'18	Libanu	nsp	_	_
'19	.	_	_	_

# sent_id = s162
# text = Na taj način, mi se već ponašamo kao punopravan i odgovoran član NATO i dajemo svoj doprinos mirovnim operacijama širom sveta.
'1	Na	_	_	_
'2	taj	_	_	_
'3	način	nsp	_	_
'4	,	_	_	_
'5	mi	_	_	_
'6	se	_	_	_
'7	već	_	_	_
'8	ponašamo	_	_	VERB
'9	kao	_	_	_
'10	punopravan	_	_	_
'11	i	_	_	_
'12	odgovoran	_	_	_
'13	član	_	_	_
'14	NATO	_	_	_
'15	i	_	_	_
'16	dajemo	_	_	VERB
'17	svoj	_	_	_
'18	doprinos	_	_	_
'19	mirovnim	_	_	_
'20	operacijama	_	_	_
'21	širom	_	_	_
'22	sveta	nsp	_	_
'23	.	_	_	_

# sent_id = s163
# text = Makedonska vojska mnogo više daje nego što dobija od tih aranžmana i u potpunosti smo svesni svog dela odgovornosti i voljni da prihvatimo taj izazov.
'1	Makedonska	_	_	_
'2	vojska	_	_	_
'3	mnogo	_	_	_
'4	više	_	_	_
'5	daje	_	_	VERB
'6	nego	_	_	_
'7	što	_	_	_
'8	dobija	_	_	VERB
'9	od	_	_	_
'10	tih	_	_	_
'11	aranžmana	_	_	_
'12	i	_	_	_
'13	u	_	_	_
'14	potpunosti	_	_	_
'15	smo	_	_	_
'16	svesni	_	_	_
'17	svog	_	_	_
'18	dela	_	_	_
'19	odgovornosti	_	_	_
'20	i	_	_	_
'21	voljni	_	_	_
'22	da	_	_	_
'23	prihvatimo	_	_	VERB
'24	taj	_	_	_
'25	izazov	nsp	_	_
'26	.	_	_	_

# sent_id = s164
# text = Generalni sekretar NATO Jap de Hop Shefer (desno) i Crvenkovski obraćaju se novinarima posle sastanka u glavnom štabu NATO prošle godine.
'1	Generalni	_	_	_
'2	sekretar	_	_	_
'3	NATO	_	_	_
'4	Jap	_	_	_
'5	de	_	_	_
'6	Hop	_	_	_
'7	Shefer	_	_	_
'8	(	nsp	_	_
'9	desno	nsp	_	_
'10	)	_	_	_
'11	i	_	_	_
'12	Crvenkovski	_	_	_
'13	obraćaju	_	_	VERB
'14	se	_	_	_
'15	novinarima	_	_	_
'16	posle	_	_	_
'17	sastanka	_	_	_
'18	u	_	_	_
'19	glavnom	_	_	_
'20	štabu	_	_	_
'21	NATO	_	_	_
'22	prošle	_	_	_
'23	godine	nsp	_	_
'24	.	_	_	_

# sent_id = s165
# text = Setimes: Da li ste zadovoljni kohabitacijom sa vladom?
'1	Setimes	nsp	_	_
'2	:	_	_	_
'3	Da	_	_	_
'4	li	_	_	_
'5	ste	_	_	_
'6	zadovoljni	_	_	_
'7	kohabitacijom	_	_	_
'8	sa	_	_	_
'9	vladom	nsp	_	_
'10	?	_	_	_

# sent_id = s166
# text = Crvenkovski: Kada se radi o ključnim pitanjima za Republiku Makedoniju, vlada i ja imamo zadovoljavajuću saradnju i harmonizovane stavove.
'1	Crvenkovski	nsp	_	_
'2	:	_	_	_
'3	Kada	_	_	_
'4	se	_	_	_
'5	radi	_	_	VERB
'6	o	_	_	_
'7	ključnim	_	_	_
'8	pitanjima	_	_	_
'9	za	_	_	_
'10	Republiku	_	_	_
'11	Makedoniju	nsp	_	_
'12	,	_	_	_
'13	vlada	_	_	_
'14	i	_	_	_
'15	ja	_	_	_
'16	imamo	_	_	VERB
'17	zadovoljavajuću	_	_	_
'18	saradnju	_	_	_
'19	i	_	_	_
'20	harmonizovane	_	_	_
'21	stavove	nsp	_	_
'22	.	_	_	_

# sent_id = s167
# text = Naravno, kohabitacija se može podići na viši nivo i trebalo bi to uraditi, ali to je nešto o čemu ne bih želeo konkretno da govorim u ovom periodu.
'1	Naravno	nsp	_	_
'2	,	_	_	_
'3	kohabitacija	_	_	_
'4	se	_	_	_
'5	može	_	_	VERB
'6	podići	_	_	VERB
'7	na	_	_	_
'8	viši	_	_	_
'9	nivo	_	_	_
'10	i	_	_	_
'11	trebalo	_	_	VERB
'12	bi	_	_	_
'13	to	_	_	_
'14	uraditi	nsp	_	VERB
'15	,	_	_	_
'16	ali	_	_	_
'17	to	_	_	_
'18	je	_	_	_
'19	nešto	_	_	_
'20	o	_	_	_
'21	čemu	_	_	_
'22	ne	_	_	_
'23	bih	_	_	_
'24	želeo	_	_	VERB
'25	konkretno	_	_	_
'26	da	_	_	_
'27	govorim	_	_	VERB
'28	u	_	_	_
'29	ovom	_	_	_
'30	periodu	nsp	_	_
'31	.	_	_	_

# sent_id = s168
# text = Setimes: Koliko je daleko Makedonija otišla na svom putu prema EU?
'1	Setimes	nsp	_	_
'2	:	_	_	_
'3	Koliko	_	_	_
'4	je	_	_	_
'5	daleko	_	_	_
'6	Makedonija	_	_	_
'7	otišla	_	_	VERB
'8	na	_	_	_
'9	svom	_	_	_
'10	putu	_	_	_
'11	prema	_	_	_
'12	EU	nsp	_	_
'13	?	_	_	_

# sent_id = s169
# text = Da li ste zadovoljni tempom reformi?
'1	Da	_	_	_
'2	li	_	_	_
'3	ste	_	_	_
'4	zadovoljni	_	_	_
'5	tempom	_	_	_
'6	reformi	nsp	_	_
'7	?	_	_	_

# sent_id = s170
# text = Crvenkovski: Naš je cilj da u 2008. godini ispunimo sve neophodne preduslove da bi nam bio određen datum za početak pregovora o pristupanju, kao i da u potpunosti i uspešno završimo dijalog o liberalizaciji viznog režima.
'1	Crvenkovski	nsp	_	_
'2	:	_	_	_
'3	Naš	_	_	_
'4	je	_	_	_
'5	cilj	_	_	_
'6	da	_	_	_
'7	u	_	_	_
'8	2008.	_	_	_
'9	godini	_	_	_
'10	ispunimo	_	_	VERB
'11	sve	_	_	_
'12	neophodne	_	_	_
'13	preduslove	_	_	_
'14	da	_	_	_
'15	bi	_	_	_
'16	nam	_	_	_
'17	bio	_	_	_
'18	određen	_	_	_
'19	datum	_	_	_
'20	za	_	_	_
'21	početak	_	_	_
'22	pregovora	_	_	_
'23	o	_	_	_
'24	pristupanju	nsp	_	_
'25	,	_	_	_
'26	kao	_	_	_
'27	i	_	_	_
'28	da	_	_	_
'29	u	_	_	_
'30	potpunosti	_	_	_
'31	i	_	_	_
'32	uspešno	_	_	_
'33	završimo	_	_	VERB
'34	dijalog	_	_	_
'35	o	_	_	_
'36	liberalizaciji	_	_	_
'37	viznog	_	_	_
'38	režima	nsp	_	_
'39	.	_	_	_

# sent_id = s171
# text = Realistično gledano, to su ostvarljivi ciljevi.
'1	Realistično	_	_	_
'2	gledano	nsp	_	_
'3	,	_	_	_
'4	to	_	_	_
'5	su	_	_	_
'6	ostvarljivi	_	_	_
'7	ciljevi	nsp	_	_
'8	.	_	_	_

# sent_id = s172
# text = Žalim što ih, zbog sopstvenih slabosti, nismo ispunili prošle godine.
'1	Žalim	_	_	VERB
'2	što	_	_	_
'3	ih	nsp	_	_
'4	,	_	_	_
'5	zbog	_	_	_
'6	sopstvenih	_	_	_
'7	slabosti	nsp	_	_
'8	,	_	_	_
'9	nismo	_	_	_
'10	ispunili	_	_	VERB
'11	prošle	_	_	_
'12	godine	nsp	_	_
'13	.	_	_	_

# sent_id = s173
# text = Uveren sam da će se reforme intenzivirati u sledećih nekoliko meseci.
'1	Uveren	_	_	_
'2	sam	_	_	_
'3	da	_	_	_
'4	će	_	_	_
'5	se	_	_	_
'6	reforme	_	_	_
'7	intenzivirati	_	_	VERB
'8	u	_	_	_
'9	sledećih	_	_	_
'10	nekoliko	_	_	_
'11	meseci	nsp	_	_
'12	.	_	_	_

# sent_id = s174
# text = Setimes: Da li očekujete da Makedonija dobije datum o pregovorima do kraja ove godine?
'1	Setimes	nsp	_	_
'2	:	_	_	_
'3	Da	_	_	_
'4	li	_	_	_
'5	očekujete	_	_	VERB
'6	da	_	_	_
'7	Makedonija	_	_	_
'8	dobije	_	_	VERB
'9	datum	_	_	_
'10	o	_	_	_
'11	pregovorima	_	_	_
'12	do	_	_	_
'13	kraja	_	_	_
'14	ove	_	_	_
'15	godine	nsp	_	_
'16	?	_	_	_

# sent_id = s175
# text = Crvenkovski: Republika Makedonija poseduje kako institucionalni, tako i demokratski kapacitet i, što je još važnije, snažnu odlučnost da do kraja 2008. dobije datum o početku pregovora.
'1	Crvenkovski	nsp	_	_
'2	:	_	_	_
'3	Republika	_	_	_
'4	Makedonija	_	_	_
'5	poseduje	_	_	VERB
'6	kako	_	_	_
'7	institucionalni	nsp	_	_
'8	,	_	_	_
'9	tako	_	_	_
'10	i	_	_	_
'11	demokratski	_	_	_
'12	kapacitet	_	_	_
'13	i	nsp	_	_
'14	,	_	_	_
'15	što	_	_	_
'16	je	_	_	_
'17	još	_	_	_
'18	važnije	nsp	_	_
'19	,	_	_	_
'20	snažnu	_	_	_
'21	odlučnost	_	_	_
'22	da	_	_	_
'23	do	_	_	_
'24	kraja	_	_	_
'25	2008.	_	_	_
'26	dobije	_	_	VERB
'27	datum	_	_	_
'28	o	_	_	_
'29	početku	_	_	_
'30	pregovora	nsp	_	_
'31	.	_	_	_

# sent_id = s176
# text = Setimes: Američki ambasador nedavno je podsetio na potrebu da se završi sprovođenje Majskog sporazuma koji su potpisale vlada i Demokratski savez za integraciju (DSI).
'1	Setimes	nsp	_	_
'2	:	_	_	_
'3	Američki	_	_	_
'4	ambasador	_	_	_
'5	nedavno	_	_	_
'6	je	_	_	_
'7	podsetio	_	_	VERB
'8	na	_	_	_
'9	potrebu	_	_	_
'10	da	_	_	_
'11	se	_	_	_
'12	završi	_	_	VERB
'13	sprovođenje	_	_	_
'14	Majskog	_	_	_
'15	sporazuma	_	_	_
'16	koji	_	_	_
'17	su	_	_	_
'18	potpisale	_	_	VERB
'19	vlada	_	_	_
'20	i	_	_	_
'21	Demokratski	_	_	_
'22	savez	_	_	_
'23	za	_	_	_
'24	integraciju	_	_	_
'25	(	nsp	_	_
'26	DSI	nsp	_	_
'27	)	nsp	_	_
'28	.	_	_	_

# sent_id = s177
# text = Da li podržavate primenu tog sporazuma?
'1	Da	_	_	_
'2	li	_	_	_
'3	podržavate	_	_	VERB
'4	primenu	_	_	_
'5	tog	_	_	_
'6	sporazuma	nsp	_	_
'7	?	_	_	_

# sent_id = s178
# text = Crvenkovski: Sporazumi se zaključuju da bi bili sprovedeni.
'1	Crvenkovski	nsp	_	_
'2	:	_	_	_
'3	Sporazumi	_	_	_
'4	se	_	_	_
'5	zaključuju	_	_	VERB
'6	da	_	_	_
'7	bi	_	_	_
'8	bili	_	_	_
'9	sprovedeni	nsp	_	_
'10	.	_	_	_

# sent_id = s179
# text = Ako se beži od obaveza, gubi se smisao političkog dijaloga.
'1	Ako	_	_	_
'2	se	_	_	_
'3	beži	_	_	VERB
'4	od	_	_	_
'5	obaveza	nsp	_	_
'6	,	_	_	_
'7	gubi	_	_	VERB
'8	se	_	_	_
'9	smisao	_	_	_
'10	političkog	_	_	_
'11	dijaloga	nsp	_	_
'12	.	_	_	_

# sent_id = s180
# text = Nadam se da su strane koje su zaključile Majski sporazum, u ovom slučaju premijer Gruevski i vođa DSI Ali Ahmeti, potpuno svesne toga.
'1	Nadam	_	_	VERB
'2	se	_	_	_
'3	da	_	_	_
'4	su	_	_	_
'5	strane	_	_	_
'6	koje	_	_	_
'7	su	_	_	_
'8	zaključile	_	_	VERB
'9	Majski	_	_	_
'10	sporazum	nsp	_	_
'11	,	_	_	_
'12	u	_	_	_
'13	ovom	_	_	_
'14	slučaju	_	_	_
'15	premijer	_	_	_
'16	Gruevski	_	_	_
'17	i	_	_	_
'18	vođa	_	_	_
'19	DSI	_	_	_
'20	Ali	_	_	_
'21	Ahmeti	nsp	_	_
'22	,	_	_	_
'23	potpuno	_	_	_
'24	svesne	_	_	_
'25	toga	nsp	_	_
'26	.	_	_	_

# sent_id = s181
# text = Setimes: Često putujete u zemlje regiona.
'1	Setimes	nsp	_	_
'2	:	_	_	_
'3	Često	_	_	_
'4	putujete	_	_	VERB
'5	u	_	_	_
'6	zemlje	_	_	_
'7	regiona	nsp	_	_
'8	.	_	_	_

# sent_id = s182
# text = Kakvo je vaše mišljenje o saradnji zemalja Balkana i koliko je ona, po vama, važna?
'1	Kakvo	_	_	_
'2	je	_	_	_
'3	vaše	_	_	_
'4	mišljenje	_	_	_
'5	o	_	_	_
'6	saradnji	_	_	_
'7	zemalja	_	_	_
'8	Balkana	_	_	_
'9	i	_	_	_
'10	koliko	_	_	_
'11	je	_	_	_
'12	ona	nsp	_	_
'13	,	_	_	_
'14	po	_	_	_
'15	vama	nsp	_	_
'16	,	_	_	_
'17	važna	nsp	_	_
'18	?	_	_	_

# sent_id = s183
# text = Crvenkovski: Regionalna saradnja je od presudnog značaja.
'1	Crvenkovski	nsp	_	_
'2	:	_	_	_
'3	Regionalna	_	_	_
'4	saradnja	_	_	_
'5	je	_	_	_
'6	od	_	_	_
'7	presudnog	_	_	_
'8	značaja	nsp	_	_
'9	.	_	_	_

# sent_id = s184
# text = Srećan samo zbog činjenice da je u tom pogledu situacija danas neuporedivo bolja nego pre deset godina.
'1	Srećan	_	_	_
'2	samo	_	_	_
'3	zbog	_	_	_
'4	činjenice	_	_	_
'5	da	_	_	_
'6	je	_	_	_
'7	u	_	_	_
'8	tom	_	_	_
'9	pogledu	_	_	_
'10	situacija	_	_	_
'11	danas	_	_	_
'12	neuporedivo	_	_	_
'13	bolja	_	_	_
'14	nego	_	_	_
'15	pre	_	_	_
'16	deset	_	_	_
'17	godina	nsp	_	_
'18	.	_	_	_

# sent_id = s185
# text = Pred regionom je nova istorijska prilika.
'1	Pred	_	_	_
'2	regionom	_	_	_
'3	je	_	_	_
'4	nova	_	_	_
'5	istorijska	_	_	_
'6	prilika	nsp	_	_
'7	.	_	_	_

# sent_id = s186
# text = Zemlje vode političke elite koje daju prednost saradnji umesto sukobima.
'1	Zemlje	_	_	_
'2	vode	_	_	VERB
'3	političke	_	_	_
'4	elite	_	_	_
'5	koje	_	_	_
'6	daju	_	_	VERB
'7	prednost	_	_	_
'8	saradnji	_	_	_
'9	umesto	_	_	_
'10	sukobima	nsp	_	_
'11	.	_	_	_

# sent_id = s187
# text = Svi oni posvećeni su istim demokratskim vrednostima i zajedničkoj evropskoj perspektivi.
'1	Svi	_	_	_
'2	oni	_	_	_
'3	posvećeni	_	_	_
'4	su	_	_	_
'5	istim	_	_	_
'6	demokratskim	_	_	_
'7	vrednostima	_	_	_
'8	i	_	_	_
'9	zajedničkoj	_	_	_
'10	evropskoj	_	_	_
'11	perspektivi	nsp	_	_
'12	.	_	_	_

# sent_id = s188
# text = To se mora iskoristiti.
'1	To	_	_	_
'2	se	_	_	_
'3	mora	_	_	VERB
'4	iskoristiti	nsp	_	VERB
'5	.	_	_	_

# sent_id = s189
# text = Turska promenila ustav
'1	Turska	_	_	_
'2	promenila	_	_	VERB
'3	ustav	_	_	_

# sent_id = s190
# text = Turski predsednik potpisao je u petak ključni paket ustavnih amandmana, sa ciljem da se zemlja približi standardima EU.
'1	Turski	_	_	_
'2	predsednik	_	_	_
'3	potpisao	_	_	VERB
'4	je	_	_	_
'5	u	_	_	_
'6	petak	_	_	_
'7	ključni	_	_	_
'8	paket	_	_	_
'9	ustavnih	_	_	_
'10	amandmana	nsp	_	_
'11	,	_	_	_
'12	sa	_	_	_
'13	ciljem	_	_	_
'14	da	_	_	_
'15	se	_	_	_
'16	zemlja	_	_	_
'17	približi	_	_	VERB
'18	standardima	_	_	_
'19	EU	nsp	_	_
'20	.	_	_	_

# sent_id = s191
# text = Predsednik Ahmet Nedžet Sezer potpisao je u petak (21. maja) ustavne amandmane.
'1	Predsednik	_	_	_
'2	Ahmet	_	_	_
'3	Nedžet	_	_	_
'4	Sezer	_	_	_
'5	potpisao	_	_	VERB
'6	je	_	_	_
'7	u	_	_	_
'8	petak	_	_	_
'9	(	nsp	_	_
'10	21.	_	_	_
'11	maja	nsp	_	_
'12	)	_	_	_
'13	ustavne	_	_	_
'14	amandmane	nsp	_	_
'15	.	_	_	_

# sent_id = s192
# text = Predsednik Ahmet Nedžet Sezer potpisao je u petak (21. maja) ključni paket ustavnih izmena, sa ciljem da se domaće zakonodavstvo približi standardima EU.
'1	Predsednik	_	_	_
'2	Ahmet	_	_	_
'3	Nedžet	_	_	_
'4	Sezer	_	_	_
'5	potpisao	_	_	VERB
'6	je	_	_	_
'7	u	_	_	_
'8	petak	_	_	_
'9	(	nsp	_	_
'10	21.	_	_	_
'11	maja	nsp	_	_
'12	)	_	_	_
'13	ključni	_	_	_
'14	paket	_	_	_
'15	ustavnih	_	_	_
'16	izmena	nsp	_	_
'17	,	_	_	_
'18	sa	_	_	_
'19	ciljem	_	_	_
'20	da	_	_	_
'21	se	_	_	_
'22	domaće	_	_	_
'23	zakonodavstvo	_	_	_
'24	približi	_	_	VERB
'25	standardima	_	_	_
'26	EU	nsp	_	_
'27	.	_	_	_

# sent_id = s193
# text = Paket koji sadrži 10 članova predložila je vlada predvođena Partijom pravde i razvoja (AKP), a podržali su ga opoziciona Republikanska narodna partija (CHP) i Partija pravog puta (DJP).
'1	Paket	_	_	_
'2	koji	_	_	_
'3	sadrži	_	_	VERB
'4	10	_	_	_
'5	članova	_	_	_
'6	predložila	_	_	VERB
'7	je	_	_	_
'8	vlada	_	_	_
'9	predvođena	_	_	_
'10	Partijom	_	_	_
'11	pravde	_	_	_
'12	i	_	_	_
'13	razvoja	_	_	_
'14	(	nsp	_	_
'15	AKP	nsp	_	_
'16	)	nsp	_	_
'17	,	_	_	_
'18	a	_	_	_
'19	podržali	_	_	VERB
'20	su	_	_	_
'21	ga	_	_	_
'22	opoziciona	_	_	_
'23	Republikanska	_	_	_
'24	narodna	_	_	_
'25	partija	_	_	_
'26	(	nsp	_	_
'27	CHP	nsp	_	_
'28	)	_	_	_
'29	i	_	_	_
'30	Partija	_	_	_
'31	pravog	_	_	_
'32	puta	_	_	_
'33	(	nsp	_	_
'34	DJP	nsp	_	_
'35	)	nsp	_	_
'36	.	_	_	_

# sent_id = s194
# text = Usvajanjem amandmana Ustav Turske je izmenjen već deveti put od 1982. godine.
'1	Usvajanjem	_	_	_
'2	amandmana	_	_	_
'3	Ustav	_	_	_
'4	Turske	_	_	_
'5	je	_	_	_
'6	izmenjen	_	_	_
'7	već	_	_	_
'8	deveti	_	_	_
'9	put	_	_	_
'10	od	_	_	_
'11	1982.	_	_	_
'12	godine	nsp	_	_
'13	.	_	_	_

# sent_id = s195
# text = Sadašnji ustav izradila je vojna vlada posle prevrata 1980. godine, a počeo je da se primenjuje 1982.
'1	Sadašnji	_	_	_
'2	ustav	_	_	_
'3	izradila	_	_	VERB
'4	je	_	_	_
'5	vojna	_	_	_
'6	vlada	_	_	_
'7	posle	_	_	_
'8	prevrata	_	_	_
'9	1980.	_	_	_
'10	godine	nsp	_	_
'11	,	_	_	_
'12	a	_	_	_
'13	počeo	_	_	VERB
'14	je	_	_	_
'15	da	_	_	_
'16	se	_	_	_
'17	primenjuje	_	_	VERB
'18	1982.	_	_	_

# sent_id = s196
# text = Paketom amandmana, pripremljenim u okviru nastojanja Turske za prijem u EU, ukidaju se kontroverzni Državni bezbednosni sudovi (DGM) i mesto predstavnika Kancelarije načelnika Generalštaba u Visokom odboru za obrazovanje (JOK), garantuje se jednakost polova, ukida smrtna kazna, troškovi vojske stavljaju pod punu kontrolu Revizorske kancelarije i zabranjuje se zaplena štamparija.
'1	Paketom	_	_	_
'2	amandmana	nsp	_	_
'3	,	_	_	_
'4	pripremljenim	_	_	_
'5	u	_	_	_
'6	okviru	_	_	_
'7	nastojanja	_	_	_
'8	Turske	_	_	_
'9	za	_	_	_
'10	prijem	_	_	_
'11	u	_	_	_
'12	EU	nsp	_	_
'13	,	_	_	_
'14	ukidaju	_	_	VERB
'15	se	_	_	_
'16	kontroverzni	_	_	_
'17	Državni	_	_	_
'18	bezbednosni	_	_	_
'19	sudovi	_	_	_
'20	(	nsp	_	_
'21	DGM	nsp	_	_
'22	)	_	_	_
'23	i	_	_	_
'24	mesto	_	_	_
'25	predstavnika	_	_	_
'26	Kancelarije	_	_	_
'27	načelnika	_	_	_
'28	Generalštaba	_	_	_
'29	u	_	_	_
'30	Visokom	_	_	_
'31	odboru	_	_	_
'32	za	_	_	_
'33	obrazovanje	_	_	_
'34	(	nsp	_	_
'35	JOK	nsp	_	_
'36	)	nsp	_	_
'37	,	_	_	_
'38	garantuje	_	_	VERB
'39	se	_	_	_
'40	jednakost	_	_	_
'41	polova	nsp	_	_
'42	,	_	_	_
'43	ukida	_	_	VERB
'44	smrtna	_	_	_
'45	kazna	nsp	_	_
'46	,	_	_	_
'47	troškovi	_	_	_
'48	vojske	_	_	_
'49	stavljaju	_	_	VERB
'50	pod	_	_	_
'51	punu	_	_	_
'52	kontrolu	_	_	_
'53	Revizorske	_	_	_
'54	kancelarije	_	_	_
'55	i	_	_	_
'56	zabranjuje	_	_	VERB
'57	se	_	_	_
'58	zaplena	_	_	_
'59	štamparija	nsp	_	_
'60	.	_	_	_

# sent_id = s197
# text = Promenjeno je ukupno deset članova ustava:
'1	Promenjeno	_	_	_
'2	je	_	_	_
'3	ukupno	_	_	_
'4	deset	_	_	_
'5	članova	_	_	_
'6	ustava	nsp	_	_
'7	:	_	_	_

# sent_id = s198
# text = Članu 10 dodata je formulacija "žene i muškarci imaju jednaka prava".
'1	Članu	_	_	_
'2	10	_	_	_
'3	dodata	_	_	_
'4	je	_	_	_
'5	formulacija	_	_	_
'6	"	nsp	_	_
'7	žene	_	_	_
'8	i	_	_	_
'9	muškarci	_	_	_
'10	imaju	_	_	VERB
'11	jednaka	_	_	_
'12	prava	nsp	_	_
'13	"	nsp	_	_
'14	.	_	_	_

# sent_id = s199
# text = "Izvršenje smrtne kazne" izbačeno je iz Člana 15.
'1	"	nsp	_	_
'2	Izvršenje	_	_	_
'3	smrtne	_	_	_
'4	kazne	nsp	_	_
'5	"	_	_	_
'6	izbačeno	_	_	_
'7	je	_	_	_
'8	iz	_	_	_
'9	Člana	_	_	_
'10	15.	_	_	_

# sent_id = s200
# text = Iz Člana 17 izbačen je pasus u kojem se pominje smrtna kazna, kao i rečenica "tokom implementacije direktiva izvršnih vlasti u vreme vanrednog stanja".
'1	Iz	_	_	_
'2	Člana	_	_	_
'3	17	_	_	_
'4	izbačen	_	_	_
'5	je	_	_	_
'6	pasus	_	_	_
'7	u	_	_	_
'8	kojem	_	_	_
'9	se	_	_	_
'10	pominje	_	_	VERB
'11	smrtna	_	_	_
'12	kazna	nsp	_	_
'13	,	_	_	_
'14	kao	_	_	_
'15	i	_	_	_
'16	rečenica	_	_	_
'17	"	nsp	_	_
'18	tokom	_	_	_
'19	implementacije	_	_	_
'20	direktiva	_	_	_
'21	izvršnih	_	_	_
'22	vlasti	_	_	_
'23	u	_	_	_
'24	vreme	_	_	_
'25	vanrednog	_	_	_
'26	stanja	nsp	_	_
'27	"	nsp	_	_
'28	.	_	_	_
